432Lab4/Green_3612A_no_polarizer.csv

Model,MSO2024
Firmware Version,1.52

Point Format,Y
Horizontal Units,S
Horizontal Scale,0.01
Sample Interval,3.2e-05
Filter Frequency,2e+08
Record Length,3125
Gating,0.0% to 100.0%
Probe Attenuation,1
Vertical Units,V
Vertical Offset,0
Vertical Scale,0.05
Label,
TIME,CH1
1.3200e-02,0.0593203
1.3232e-02,0.0600313
1.3264e-02,0.0601563
1.3296e-02,0.0611641
1.3328e-02,0.0613047
1.3360e-02,0.0630156
1.3392e-02,0.0642813
1.3424e-02,0.0663906
1.3456e-02,0.0699063
1.3488e-02,0.0716094
1.3520e-02,0.0750469
1.3552e-02,0.0792031
1.3584e-02,0.0827422
1.3616e-02,0.0849531
1.3648e-02,0.0873906
1.3680e-02,0.0875547
1.3712e-02,0.0890547
1.3744e-02,0.0914844
1.3776e-02,0.0942891
1.3808e-02,0.0970391
1.3840e-02,0.0983438
1.3872e-02,0.100195
1.3904e-02,0.103266
1.3936e-02,0.106555
1.3968e-02,0.108516
1.4000e-02,0.111281
1.4032e-02,0.114859
1.4064e-02,0.117742
1.4096e-02,0.121406
1.4128e-02,0.123219
1.4160e-02,0.126672
1.4192e-02,0.130984
1.4224e-02,0.133109
1.4256e-02,0.135148
1.4288e-02,0.137461
1.4320e-02,0.140008
1.4352e-02,0.14268
1.4384e-02,0.144727
1.4416e-02,0.147711
1.4448e-02,0.149711
1.4480e-02,0.150063
1.4512e-02,0.1495
1.4544e-02,0.148852
1.4576e-02,0.146398
1.4608e-02,0.145617
1.4640e-02,0.144594
1.4672e-02,0.140109
1.4704e-02,0.138305
1.4736e-02,0.133766
1.4768e-02,0.128438
1.4800e-02,0.122984
1.4832e-02,0.117336
1.4864e-02,0.11232
1.4896e-02,0.104781
1.4928e-02,0.0993125
1.4960e-02,0.0937422
1.4992e-02,0.0860234
1.5024e-02,0.0790938
1.5056e-02,0.0736328
1.5088e-02,0.0691797
1.5120e-02,0.0652813
1.5152e-02,0.0622031
1.5184e-02,0.0575547
1.5216e-02,0.0527813
1.5248e-02,0.0498359
1.5280e-02,0.0469922
1.5312e-02,0.0444297
1.5344e-02,0.0427422
1.5376e-02,0.0408516
1.5408e-02,0.0393984
1.5440e-02,0.0376328
1.5472e-02,0.0362422
1.5504e-02,0.0352578
1.5536e-02,0.0352813
1.5568e-02,0.0348984
1.5600e-02,0.0344453
1.5632e-02,0.0336406
1.5664e-02,0.0316953
1.5696e-02,0.0311719
1.5728e-02,0.0314766
1.5760e-02,0.0316016
1.5792e-02,0.0321875
1.5824e-02,0.0326094
1.5856e-02,0.0324453
1.5888e-02,0.0322188
1.5920e-02,0.0323203
1.5952e-02,0.0312813
1.5984e-02,0.0314453
1.6016e-02,0.0318203
1.6048e-02,0.0334141
1.6080e-02,0.0342813
1.6112e-02,0.0348906
1.6144e-02,0.0357266
1.6176e-02,0.0361953
1.6208e-02,0.0374609
1.6240e-02,0.0378594
1.6272e-02,0.0385625
1.6304e-02,0.0392734
1.6336e-02,0.0386484
1.6368e-02,0.0392031
1.6400e-02,0.0406953
1.6432e-02,0.0408672
1.6464e-02,0.0404766
1.6496e-02,0.0405469
1.6528e-02,0.0408984
1.6560e-02,0.0417734
1.6592e-02,0.0435859
1.6624e-02,0.0425859
1.6656e-02,0.0434766
1.6688e-02,0.0441328
1.6720e-02,0.0435938
1.6752e-02,0.0444766
1.6784e-02,0.0457031
1.6816e-02,0.0475156
1.6848e-02,0.0494141
1.6880e-02,0.0505469
1.6912e-02,0.0493281
1.6944e-02,0.0505781
1.6976e-02,0.0523125
1.7008e-02,0.0532969
1.7040e-02,0.0531484
1.7072e-02,0.0529453
1.7104e-02,0.0529766
1.7136e-02,0.0527266
1.7168e-02,0.0542578
1.7200e-02,0.0548203
1.7232e-02,0.0544219
1.7264e-02,0.0552656
1.7296e-02,0.0545313
1.7328e-02,0.0550234
1.7360e-02,0.0536953
1.7392e-02,0.0522813
1.7424e-02,0.0516172
1.7456e-02,0.0505391
1.7488e-02,0.0492891
1.7520e-02,0.0475156
1.7552e-02,0.0461484
1.7584e-02,0.0448359
1.7616e-02,0.0429922
1.7648e-02,0.0415625
1.7680e-02,0.0395859
1.7712e-02,0.0372344
1.7744e-02,0.0354609
1.7776e-02,0.0334297
1.7808e-02,0.0318203
1.7840e-02,0.0305313
1.7872e-02,0.0291641
1.7904e-02,0.0272813
1.7936e-02,0.0253906
1.7968e-02,0.0244297
1.8000e-02,0.0234219
1.8032e-02,0.0225078
1.8064e-02,0.022125
1.8096e-02,0.02175
1.8128e-02,0.0212109
1.8160e-02,0.0206484
1.8192e-02,0.0204375
1.8224e-02,0.0208516
1.8256e-02,0.0215547
1.8288e-02,0.0212109
1.8320e-02,0.0209766
1.8352e-02,0.0207266
1.8384e-02,0.0207969
1.8416e-02,0.0207969
1.8448e-02,0.0208984
1.8480e-02,0.0217188
1.8512e-02,0.0225703
1.8544e-02,0.0234375
1.8576e-02,0.0240859
1.8608e-02,0.024
1.8640e-02,0.0247734
1.8672e-02,0.0244141
1.8704e-02,0.0248359
1.8736e-02,0.0251016
1.8768e-02,0.0253828
1.8800e-02,0.0258984
1.8832e-02,0.0273438
1.8864e-02,0.0281406
1.8896e-02,0.0292891
1.8928e-02,0.0291484
1.8960e-02,0.0303516
1.8992e-02,0.0308594
1.9024e-02,0.0318125
1.9056e-02,0.0324766
1.9088e-02,0.033375
1.9120e-02,0.0344922
1.9152e-02,0.0362188
1.9184e-02,0.0374766
1.9216e-02,0.0391172
1.9248e-02,0.0395313
1.9280e-02,0.0404219
1.9312e-02,0.0426563
1.9344e-02,0.0441172
1.9376e-02,0.0442188
1.9408e-02,0.0461172
1.9440e-02,0.0491406
1.9472e-02,0.0518672
1.9504e-02,0.0537031
1.9536e-02,0.0542656
1.9568e-02,0.0555938
1.9600e-02,0.0565234
1.9632e-02,0.0581563
1.9664e-02,0.0601797
1.9696e-02,0.0616172
1.9728e-02,0.0628203
1.9760e-02,0.0642109
1.9792e-02,0.0647734
1.9824e-02,0.0655469
1.9856e-02,0.0647422
1.9888e-02,0.0655234
1.9920e-02,0.0666719
1.9952e-02,0.0672734
1.9984e-02,0.0685
2.0016e-02,0.0676641
2.0048e-02,0.068125
2.0080e-02,0.0680625
2.0112e-02,0.0666016
2.0144e-02,0.0635859
2.0176e-02,0.0618438
2.0208e-02,0.0598125
2.0240e-02,0.0574531
2.0272e-02,0.0553906
2.0304e-02,0.0537031
2.0336e-02,0.0533984
2.0368e-02,0.0535
2.0400e-02,0.0526641
2.0432e-02,0.0509922
2.0464e-02,0.0491953
2.0496e-02,0.0463047
2.0528e-02,0.0452344
2.0560e-02,0.0443438
2.0592e-02,0.0437734
2.0624e-02,0.0416484
2.0656e-02,0.0405234
2.0688e-02,0.0395313
2.0720e-02,0.0394922
2.0752e-02,0.0386016
2.0784e-02,0.0389766
2.0816e-02,0.0395
2.0848e-02,0.0401172
2.0880e-02,0.0397188
2.0912e-02,0.0398516
2.0944e-02,0.0399063
2.0976e-02,0.0409688
2.1008e-02,0.0430703
2.1040e-02,0.0442109
2.1072e-02,0.0452266
2.1104e-02,0.0466875
2.1136e-02,0.0475234
2.1168e-02,0.0481719
2.1200e-02,0.0489453
2.1232e-02,0.0507813
2.1264e-02,0.0516953
2.1296e-02,0.0518906
2.1328e-02,0.0525469
2.1360e-02,0.0540469
2.1392e-02,0.0563594
2.1424e-02,0.0573359
2.1456e-02,0.0592578
2.1488e-02,0.0606641
2.1520e-02,0.0635469
2.1552e-02,0.0665547
2.1584e-02,0.0689375
2.1616e-02,0.0702578
2.1648e-02,0.0709375
2.1680e-02,0.0743906
2.1712e-02,0.0789844
2.1744e-02,0.0796797
2.1776e-02,0.083375
2.1808e-02,0.0877969
2.1840e-02,0.0934688
2.1872e-02,0.0970938
2.1904e-02,0.101148
2.1936e-02,0.104578
2.1968e-02,0.107508
2.2000e-02,0.109758
2.2032e-02,0.113125
2.2064e-02,0.115992
2.2096e-02,0.120445
2.2128e-02,0.126016
2.2160e-02,0.128961
2.2192e-02,0.131719
2.2224e-02,0.133984
2.2256e-02,0.135117
2.2288e-02,0.136734
2.2320e-02,0.137633
2.2352e-02,0.140625
2.2384e-02,0.14175
2.2416e-02,0.140461
2.2448e-02,0.141445
2.2480e-02,0.141234
2.2512e-02,0.136898
2.2544e-02,0.133242
2.2576e-02,0.12882
2.2608e-02,0.124953
2.2640e-02,0.123305
2.2672e-02,0.118844
2.2704e-02,0.113859
2.2736e-02,0.107469
2.2768e-02,0.101109
2.2800e-02,0.0956953
2.2832e-02,0.0920625
2.2864e-02,0.08625
2.2896e-02,0.0806406
2.2928e-02,0.0767031
2.2960e-02,0.0752188
2.2992e-02,0.0725625
2.3024e-02,0.0695391
2.3056e-02,0.0668359
2.3088e-02,0.0666016
2.3120e-02,0.0647344
2.3152e-02,0.065125
2.3184e-02,0.0653984
2.3216e-02,0.0660391
2.3248e-02,0.068
2.3280e-02,0.0681406
2.3312e-02,0.0683125
2.3344e-02,0.0683438
2.3376e-02,0.0686797
2.3408e-02,0.0695859
2.3440e-02,0.0698203
2.3472e-02,0.0705938
2.3504e-02,0.0707734
2.3536e-02,0.0708906
2.3568e-02,0.0706484
2.3600e-02,0.0694609
2.3632e-02,0.0709844
2.3664e-02,0.0734531
2.3696e-02,0.0755781
2.3728e-02,0.0783047
2.3760e-02,0.080125
2.3792e-02,0.0810469
2.3824e-02,0.0827656
2.3856e-02,0.0875
2.3888e-02,0.0921172
2.3920e-02,0.0960391
2.3952e-02,0.10118
2.3984e-02,0.105109
2.4016e-02,0.109414
2.4048e-02,0.11482
2.4080e-02,0.121008
2.4112e-02,0.127641
2.4144e-02,0.131906
2.4176e-02,0.139789
2.4208e-02,0.148438
2.4240e-02,0.158711
2.4272e-02,0.170273
2.4304e-02,0.179594
2.4336e-02,0.189656
2.4368e-02,0.199656
2.4400e-02,0.209688
2.4432e-02,0.219445
2.4464e-02,0.228523
2.4496e-02,0.240914
2.4528e-02,0.252703
2.4560e-02,0.261664
2.4592e-02,0.267242
2.4624e-02,0.272602
2.4656e-02,0.276352
2.4688e-02,0.278844
2.4720e-02,0.28325
2.4752e-02,0.288953
2.4784e-02,0.293
2.4816e-02,0.292516
2.4848e-02,0.293625
2.4880e-02,0.294859
2.4912e-02,0.294148
2.4944e-02,0.293609
2.4976e-02,0.291336
2.5008e-02,0.287141
2.5040e-02,0.282836
2.5072e-02,0.279844
2.5104e-02,0.273148
2.5136e-02,0.265883
2.5168e-02,0.256813
2.5200e-02,0.248328
2.5232e-02,0.239234
2.5264e-02,0.228133
2.5296e-02,0.214586
2.5328e-02,0.199773
2.5360e-02,0.185625
2.5392e-02,0.174781
2.5424e-02,0.164719
2.5456e-02,0.152148
2.5488e-02,0.140367
2.5520e-02,0.128445
2.5552e-02,0.119383
2.5584e-02,0.111711
2.5616e-02,0.10407
2.5648e-02,0.0986094
2.5680e-02,0.0918672
2.5712e-02,0.0844141
2.5744e-02,0.0801016
2.5776e-02,0.0774297
2.5808e-02,0.0731328
2.5840e-02,0.0701016
2.5872e-02,0.0682266
2.5904e-02,0.0683906
2.5936e-02,0.0676953
2.5968e-02,0.0678828
2.6000e-02,0.0669141
2.6032e-02,0.0690547
2.6064e-02,0.0696719
2.6096e-02,0.0698125
2.6128e-02,0.0709219
2.6160e-02,0.0718438
2.6192e-02,0.0713281
2.6224e-02,0.0704375
2.6256e-02,0.0734375
2.6288e-02,0.0751797
2.6320e-02,0.0773281
2.6352e-02,0.0783438
2.6384e-02,0.0814531
2.6416e-02,0.0843984
2.6448e-02,0.0882656
2.6480e-02,0.09175
2.6512e-02,0.0968672
2.6544e-02,0.101258
2.6576e-02,0.105531
2.6608e-02,0.108516
2.6640e-02,0.113531
2.6672e-02,0.119211
2.6704e-02,0.125805
2.6736e-02,0.131906
2.6768e-02,0.138531
2.6800e-02,0.146758
2.6832e-02,0.155469
2.6864e-02,0.163625
2.6896e-02,0.172516
2.6928e-02,0.177867
2.6960e-02,0.184016
2.6992e-02,0.194305
2.7024e-02,0.202094
2.7056e-02,0.211188
2.7088e-02,0.220883
2.7120e-02,0.225023
2.7152e-02,0.228594
2.7184e-02,0.230625
2.7216e-02,0.236859
2.7248e-02,0.238703
2.7280e-02,0.23943
2.7312e-02,0.238391
2.7344e-02,0.234969
2.7376e-02,0.233133
2.7408e-02,0.23082
2.7440e-02,0.2255
2.7472e-02,0.220813
2.7504e-02,0.214359
2.7536e-02,0.206555
2.7568e-02,0.197172
2.7600e-02,0.186914
2.7632e-02,0.177609
2.7664e-02,0.169734
2.7696e-02,0.158922
2.7728e-02,0.147648
2.7760e-02,0.136648
2.7792e-02,0.128641
2.7824e-02,0.12268
2.7856e-02,0.115781
2.7888e-02,0.109938
2.7920e-02,0.105563
2.7952e-02,0.102406
2.7984e-02,0.102063
2.8016e-02,0.100539
2.8048e-02,0.0989766
2.8080e-02,0.098625
2.8112e-02,0.100172
2.8144e-02,0.102469
2.8176e-02,0.102492
2.8208e-02,0.105641
2.8240e-02,0.108195
2.8272e-02,0.110352
2.8304e-02,0.110453
2.8336e-02,0.111
2.8368e-02,0.111148
2.8400e-02,0.110703
2.8432e-02,0.111781
2.8464e-02,0.112836
2.8496e-02,0.113859
2.8528e-02,0.116477
2.8560e-02,0.119391
2.8592e-02,0.123758
2.8624e-02,0.126656
2.8656e-02,0.128789
2.8688e-02,0.132039
2.8720e-02,0.136477
2.8752e-02,0.142461
2.8784e-02,0.149023
2.8816e-02,0.152961
2.8848e-02,0.158758
2.8880e-02,0.162289
2.8912e-02,0.1675
2.8944e-02,0.174109
2.8976e-02,0.181664
2.9008e-02,0.184281
2.9040e-02,0.190766
2.9072e-02,0.195734
2.9104e-02,0.203391
2.9136e-02,0.21282
2.9168e-02,0.220586
2.9200e-02,0.227523
2.9232e-02,0.235477
2.9264e-02,0.242516
2.9296e-02,0.250484
2.9328e-02,0.262883
2.9360e-02,0.268656
2.9392e-02,0.27757
2.9424e-02,0.286969
2.9456e-02,0.294539
2.9488e-02,0.297523
2.9520e-02,0.301438
2.9552e-02,0.302773
2.9584e-02,0.304633
2.9616e-02,0.307492
2.9648e-02,0.308703
2.9680e-02,0.309719
2.9712e-02,0.309625
2.9744e-02,0.307109
2.9776e-02,0.303859
2.9808e-02,0.300297
2.9840e-02,0.298383
2.9872e-02,0.291867
2.9904e-02,0.286164
2.9936e-02,0.277945
2.9968e-02,0.267578
3.0000e-02,0.25668
3.0032e-02,0.243047
3.0064e-02,0.226242
3.0096e-02,0.209477
3.0128e-02,0.193055
3.0160e-02,0.175172
3.0192e-02,0.16043
3.0224e-02,0.145961
3.0256e-02,0.134734
3.0288e-02,0.124109
3.0320e-02,0.113031
3.0352e-02,0.10532
3.0384e-02,0.0981719
3.0416e-02,0.0932031
3.0448e-02,0.0899531
3.0480e-02,0.0885469
3.0512e-02,0.0848281
3.0544e-02,0.0834375
3.0576e-02,0.0834453
3.0608e-02,0.0853984
3.0640e-02,0.0858516
3.0672e-02,0.0848906
3.0704e-02,0.0869297
3.0736e-02,0.0885
3.0768e-02,0.0899453
3.0800e-02,0.0889141
3.0832e-02,0.0889375
3.0864e-02,0.0900313
3.0896e-02,0.0905703
3.0928e-02,0.0898438
3.0960e-02,0.0891406
3.0992e-02,0.089
3.1024e-02,0.0877266
3.1056e-02,0.0884531
3.1088e-02,0.090875
3.1120e-02,0.0905156
3.1152e-02,0.0908516
3.1184e-02,0.0918516
3.1216e-02,0.0917109
3.1248e-02,0.0913203
3.1280e-02,0.0935234
3.1312e-02,0.0965547
3.1344e-02,0.10193
3.1376e-02,0.105141
3.1408e-02,0.110047
3.1440e-02,0.11418
3.1472e-02,0.120648
3.1504e-02,0.126719
3.1536e-02,0.133727
3.1568e-02,0.142266
3.1600e-02,0.151117
3.1632e-02,0.157961
3.1664e-02,0.165844
3.1696e-02,0.174531
3.1728e-02,0.182672
3.1760e-02,0.190898
3.1792e-02,0.196539
3.1824e-02,0.204523
3.1856e-02,0.211227
3.1888e-02,0.217945
3.1920e-02,0.224992
3.1952e-02,0.230461
3.1984e-02,0.235102
3.2016e-02,0.23632
3.2048e-02,0.23943
3.2080e-02,0.239125
3.2112e-02,0.239359
3.2144e-02,0.239477
3.2176e-02,0.239586
3.2208e-02,0.234414
3.2240e-02,0.225453
3.2272e-02,0.218531
3.2304e-02,0.206719
3.2336e-02,0.197844
3.2368e-02,0.189477
3.2400e-02,0.181422
3.2432e-02,0.169484
3.2464e-02,0.158922
3.2496e-02,0.147516
3.2528e-02,0.138719
3.2560e-02,0.127227
3.2592e-02,0.116828
3.2624e-02,0.109703
3.2656e-02,0.102367
3.2688e-02,0.0970547
3.2720e-02,0.0952422
3.2752e-02,0.0935781
3.2784e-02,0.0906797
3.2816e-02,0.0871641
3.2848e-02,0.0843906
3.2880e-02,0.0845391
3.2912e-02,0.0857656
3.2944e-02,0.0868984
3.2976e-02,0.0887734
3.3008e-02,0.0903828
3.3040e-02,0.0911797
3.3072e-02,0.0940547
3.3104e-02,0.0974219
3.3136e-02,0.0993438
3.3168e-02,0.0994375
3.3200e-02,0.0998906
3.3232e-02,0.101648
3.3264e-02,0.103578
3.3296e-02,0.106445
3.3328e-02,0.107469
3.3360e-02,0.106289
3.3392e-02,0.105594
3.3424e-02,0.107102
3.3456e-02,0.109594
3.3488e-02,0.111117
3.3520e-02,0.113625
3.3552e-02,0.117781
3.3584e-02,0.123563
3.3616e-02,0.130273
3.3648e-02,0.135063
3.3680e-02,0.140531
3.3712e-02,0.147008
3.3744e-02,0.153859
3.3776e-02,0.163133
3.3808e-02,0.172813
3.3840e-02,0.182195
3.3872e-02,0.191719
3.3904e-02,0.202625
3.3936e-02,0.212602
3.3968e-02,0.222602
3.4000e-02,0.231953
3.4032e-02,0.239914
3.4064e-02,0.248656
3.4096e-02,0.258844
3.4128e-02,0.265047
3.4160e-02,0.273508
3.4192e-02,0.277766
3.4224e-02,0.280492
3.4256e-02,0.286664
3.4288e-02,0.290109
3.4320e-02,0.291313
3.4352e-02,0.291703
3.4384e-02,0.288898
3.4416e-02,0.285227
3.4448e-02,0.284633
3.4480e-02,0.281297
3.4512e-02,0.275133
3.4544e-02,0.269828
3.4576e-02,0.264883
3.4608e-02,0.256852
3.4640e-02,0.247
3.4672e-02,0.234961
3.4704e-02,0.221977
3.4736e-02,0.207281
3.4768e-02,0.192602
3.4800e-02,0.174234
3.4832e-02,0.157094
3.4864e-02,0.142719
3.4896e-02,0.128297
3.4928e-02,0.114734
3.4960e-02,0.102211
3.4992e-02,0.0897891
3.5024e-02,0.0806641
3.5056e-02,0.0730781
3.5088e-02,0.0675938
3.5120e-02,0.0613516
3.5152e-02,0.0577656
3.5184e-02,0.0551328
3.5216e-02,0.0528672
3.5248e-02,0.0509688
3.5280e-02,0.0498281
3.5312e-02,0.049875
3.5344e-02,0.0499922
3.5376e-02,0.0497734
3.5408e-02,0.05
3.5440e-02,0.0494531
3.5472e-02,0.0502734
3.5504e-02,0.0512891
3.5536e-02,0.0510234
3.5568e-02,0.0520547
3.5600e-02,0.0544688
3.5632e-02,0.054125
3.5664e-02,0.0541875
3.5696e-02,0.05475
3.5728e-02,0.0551719
3.5760e-02,0.0556797
3.5792e-02,0.0565469
3.5824e-02,0.0581719
3.5856e-02,0.0606797
3.5888e-02,0.0642266
3.5920e-02,0.0668203
3.5952e-02,0.0694453
3.5984e-02,0.0730234
3.6016e-02,0.0768047
3.6048e-02,0.0792109
3.6080e-02,0.0824141
3.6112e-02,0.0846563
3.6144e-02,0.0861875
3.6176e-02,0.0887578
3.6208e-02,0.0919219
3.6240e-02,0.0955547
3.6272e-02,0.100633
3.6304e-02,0.10707
3.6336e-02,0.11193
3.6368e-02,0.115547
3.6400e-02,0.120922
3.6432e-02,0.1265
3.6464e-02,0.130984
3.6496e-02,0.134797
3.6528e-02,0.136711
3.6560e-02,0.140219
3.6592e-02,0.146898
3.6624e-02,0.150695
3.6656e-02,0.154266
3.6688e-02,0.153953
3.6720e-02,0.155344
3.6752e-02,0.155445
3.6784e-02,0.154445
3.6816e-02,0.151758
3.6848e-02,0.148313
3.6880e-02,0.14525
3.6912e-02,0.140055
3.6944e-02,0.133844
3.6976e-02,0.127797
3.7008e-02,0.121195
3.7040e-02,0.114258
3.7072e-02,0.107602
3.7104e-02,0.0987969
3.7136e-02,0.0921016
3.7168e-02,0.0861406
3.7200e-02,0.0781875
3.7232e-02,0.0718984
3.7264e-02,0.066875
3.7296e-02,0.0607656
3.7328e-02,0.0554844
3.7360e-02,0.05025
3.7392e-02,0.0455938
3.7424e-02,0.0429531
3.7456e-02,0.0401797
3.7488e-02,0.0385625
3.7520e-02,0.0362578
3.7552e-02,0.0340625
3.7584e-02,0.0323203
3.7616e-02,0.0315313
3.7648e-02,0.0312656
3.7680e-02,0.0307344
3.7712e-02,0.0307422
3.7744e-02,0.0312031
3.7776e-02,0.0306563
3.7808e-02,0.0311875
3.7840e-02,0.0322578
3.7872e-02,0.0323984
3.7904e-02,0.0322109
3.7936e-02,0.0317656
3.7968e-02,0.0313047
3.8000e-02,0.0326094
3.8032e-02,0.0328359
3.8064e-02,0.0336719
3.8096e-02,0.0344531
3.8128e-02,0.0354922
3.8160e-02,0.0363047
3.8192e-02,0.0361406
3.8224e-02,0.0359922
3.8256e-02,0.0370625
3.8288e-02,0.0391172
3.8320e-02,0.0396406
3.8352e-02,0.0410313
3.8384e-02,0.0414453
3.8416e-02,0.0429531
3.8448e-02,0.044
3.8480e-02,0.0440078
3.8512e-02,0.0451953
3.8544e-02,0.0459531
3.8576e-02,0.0457578
3.8608e-02,0.0474219
3.8640e-02,0.0480938
3.8672e-02,0.0481094
3.8704e-02,0.0497656
3.8736e-02,0.0512109
3.8768e-02,0.0514688
3.8800e-02,0.0528672
3.8832e-02,0.0536875
3.8864e-02,0.0540938
3.8896e-02,0.0551563
3.8928e-02,0.0569219
3.8960e-02,0.0564141
3.8992e-02,0.0565156
3.9024e-02,0.0564219
3.9056e-02,0.0565781
3.9088e-02,0.055375
3.9120e-02,0.0536094
3.9152e-02,0.0524063
3.9184e-02,0.0515859
3.9216e-02,0.0502109
3.9248e-02,0.0492578
3.9280e-02,0.0489219
3.9312e-02,0.0472656
3.9344e-02,0.0443438
3.9376e-02,0.0420547
3.9408e-02,0.0405781
3.9440e-02,0.0374922
3.9472e-02,0.0350469
3.9504e-02,0.0325469
3.9536e-02,0.0305625
3.9568e-02,0.0288828
3.9600e-02,0.0274141
3.9632e-02,0.0257969
3.9664e-02,0.0235234
3.9696e-02,0.0222891
3.9728e-02,0.0229609
3.9760e-02,0.0222188
3.9792e-02,0.0224063
3.9824e-02,0.0220547
3.9856e-02,0.0222109
3.9888e-02,0.0213672
3.9920e-02,0.0206328
3.9952e-02,0.0207344
3.9984e-02,0.0210625
4.0016e-02,0.0205234
4.0048e-02,0.0205859
4.0080e-02,0.0212266
4.0112e-02,0.0215
4.0144e-02,0.0215313
4.0176e-02,0.0217578
4.0208e-02,0.0218516
4.0240e-02,0.0231875
4.0272e-02,0.0240938
4.0304e-02,0.0251172
4.0336e-02,0.0263594
4.0368e-02,0.0259375
4.0400e-02,0.0264688
4.0432e-02,0.0272188
4.0464e-02,0.0285391
4.0496e-02,0.029125
4.0528e-02,0.0304922
4.0560e-02,0.0305625
4.0592e-02,0.0311016
4.0624e-02,0.0322578
4.0656e-02,0.0340469
4.0688e-02,0.0346797
4.0720e-02,0.0376406
4.0752e-02,0.0402031
4.0784e-02,0.0423203
4.0816e-02,0.0426953
4.0848e-02,0.0434844
4.0880e-02,0.0460625
4.0912e-02,0.0497109
4.0944e-02,0.0507656
4.0976e-02,0.0515469
4.1008e-02,0.0530547
4.1040e-02,0.0558516
4.1072e-02,0.0584688
4.1104e-02,0.0616094
4.1136e-02,0.0629609
4.1168e-02,0.0618203
4.1200e-02,0.0633047
4.1232e-02,0.0653359
4.1264e-02,0.0653828
4.1296e-02,0.0660938
4.1328e-02,0.0675781
4.1360e-02,0.0680313
4.1392e-02,0.0670078
4.1424e-02,0.0677891
4.1456e-02,0.0671328
4.1488e-02,0.0654844
4.1520e-02,0.0643125
4.1552e-02,0.0626953
4.1584e-02,0.0599297
4.1616e-02,0.0585781
4.1648e-02,0.0563125
4.1680e-02,0.0565547
4.1712e-02,0.0546797
4.1744e-02,0.0517813
4.1776e-02,0.0498516
4.1808e-02,0.0487969
4.1840e-02,0.0470703
4.1872e-02,0.0455547
4.1904e-02,0.0431328
4.1936e-02,0.0411016
4.1968e-02,0.0401328
4.2000e-02,0.039625
4.2032e-02,0.0390391
4.2064e-02,0.0389375
4.2096e-02,0.0383047
4.2128e-02,0.0385703
4.2160e-02,0.0384609
4.2192e-02,0.0382734
4.2224e-02,0.0391641
4.2256e-02,0.0406484
4.2288e-02,0.0417344
4.2320e-02,0.0425859
4.2352e-02,0.0425
4.2384e-02,0.0441953
4.2416e-02,0.0457969
4.2448e-02,0.0468438
4.2480e-02,0.0489844
4.2512e-02,0.0509063
4.2544e-02,0.051375
4.2576e-02,0.0524453
4.2608e-02,0.0532109
4.2640e-02,0.0550859
4.2672e-02,0.0574297
4.2704e-02,0.0588984
4.2736e-02,0.0605859
4.2768e-02,0.061875
4.2800e-02,0.0646719
4.2832e-02,0.0669922
4.2864e-02,0.0705391
4.2896e-02,0.0736094
4.2928e-02,0.0765547
4.2960e-02,0.0811719
4.2992e-02,0.0863281
4.3024e-02,0.0902656
4.3056e-02,0.094625
4.3088e-02,0.0998828
4.3120e-02,0.104984
4.3152e-02,0.107773
4.3184e-02,0.111586
4.3216e-02,0.115289
4.3248e-02,0.11918
4.3280e-02,0.124945
4.3312e-02,0.12993
4.3344e-02,0.132367
4.3376e-02,0.13432
4.3408e-02,0.135367
4.3440e-02,0.13693
4.3472e-02,0.139094
4.3504e-02,0.139383
4.3536e-02,0.137102
4.3568e-02,0.135117
4.3600e-02,0.136281
4.3632e-02,0.131961
4.3664e-02,0.128523
4.3696e-02,0.126922
4.3728e-02,0.123656
4.3760e-02,0.118141
4.3792e-02,0.111648
4.3824e-02,0.106852
4.3856e-02,0.101141
4.3888e-02,0.0951484
4.3920e-02,0.0883125
4.3952e-02,0.0815859
