432Lab4/Green_357A_pi.csv

Model,MSO2024
Firmware Version,1.52

Point Format,Y
Horizontal Units,S
Horizontal Scale,0.01
Sample Interval,3.2e-05
Filter Frequency,2e+08
Record Length,3125
Gating,0.0% to 100.0%
Probe Attenuation,1
Vertical Units,V
Vertical Offset,0
Vertical Scale,0.02
Label,
TIME,CH1
1.3200e-02,0.005925
1.3232e-02,0.00645
1.3264e-02,0.00623125
1.3296e-02,0.00579688
1.3328e-02,0.00596875
1.3360e-02,0.00592188
1.3392e-02,0.00538125
1.3424e-02,0.005075
1.3456e-02,0.00514063
1.3488e-02,0.00505
1.3520e-02,0.00533125
1.3552e-02,0.00521563
1.3584e-02,0.00507188
1.3616e-02,0.0055
1.3648e-02,0.00560313
1.3680e-02,0.00560938
1.3712e-02,0.005425
1.3744e-02,0.00513438
1.3776e-02,0.00517813
1.3808e-02,0.00512188
1.3840e-02,0.00536563
1.3872e-02,0.005325
1.3904e-02,0.00523125
1.3936e-02,0.00529375
1.3968e-02,0.00538125
1.4000e-02,0.00512813
1.4032e-02,0.00506875
1.4064e-02,0.004675
1.4096e-02,0.00428125
1.4128e-02,0.00508125
1.4160e-02,0.00493125
1.4192e-02,0.0052375
1.4224e-02,0.00527188
1.4256e-02,0.00518125
1.4288e-02,0.00503438
1.4320e-02,0.005
1.4352e-02,0.00477188
1.4384e-02,0.004775
1.4416e-02,0.00535
1.4448e-02,0.0055125
1.4480e-02,0.0056625
1.4512e-02,0.0055
1.4544e-02,0.00519063
1.4576e-02,0.00507188
1.4608e-02,0.00543438
1.4640e-02,0.00522188
1.4672e-02,0.00547188
1.4704e-02,0.00551875
1.4736e-02,0.00495
1.4768e-02,0.00461875
1.4800e-02,0.00455938
1.4832e-02,0.00459063
1.4864e-02,0.004725
1.4896e-02,0.00494688
1.4928e-02,0.00501875
1.4960e-02,0.00519688
1.4992e-02,0.00554688
1.5024e-02,0.00567813
1.5056e-02,0.00550938
1.5088e-02,0.00529688
1.5120e-02,0.00495
1.5152e-02,0.00503438
1.5184e-02,0.00510313
1.5216e-02,0.00535938
1.5248e-02,0.00595938
1.5280e-02,0.00564688
1.5312e-02,0.00523125
1.5344e-02,0.00514375
1.5376e-02,0.005325
1.5408e-02,0.005325
1.5440e-02,0.00520625
1.5472e-02,0.00515313
1.5504e-02,0.00572813
1.5536e-02,0.00606875
1.5568e-02,0.00608125
1.5600e-02,0.00605938
1.5632e-02,0.006
1.5664e-02,0.00619688
1.5696e-02,0.0060375
1.5728e-02,0.00634063
1.5760e-02,0.00674688
1.5792e-02,0.0067125
1.5824e-02,0.00645938
1.5856e-02,0.00623125
1.5888e-02,0.00613438
1.5920e-02,0.0062125
1.5952e-02,0.00621563
1.5984e-02,0.00595938
1.6016e-02,0.00572188
1.6048e-02,0.00583125
1.6080e-02,0.0060375
1.6112e-02,0.00576875
1.6144e-02,0.00573125
1.6176e-02,0.00567188
1.6208e-02,0.00550938
1.6240e-02,0.00529688
1.6272e-02,0.00547188
1.6304e-02,0.00545313
1.6336e-02,0.00508438
1.6368e-02,0.00514063
1.6400e-02,0.0050625
1.6432e-02,0.00497813
1.6464e-02,0.00485
1.6496e-02,0.00496563
1.6528e-02,0.00487813
1.6560e-02,0.00472188
1.6592e-02,0.00440625
1.6624e-02,0.00426563
1.6656e-02,0.00450938
1.6688e-02,0.00464688
1.6720e-02,0.0047375
1.6752e-02,0.00473125
1.6784e-02,0.00448125
1.6816e-02,0.00442813
1.6848e-02,0.0046875
1.6880e-02,0.00485625
1.6912e-02,0.00517813
1.6944e-02,0.00511875
1.6976e-02,0.00500938
1.7008e-02,0.00520625
1.7040e-02,0.00495938
1.7072e-02,0.0048375
1.7104e-02,0.0050375
1.7136e-02,0.0050125
1.7168e-02,0.0047625
1.7200e-02,0.00467813
1.7232e-02,0.00484375
1.7264e-02,0.0049875
1.7296e-02,0.0047875
1.7328e-02,0.00434063
1.7360e-02,0.00437813
1.7392e-02,0.00454688
1.7424e-02,0.00501563
1.7456e-02,0.00543438
1.7488e-02,0.00527813
1.7520e-02,0.00538438
1.7552e-02,0.00518438
1.7584e-02,0.00505625
1.7616e-02,0.00525938
1.7648e-02,0.0053375
1.7680e-02,0.00553125
1.7712e-02,0.00575625
1.7744e-02,0.0054875
1.7776e-02,0.00525625
1.7808e-02,0.00528438
1.7840e-02,0.00566875
1.7872e-02,0.00546563
1.7904e-02,0.005325
1.7936e-02,0.00545625
1.7968e-02,0.00532813
1.8000e-02,0.00557188
1.8032e-02,0.00552813
1.8064e-02,0.00549375
1.8096e-02,0.00533438
1.8128e-02,0.00507813
1.8160e-02,0.00509375
1.8192e-02,0.00504688
1.8224e-02,0.00544063
1.8256e-02,0.00535625
1.8288e-02,0.00525938
1.8320e-02,0.00529063
1.8352e-02,0.00569063
1.8384e-02,0.00577188
1.8416e-02,0.00549688
1.8448e-02,0.00536875
1.8480e-02,0.00494063
1.8512e-02,0.00523125
1.8544e-02,0.00497813
1.8576e-02,0.00499375
1.8608e-02,0.00504375
1.8640e-02,0.0055375
1.8672e-02,0.00548438
1.8704e-02,0.005475
1.8736e-02,0.005325
1.8768e-02,0.00515
1.8800e-02,0.00523438
1.8832e-02,0.00550313
1.8864e-02,0.00526563
1.8896e-02,0.00510625
1.8928e-02,0.00504063
1.8960e-02,0.00528438
1.8992e-02,0.0051375
1.9024e-02,0.00496875
1.9056e-02,0.00504063
1.9088e-02,0.00494375
1.9120e-02,0.00488438
1.9152e-02,0.00490313
1.9184e-02,0.00474688
1.9216e-02,0.00536563
1.9248e-02,0.00564375
1.9280e-02,0.00530625
1.9312e-02,0.00512813
1.9344e-02,0.00525
1.9376e-02,0.00535313
1.9408e-02,0.00560938
1.9440e-02,0.0057625
1.9472e-02,0.00575625
1.9504e-02,0.00581563
1.9536e-02,0.00554688
1.9568e-02,0.00520938
1.9600e-02,0.00534063
1.9632e-02,0.0053125
1.9664e-02,0.005325
1.9696e-02,0.00537188
1.9728e-02,0.00505313
1.9760e-02,0.00567813
1.9792e-02,0.00558125
1.9824e-02,0.00540938
1.9856e-02,0.00544688
1.9888e-02,0.005475
1.9920e-02,0.00553438
1.9952e-02,0.00553125
1.9984e-02,0.00552188
2.0016e-02,0.00548125
2.0048e-02,0.00565938
2.0080e-02,0.00590625
2.0112e-02,0.00579063
2.0144e-02,0.0055625
2.0176e-02,0.00559063
2.0208e-02,0.00593438
2.0240e-02,0.00608438
2.0272e-02,0.00574063
2.0304e-02,0.00576875
2.0336e-02,0.00579375
2.0368e-02,0.00562188
2.0400e-02,0.00554063
2.0432e-02,0.00604375
2.0464e-02,0.00584688
2.0496e-02,0.00621563
2.0528e-02,0.00637813
2.0560e-02,0.00649375
2.0592e-02,0.00654375
2.0624e-02,0.00650938
2.0656e-02,0.00618125
2.0688e-02,0.00626875
2.0720e-02,0.00628438
2.0752e-02,0.00644375
2.0784e-02,0.00645313
2.0816e-02,0.00657813
2.0848e-02,0.00669063
2.0880e-02,0.00655
2.0912e-02,0.00685938
2.0944e-02,0.00663125
2.0976e-02,0.00652188
2.1008e-02,0.00690313
2.1040e-02,0.00655938
2.1072e-02,0.00613438
2.1104e-02,0.00659375
2.1136e-02,0.00722813
2.1168e-02,0.00734688
2.1200e-02,0.007225
2.1232e-02,0.00675
2.1264e-02,0.00640938
2.1296e-02,0.0063375
2.1328e-02,0.00595313
2.1360e-02,0.0062
2.1392e-02,0.00626875
2.1424e-02,0.0064625
2.1456e-02,0.00629688
2.1488e-02,0.00603125
2.1520e-02,0.00615938
2.1552e-02,0.00625
2.1584e-02,0.0062375
2.1616e-02,0.00609688
2.1648e-02,0.00559375
2.1680e-02,0.00545625
2.1712e-02,0.00585
2.1744e-02,0.00630625
2.1776e-02,0.00673125
2.1808e-02,0.00680938
2.1840e-02,0.0067875
2.1872e-02,0.00625
2.1904e-02,0.00597188
2.1936e-02,0.0062
2.1968e-02,0.00638125
2.2000e-02,0.00658125
2.2032e-02,0.00668125
2.2064e-02,0.00693438
2.2096e-02,0.00649375
2.2128e-02,0.00677188
2.2160e-02,0.00743125
2.2192e-02,0.00762188
2.2224e-02,0.00737813
2.2256e-02,0.00771563
2.2288e-02,0.00745
2.2320e-02,0.00738438
2.2352e-02,0.00760938
2.2384e-02,0.00799063
2.2416e-02,0.00857813
2.2448e-02,0.00841563
2.2480e-02,0.00785938
2.2512e-02,0.00827188
2.2544e-02,0.0086375
2.2576e-02,0.00869063
2.2608e-02,0.00849688
2.2640e-02,0.00944375
2.2672e-02,0.0103875
2.2704e-02,0.0109219
2.2736e-02,0.0111031
2.2768e-02,0.0109563
2.2800e-02,0.0103656
2.2832e-02,0.0101844
2.2864e-02,0.0107625
2.2896e-02,0.0110063
2.2928e-02,0.0118406
2.2960e-02,0.0125094
2.2992e-02,0.0127375
2.3024e-02,0.0136281
2.3056e-02,0.0141719
2.3088e-02,0.0147656
2.3120e-02,0.0149344
2.3152e-02,0.0156094
2.3184e-02,0.0167031
2.3216e-02,0.0174313
2.3248e-02,0.0176813
2.3280e-02,0.0177031
2.3312e-02,0.0187875
2.3344e-02,0.0195656
2.3376e-02,0.0210531
2.3408e-02,0.0231156
2.3440e-02,0.0235906
2.3472e-02,0.0234531
2.3504e-02,0.0245563
2.3536e-02,0.0262563
2.3568e-02,0.0265531
2.3600e-02,0.0264688
2.3632e-02,0.02805
2.3664e-02,0.0291938
2.3696e-02,0.0293656
2.3728e-02,0.0295625
2.3760e-02,0.0300188
2.3792e-02,0.0298094
2.3824e-02,0.0301188
2.3856e-02,0.029925
2.3888e-02,0.0294281
2.3920e-02,0.0294406
2.3952e-02,0.0287219
2.3984e-02,0.0275844
2.4016e-02,0.027325
2.4048e-02,0.0268063
2.4080e-02,0.0266094
2.4112e-02,0.0254313
2.4144e-02,0.0241313
2.4176e-02,0.0227656
2.4208e-02,0.0220531
2.4240e-02,0.0219
2.4272e-02,0.0214875
2.4304e-02,0.0208094
2.4336e-02,0.0208781
2.4368e-02,0.0204969
2.4400e-02,0.0205656
2.4432e-02,0.0213688
2.4464e-02,0.0229031
2.4496e-02,0.0242594
2.4528e-02,0.0248969
2.4560e-02,0.0248781
2.4592e-02,0.0252906
2.4624e-02,0.0265375
2.4656e-02,0.0275313
2.4688e-02,0.0290281
2.4720e-02,0.0302781
2.4752e-02,0.0315375
2.4784e-02,0.032925
2.4816e-02,0.0340906
2.4848e-02,0.0344281
2.4880e-02,0.0346063
2.4912e-02,0.034775
2.4944e-02,0.0371719
2.4976e-02,0.0391563
2.5008e-02,0.0403906
2.5040e-02,0.0408656
2.5072e-02,0.0425281
2.5104e-02,0.0449844
2.5136e-02,0.0477188
2.5168e-02,0.0503438
2.5200e-02,0.0530344
2.5232e-02,0.056575
2.5264e-02,0.0599469
2.5296e-02,0.0640969
2.5328e-02,0.0669969
2.5360e-02,0.0692344
2.5392e-02,0.0735563
2.5424e-02,0.0777062
2.5456e-02,0.0815406
2.5488e-02,0.0862344
2.5520e-02,0.0896219
2.5552e-02,0.0922969
2.5584e-02,0.0968781
2.5616e-02,0.101012
2.5648e-02,0.102956
2.5680e-02,0.106362
2.5712e-02,0.109809
2.5744e-02,0.109834
2.5776e-02,0.111362
2.5808e-02,0.11315
2.5840e-02,0.112994
2.5872e-02,0.112062
2.5904e-02,0.110803
2.5936e-02,0.109116
2.5968e-02,0.108678
2.6000e-02,0.107275
2.6032e-02,0.106381
2.6064e-02,0.104762
2.6096e-02,0.100697
2.6128e-02,0.0962625
2.6160e-02,0.0935687
2.6192e-02,0.0897406
2.6224e-02,0.0861969
2.6256e-02,0.0828031
2.6288e-02,0.0775156
2.6320e-02,0.0727375
2.6352e-02,0.0690313
2.6384e-02,0.0643094
2.6416e-02,0.0609875
2.6448e-02,0.0581813
2.6480e-02,0.0546688
2.6512e-02,0.05305
2.6544e-02,0.0526531
2.6576e-02,0.0508625
2.6608e-02,0.0498031
2.6640e-02,0.048975
2.6672e-02,0.0482281
2.6704e-02,0.0479844
2.6736e-02,0.0470656
2.6768e-02,0.0477188
2.6800e-02,0.04975
2.6832e-02,0.0504313
2.6864e-02,0.0498375
2.6896e-02,0.04905
2.6928e-02,0.0496438
2.6960e-02,0.0523563
2.6992e-02,0.0536531
2.7024e-02,0.0552406
2.7056e-02,0.0561281
2.7088e-02,0.0567125
2.7120e-02,0.0583656
2.7152e-02,0.0588813
2.7184e-02,0.0597406
2.7216e-02,0.0605531
2.7248e-02,0.063375
2.7280e-02,0.0672906
2.7312e-02,0.0695594
2.7344e-02,0.0713375
2.7376e-02,0.0736531
2.7408e-02,0.0741781
2.7440e-02,0.0759969
2.7472e-02,0.0804906
2.7504e-02,0.0833594
2.7536e-02,0.0850687
2.7568e-02,0.0876187
2.7600e-02,0.0913656
2.7632e-02,0.0945031
2.7664e-02,0.0969125
2.7696e-02,0.102572
2.7728e-02,0.106434
2.7760e-02,0.106597
2.7792e-02,0.105828
2.7824e-02,0.109384
2.7856e-02,0.114316
2.7888e-02,0.116966
2.7920e-02,0.120181
2.7952e-02,0.123016
2.7984e-02,0.125469
2.8016e-02,0.128809
2.8048e-02,0.130525
2.8080e-02,0.131228
2.8112e-02,0.130637
2.8144e-02,0.132219
2.8176e-02,0.133597
2.8208e-02,0.133725
2.8240e-02,0.134087
2.8272e-02,0.134325
2.8304e-02,0.134078
2.8336e-02,0.132894
2.8368e-02,0.131856
2.8400e-02,0.131484
2.8432e-02,0.130697
2.8464e-02,0.129103
2.8496e-02,0.126528
2.8528e-02,0.122597
2.8560e-02,0.118959
2.8592e-02,0.115278
2.8624e-02,0.11265
2.8656e-02,0.107069
2.8688e-02,0.102894
2.8720e-02,0.0953469
2.8752e-02,0.0883281
2.8784e-02,0.0824062
2.8816e-02,0.0764844
2.8848e-02,0.0705781
2.8880e-02,0.0650844
2.8912e-02,0.059225
2.8944e-02,0.0544938
2.8976e-02,0.0502781
2.9008e-02,0.0480219
2.9040e-02,0.0454188
2.9072e-02,0.0427656
2.9104e-02,0.0414188
2.9136e-02,0.041275
2.9168e-02,0.0407063
2.9200e-02,0.0398719
2.9232e-02,0.0390844
2.9264e-02,0.0389219
2.9296e-02,0.0394219
2.9328e-02,0.0417438
2.9360e-02,0.0431406
2.9392e-02,0.0429813
2.9424e-02,0.0431625
2.9456e-02,0.0410031
2.9488e-02,0.0420875
2.9520e-02,0.0439531
2.9552e-02,0.0442219
2.9584e-02,0.0425375
2.9616e-02,0.0425125
2.9648e-02,0.0441219
2.9680e-02,0.0442656
2.9712e-02,0.0441156
2.9744e-02,0.0444031
2.9776e-02,0.0447156
2.9808e-02,0.0449219
2.9840e-02,0.0461688
2.9872e-02,0.0465813
2.9904e-02,0.0483094
2.9936e-02,0.0495469
2.9968e-02,0.0513594
3.0000e-02,0.0539281
3.0032e-02,0.0557
3.0064e-02,0.0585219
3.0096e-02,0.0611625
3.0128e-02,0.0648813
3.0160e-02,0.0682594
3.0192e-02,0.072
3.0224e-02,0.0737156
3.0256e-02,0.0779687
3.0288e-02,0.0818
3.0320e-02,0.0868562
3.0352e-02,0.0889906
3.0384e-02,0.0918156
3.0416e-02,0.0964531
3.0448e-02,0.0996406
3.0480e-02,0.101247
3.0512e-02,0.102472
3.0544e-02,0.105219
3.0576e-02,0.107091
3.0608e-02,0.108391
3.0640e-02,0.109919
3.0672e-02,0.109556
3.0704e-02,0.1079
3.0736e-02,0.105997
3.0768e-02,0.104441
3.0800e-02,0.100825
3.0832e-02,0.0987219
3.0864e-02,0.0959312
3.0896e-02,0.0945437
3.0928e-02,0.0928344
3.0960e-02,0.0893625
3.0992e-02,0.083675
3.1024e-02,0.0788812
3.1056e-02,0.0737406
3.1088e-02,0.0673281
3.1120e-02,0.0606188
3.1152e-02,0.0550938
3.1184e-02,0.0522781
3.1216e-02,0.0472156
3.1248e-02,0.0419375
3.1280e-02,0.0380469
3.1312e-02,0.0348594
3.1344e-02,0.0316406
3.1376e-02,0.0288563
3.1408e-02,0.0269656
3.1440e-02,0.0258594
3.1472e-02,0.0238
3.1504e-02,0.0221094
3.1536e-02,0.0214469
3.1568e-02,0.020825
3.1600e-02,0.0194625
3.1632e-02,0.0183188
3.1664e-02,0.017825
3.1696e-02,0.0180531
3.1728e-02,0.0176906
3.1760e-02,0.0179969
3.1792e-02,0.017575
3.1824e-02,0.0179719
3.1856e-02,0.0174313
3.1888e-02,0.0164688
3.1920e-02,0.0160188
3.1952e-02,0.0163
3.1984e-02,0.0159563
3.2016e-02,0.01625
3.2048e-02,0.0160438
3.2080e-02,0.0159531
3.2112e-02,0.01645
3.2144e-02,0.0174844
3.2176e-02,0.0179125
3.2208e-02,0.0179563
3.2240e-02,0.0175469
3.2272e-02,0.0174188
3.2304e-02,0.0182781
3.2336e-02,0.0180719
3.2368e-02,0.0177781
3.2400e-02,0.0185719
3.2432e-02,0.0189625
3.2464e-02,0.0192844
3.2496e-02,0.0200406
3.2528e-02,0.0200813
3.2560e-02,0.0202531
3.2592e-02,0.0207563
3.2624e-02,0.0221688
3.2656e-02,0.0220406
3.2688e-02,0.0216875
3.2720e-02,0.0211313
3.2752e-02,0.0215875
3.2784e-02,0.0222688
3.2816e-02,0.0225563
3.2848e-02,0.0225
3.2880e-02,0.0215469
3.2912e-02,0.02115
3.2944e-02,0.02095
3.2976e-02,0.020975
3.3008e-02,0.0215313
3.3040e-02,0.0208344
3.3072e-02,0.0198375
3.3104e-02,0.0184938
3.3136e-02,0.0175531
3.3168e-02,0.0168344
3.3200e-02,0.0159938
3.3232e-02,0.0155219
3.3264e-02,0.0146313
3.3296e-02,0.0135094
3.3328e-02,0.0128813
3.3360e-02,0.0122844
3.3392e-02,0.0110313
3.3424e-02,0.00990313
3.3456e-02,0.00891875
3.3488e-02,0.00865938
3.3520e-02,0.00775313
3.3552e-02,0.00729375
3.3584e-02,0.00700625
3.3616e-02,0.00679063
3.3648e-02,0.006475
3.3680e-02,0.00661875
3.3712e-02,0.00639063
3.3744e-02,0.00598125
3.3776e-02,0.00590625
3.3808e-02,0.00580313
3.3840e-02,0.0056125
3.3872e-02,0.00540938
3.3904e-02,0.00544375
3.3936e-02,0.00585625
3.3968e-02,0.00613125
3.4000e-02,0.00650313
3.4032e-02,0.0063375
3.4064e-02,0.00619375
3.4096e-02,0.00622813
3.4128e-02,0.00594375
3.4160e-02,0.00573438
3.4192e-02,0.00594063
3.4224e-02,0.00594063
3.4256e-02,0.00587188
3.4288e-02,0.00567188
3.4320e-02,0.005225
3.4352e-02,0.0053625
3.4384e-02,0.0053875
3.4416e-02,0.00553438
3.4448e-02,0.00559688
3.4480e-02,0.00559063
3.4512e-02,0.00571563
3.4544e-02,0.00569688
3.4576e-02,0.00571875
3.4608e-02,0.005625
3.4640e-02,0.00555
3.4672e-02,0.0054875
3.4704e-02,0.00540625
3.4736e-02,0.00518438
3.4768e-02,0.00540938
3.4800e-02,0.00556875
3.4832e-02,0.00630625
3.4864e-02,0.00620313
3.4896e-02,0.00630625
3.4928e-02,0.00611875
3.4960e-02,0.00621875
3.4992e-02,0.00617188
3.5024e-02,0.0068625
3.5056e-02,0.00722188
3.5088e-02,0.00669063
3.5120e-02,0.0064625
3.5152e-02,0.00706875
3.5184e-02,0.00739375
3.5216e-02,0.00739375
3.5248e-02,0.00691563
3.5280e-02,0.00709688
3.5312e-02,0.00684063
3.5344e-02,0.00655625
3.5376e-02,0.00695625
3.5408e-02,0.00645313
3.5440e-02,0.00588125
3.5472e-02,0.00610625
3.5504e-02,0.00610313
3.5536e-02,0.0062625
3.5568e-02,0.00640313
3.5600e-02,0.00678438
3.5632e-02,0.00687188
3.5664e-02,0.00644063
3.5696e-02,0.006175
3.5728e-02,0.00594688
3.5760e-02,0.005775
3.5792e-02,0.00569375
3.5824e-02,0.00549375
3.5856e-02,0.00495625
3.5888e-02,0.00577813
3.5920e-02,0.00597813
3.5952e-02,0.00578125
3.5984e-02,0.0054625
3.6016e-02,0.00541563
3.6048e-02,0.00533125
3.6080e-02,0.00533438
3.6112e-02,0.00555938
3.6144e-02,0.0056375
3.6176e-02,0.00537188
3.6208e-02,0.00538438
3.6240e-02,0.00535
3.6272e-02,0.00499063
3.6304e-02,0.00499375
3.6336e-02,0.00504688
3.6368e-02,0.00504375
3.6400e-02,0.00511563
3.6432e-02,0.00480313
3.6464e-02,0.00515625
3.6496e-02,0.00496875
3.6528e-02,0.00474375
3.6560e-02,0.00490313
3.6592e-02,0.00520625
3.6624e-02,0.00544375
3.6656e-02,0.00538438
3.6688e-02,0.00531563
3.6720e-02,0.00538125
3.6752e-02,0.0053125
3.6784e-02,0.0054875
3.6816e-02,0.00531563
3.6848e-02,0.0053875
3.6880e-02,0.00546875
3.6912e-02,0.00538125
3.6944e-02,0.00541563
3.6976e-02,0.00524063
3.7008e-02,0.00505938
3.7040e-02,0.00541563
3.7072e-02,0.00501875
3.7104e-02,0.00515
3.7136e-02,0.00534063
3.7168e-02,0.00529375
3.7200e-02,0.00524063
3.7232e-02,0.00511563
3.7264e-02,0.005275
3.7296e-02,0.005525
3.7328e-02,0.00590313
3.7360e-02,0.00582813
3.7392e-02,0.00545938
3.7424e-02,0.00546563
3.7456e-02,0.00559688
3.7488e-02,0.00586563
3.7520e-02,0.00617813
3.7552e-02,0.00635625
3.7584e-02,0.00605313
3.7616e-02,0.0057875
3.7648e-02,0.00543438
3.7680e-02,0.00524063
3.7712e-02,0.00514375
3.7744e-02,0.00548125
3.7776e-02,0.00562188
3.7808e-02,0.0058375
3.7840e-02,0.00580313
3.7872e-02,0.00564688
3.7904e-02,0.0058
3.7936e-02,0.00584063
3.7968e-02,0.00576875
3.8000e-02,0.00551563
3.8032e-02,0.00545313
3.8064e-02,0.0055
3.8096e-02,0.00544375
3.8128e-02,0.005325
3.8160e-02,0.00529375
3.8192e-02,0.00530313
3.8224e-02,0.00508125
3.8256e-02,0.00503438
3.8288e-02,0.00518125
3.8320e-02,0.00526563
3.8352e-02,0.00505
3.8384e-02,0.00465313
3.8416e-02,0.00481563
3.8448e-02,0.00487188
3.8480e-02,0.00501875
3.8512e-02,0.0047375
3.8544e-02,0.00521875
3.8576e-02,0.00510625
3.8608e-02,0.00528125
3.8640e-02,0.00503438
3.8672e-02,0.00575
3.8704e-02,0.00535313
3.8736e-02,0.00506875
3.8768e-02,0.00489688
3.8800e-02,0.00455
3.8832e-02,0.0047125
3.8864e-02,0.00479063
3.8896e-02,0.00505625
3.8928e-02,0.00533438
3.8960e-02,0.00561563
3.8992e-02,0.00533125
3.9024e-02,0.0052125
3.9056e-02,0.00533438
3.9088e-02,0.00534375
3.9120e-02,0.00505313
3.9152e-02,0.00499375
3.9184e-02,0.00492813
3.9216e-02,0.00506875
3.9248e-02,0.00506875
3.9280e-02,0.00527188
3.9312e-02,0.00535
3.9344e-02,0.0055
3.9376e-02,0.0059125
3.9408e-02,0.00570938
3.9440e-02,0.00537813
3.9472e-02,0.00513125
3.9504e-02,0.00485938
3.9536e-02,0.00460625
3.9568e-02,0.00463438
3.9600e-02,0.00475625
3.9632e-02,0.00481563
3.9664e-02,0.00498125
3.9696e-02,0.00535938
3.9728e-02,0.00530938
3.9760e-02,0.00572813
3.9792e-02,0.00548438
3.9824e-02,0.00536563
3.9856e-02,0.0054
3.9888e-02,0.00542813
3.9920e-02,0.00531875
3.9952e-02,0.0054625
3.9984e-02,0.00569688
4.0016e-02,0.00554375
4.0048e-02,0.00566563
4.0080e-02,0.00579375
4.0112e-02,0.00583125
4.0144e-02,0.00588125
4.0176e-02,0.00580938
4.0208e-02,0.00543125
4.0240e-02,0.00509375
4.0272e-02,0.0049375
4.0304e-02,0.005275
4.0336e-02,0.00555
4.0368e-02,0.00547188
4.0400e-02,0.0051625
4.0432e-02,0.005075
4.0464e-02,0.00505938
4.0496e-02,0.00482813
4.0528e-02,0.0049
4.0560e-02,0.00503125
4.0592e-02,0.00483438
4.0624e-02,0.0049
4.0656e-02,0.00479688
4.0688e-02,0.00502188
4.0720e-02,0.00519063
4.0752e-02,0.0054125
4.0784e-02,0.0053625
4.0816e-02,0.00535313
4.0848e-02,0.00519688
4.0880e-02,0.0048625
4.0912e-02,0.00496875
4.0944e-02,0.00497813
4.0976e-02,0.0047875
4.1008e-02,0.0049
4.1040e-02,0.004825
4.1072e-02,0.00487188
4.1104e-02,0.0049375
4.1136e-02,0.0049625
4.1168e-02,0.00505625
4.1200e-02,0.005
4.1232e-02,0.00486563
4.1264e-02,0.00510625
4.1296e-02,0.00526563
4.1328e-02,0.00518125
4.1360e-02,0.0051125
4.1392e-02,0.00515938
4.1424e-02,0.00504375
4.1456e-02,0.004775
4.1488e-02,0.00465313
4.1520e-02,0.0051625
4.1552e-02,0.0055
4.1584e-02,0.00564375
4.1616e-02,0.00579688
4.1648e-02,0.0055375
4.1680e-02,0.00542188
4.1712e-02,0.0054125
4.1744e-02,0.00571875
4.1776e-02,0.00580938
4.1808e-02,0.00615625
4.1840e-02,0.00670313
4.1872e-02,0.0066125
4.1904e-02,0.00629688
4.1936e-02,0.00622813
4.1968e-02,0.00599063
4.2000e-02,0.00608438
4.2032e-02,0.00610625
4.2064e-02,0.006225
4.2096e-02,0.00649688
4.2128e-02,0.00634375
4.2160e-02,0.00648438
4.2192e-02,0.00631563
4.2224e-02,0.0065375
4.2256e-02,0.00699688
4.2288e-02,0.00662813
4.2320e-02,0.00672188
4.2352e-02,0.00679375
4.2384e-02,0.00654688
4.2416e-02,0.00624688
4.2448e-02,0.00605313
4.2480e-02,0.006275
4.2512e-02,0.00623125
4.2544e-02,0.00615313
4.2576e-02,0.00617813
4.2608e-02,0.00623438
4.2640e-02,0.00588125
4.2672e-02,0.00599063
4.2704e-02,0.00585313
4.2736e-02,0.00578125
4.2768e-02,0.00625
4.2800e-02,0.0065125
4.2832e-02,0.00664375
4.2864e-02,0.00687813
