432Lab4/Green_B0.csv

Model,MSO2024
Firmware Version,1.52

Point Format,Y
Horizontal Units,S
Horizontal Scale,0.01
Sample Interval,3.2e-05
Filter Frequency,2e+08
Record Length,3125
Gating,0.0% to 100.0%
Probe Attenuation,1
Vertical Units,V
Vertical Offset,0
Vertical Scale,0.2
Label,
TIME,CH1
1.3200e-02,0.0224375
1.3232e-02,0.02325
1.3264e-02,0.0239375
1.3296e-02,0.0236563
1.3328e-02,0.0242813
1.3360e-02,0.025
1.3392e-02,0.0260313
1.3424e-02,0.0266875
1.3456e-02,0.0269688
1.3488e-02,0.0278125
1.3520e-02,0.0289688
1.3552e-02,0.0294063
1.3584e-02,0.0301875
1.3616e-02,0.0305
1.3648e-02,0.0306875
1.3680e-02,0.0323438
1.3712e-02,0.0343125
1.3744e-02,0.0345938
1.3776e-02,0.0355938
1.3808e-02,0.0367188
1.3840e-02,0.0370313
1.3872e-02,0.0381875
1.3904e-02,0.0390938
1.3936e-02,0.0393438
1.3968e-02,0.0404375
1.4000e-02,0.0415625
1.4032e-02,0.041875
1.4064e-02,0.0419063
1.4096e-02,0.0433125
1.4128e-02,0.0455938
1.4160e-02,0.0440938
1.4192e-02,0.0439375
1.4224e-02,0.0438438
1.4256e-02,0.045375
1.4288e-02,0.0460625
1.4320e-02,0.0461875
1.4352e-02,0.0477188
1.4384e-02,0.0471875
1.4416e-02,0.0476563
1.4448e-02,0.046
1.4480e-02,0.0445313
1.4512e-02,0.0441875
1.4544e-02,0.0433438
1.4576e-02,0.0416563
1.4608e-02,0.040125
1.4640e-02,0.0407188
1.4672e-02,0.039625
1.4704e-02,0.038625
1.4736e-02,0.0370313
1.4768e-02,0.03575
1.4800e-02,0.0341875
1.4832e-02,0.0333125
1.4864e-02,0.0310313
1.4896e-02,0.0304688
1.4928e-02,0.0285938
1.4960e-02,0.0265
1.4992e-02,0.0245938
1.5024e-02,0.0225625
1.5056e-02,0.0216563
1.5088e-02,0.0216875
1.5120e-02,0.0210625
1.5152e-02,0.019375
1.5184e-02,0.0185
1.5216e-02,0.018375
1.5248e-02,0.0183125
1.5280e-02,0.017625
1.5312e-02,0.0178125
1.5344e-02,0.0178438
1.5376e-02,0.0169375
1.5408e-02,0.0163438
1.5440e-02,0.016375
1.5472e-02,0.0160938
1.5504e-02,0.0150625
1.5536e-02,0.0145313
1.5568e-02,0.0145313
1.5600e-02,0.01425
1.5632e-02,0.01475
1.5664e-02,0.0144375
1.5696e-02,0.0144688
1.5728e-02,0.0139688
1.5760e-02,0.0139375
1.5792e-02,0.0140313
1.5824e-02,0.0139375
1.5856e-02,0.0143438
1.5888e-02,0.0141563
1.5920e-02,0.0141875
1.5952e-02,0.0136875
1.5984e-02,0.0132813
1.6016e-02,0.0137188
1.6048e-02,0.0134688
1.6080e-02,0.0139375
1.6112e-02,0.0140313
1.6144e-02,0.0140938
1.6176e-02,0.0142813
1.6208e-02,0.013875
1.6240e-02,0.0139375
1.6272e-02,0.0139688
1.6304e-02,0.0137813
1.6336e-02,0.0138125
1.6368e-02,0.0140625
1.6400e-02,0.014125
1.6432e-02,0.0140313
1.6464e-02,0.0135
1.6496e-02,0.013125
1.6528e-02,0.0135938
1.6560e-02,0.0139375
1.6592e-02,0.0141563
1.6624e-02,0.0141563
1.6656e-02,0.0142813
1.6688e-02,0.014125
1.6720e-02,0.0135
1.6752e-02,0.0130313
1.6784e-02,0.0126875
1.6816e-02,0.014
1.6848e-02,0.0139375
1.6880e-02,0.0139688
1.6912e-02,0.0138125
1.6944e-02,0.0132813
1.6976e-02,0.0127188
1.7008e-02,0.0141563
1.7040e-02,0.0141563
1.7072e-02,0.01425
1.7104e-02,0.0143438
1.7136e-02,0.0142813
1.7168e-02,0.0142813
1.7200e-02,0.0143125
1.7232e-02,0.0139375
1.7264e-02,0.0135625
1.7296e-02,0.0139063
1.7328e-02,0.0139375
1.7360e-02,0.01425
1.7392e-02,0.0133438
1.7424e-02,0.0135938
1.7456e-02,0.0138125
1.7488e-02,0.0141563
1.7520e-02,0.014125
1.7552e-02,0.013625
1.7584e-02,0.0135
1.7616e-02,0.0134063
1.7648e-02,0.013125
1.7680e-02,0.013375
1.7712e-02,0.0140938
1.7744e-02,0.0141563
1.7776e-02,0.0141875
1.7808e-02,0.0142188
1.7840e-02,0.0141563
1.7872e-02,0.0140938
1.7904e-02,0.0140938
1.7936e-02,0.0143438
1.7968e-02,0.0143125
1.8000e-02,0.014125
1.8032e-02,0.0142813
1.8064e-02,0.0142813
1.8096e-02,0.0144063
1.8128e-02,0.0147188
1.8160e-02,0.0142813
1.8192e-02,0.0143125
1.8224e-02,0.013875
1.8256e-02,0.013625
1.8288e-02,0.0141563
1.8320e-02,0.0140938
1.8352e-02,0.0140313
1.8384e-02,0.0140938
1.8416e-02,0.0141875
1.8448e-02,0.0140625
1.8480e-02,0.0140625
1.8512e-02,0.0140625
1.8544e-02,0.0142813
1.8576e-02,0.01425
1.8608e-02,0.0139063
1.8640e-02,0.0132188
1.8672e-02,0.0124063
1.8704e-02,0.0126563
1.8736e-02,0.0130938
1.8768e-02,0.014375
1.8800e-02,0.0144063
1.8832e-02,0.0140625
1.8864e-02,0.0142188
1.8896e-02,0.0139375
1.8928e-02,0.014
1.8960e-02,0.0140625
1.8992e-02,0.0143125
1.9024e-02,0.0140625
1.9056e-02,0.0140625
1.9088e-02,0.0135625
1.9120e-02,0.0134688
1.9152e-02,0.0126875
1.9184e-02,0.0129688
1.9216e-02,0.0136875
1.9248e-02,0.0125625
1.9280e-02,0.012625
1.9312e-02,0.0135625
1.9344e-02,0.0129063
1.9376e-02,0.01325
1.9408e-02,0.0132813
1.9440e-02,0.013375
1.9472e-02,0.013875
1.9504e-02,0.0131875
1.9536e-02,0.0133125
1.9568e-02,0.01325
1.9600e-02,0.0140625
1.9632e-02,0.0140938
1.9664e-02,0.0139688
1.9696e-02,0.0137813
1.9728e-02,0.0137813
1.9760e-02,0.0136563
1.9792e-02,0.0143438
1.9824e-02,0.014875
1.9856e-02,0.0135625
1.9888e-02,0.014
1.9920e-02,0.013875
1.9952e-02,0.0140938
1.9984e-02,0.0137188
2.0016e-02,0.0136875
2.0048e-02,0.0128438
2.0080e-02,0.012625
2.0112e-02,0.0129063
2.0144e-02,0.0135
2.0176e-02,0.01275
2.0208e-02,0.0137188
2.0240e-02,0.0136875
2.0272e-02,0.0139375
2.0304e-02,0.0136563
2.0336e-02,0.014125
2.0368e-02,0.014125
2.0400e-02,0.0140938
2.0432e-02,0.0146875
2.0464e-02,0.014
2.0496e-02,0.0144375
2.0528e-02,0.0138438
2.0560e-02,0.014125
2.0592e-02,0.0140625
2.0624e-02,0.0134375
2.0656e-02,0.0128125
2.0688e-02,0.0126563
2.0720e-02,0.0130313
2.0752e-02,0.0133438
2.0784e-02,0.0138438
2.0816e-02,0.0135625
2.0848e-02,0.0140313
2.0880e-02,0.014
2.0912e-02,0.0141875
2.0944e-02,0.013875
2.0976e-02,0.0140313
2.1008e-02,0.0136875
2.1040e-02,0.0129688
2.1072e-02,0.0131875
2.1104e-02,0.0137188
2.1136e-02,0.0140938
2.1168e-02,0.0139688
2.1200e-02,0.0140313
2.1232e-02,0.0140313
2.1264e-02,0.013875
2.1296e-02,0.0142188
2.1328e-02,0.014375
2.1360e-02,0.0142188
2.1392e-02,0.0140938
2.1424e-02,0.0141875
2.1456e-02,0.0139375
2.1488e-02,0.0135
2.1520e-02,0.0140938
2.1552e-02,0.0139688
2.1584e-02,0.0137188
2.1616e-02,0.0134063
2.1648e-02,0.0138438
2.1680e-02,0.0136563
2.1712e-02,0.0135625
2.1744e-02,0.0137813
2.1776e-02,0.014
2.1808e-02,0.0142813
2.1840e-02,0.0148125
2.1872e-02,0.0149688
2.1904e-02,0.0144063
2.1936e-02,0.0140938
2.1968e-02,0.0144063
2.2000e-02,0.0140938
2.2032e-02,0.0140313
2.2064e-02,0.0144375
2.2096e-02,0.0145313
2.2128e-02,0.0144063
2.2160e-02,0.0141563
2.2192e-02,0.0141563
2.2224e-02,0.0143438
2.2256e-02,0.0153125
2.2288e-02,0.0148125
2.2320e-02,0.0135625
2.2352e-02,0.014
2.2384e-02,0.013875
2.2416e-02,0.0142813
2.2448e-02,0.0142813
2.2480e-02,0.01375
2.2512e-02,0.0140938
2.2544e-02,0.0141563
2.2576e-02,0.0140938
2.2608e-02,0.0140625
2.2640e-02,0.014125
2.2672e-02,0.0140938
2.2704e-02,0.014125
2.2736e-02,0.0141563
2.2768e-02,0.0147813
2.2800e-02,0.0139063
2.2832e-02,0.014125
2.2864e-02,0.014625
2.2896e-02,0.0145938
2.2928e-02,0.0141563
2.2960e-02,0.0144375
2.2992e-02,0.0140313
2.3024e-02,0.0140313
2.3056e-02,0.0140938
2.3088e-02,0.0144688
2.3120e-02,0.0144688
2.3152e-02,0.0139688
2.3184e-02,0.014
2.3216e-02,0.0138438
2.3248e-02,0.0142188
2.3280e-02,0.0152813
2.3312e-02,0.015625
2.3344e-02,0.0154688
2.3376e-02,0.0150313
2.3408e-02,0.0152813
2.3440e-02,0.0149688
2.3472e-02,0.0153438
2.3504e-02,0.014125
2.3536e-02,0.0141563
2.3568e-02,0.014375
2.3600e-02,0.0148438
2.3632e-02,0.0149375
2.3664e-02,0.0155938
2.3696e-02,0.01625
2.3728e-02,0.0153438
2.3760e-02,0.0153125
2.3792e-02,0.01525
2.3824e-02,0.0148125
2.3856e-02,0.0150313
2.3888e-02,0.0152188
2.3920e-02,0.0164688
2.3952e-02,0.015
2.3984e-02,0.0145313
2.4016e-02,0.0149063
2.4048e-02,0.0145625
2.4080e-02,0.01425
2.4112e-02,0.0145313
2.4144e-02,0.0144063
2.4176e-02,0.0146563
2.4208e-02,0.014625
2.4240e-02,0.0148125
2.4272e-02,0.0146563
2.4304e-02,0.0149688
2.4336e-02,0.0147813
2.4368e-02,0.015
2.4400e-02,0.0147813
2.4432e-02,0.0154063
2.4464e-02,0.0160938
2.4496e-02,0.0164375
2.4528e-02,0.0170313
2.4560e-02,0.01625
2.4592e-02,0.016625
2.4624e-02,0.0152813
2.4656e-02,0.0151875
2.4688e-02,0.0153438
2.4720e-02,0.015
2.4752e-02,0.0155313
2.4784e-02,0.016
2.4816e-02,0.015875
2.4848e-02,0.015625
2.4880e-02,0.0156875
2.4912e-02,0.0177813
2.4944e-02,0.017875
2.4976e-02,0.0173125
2.5008e-02,0.017625
2.5040e-02,0.0166563
2.5072e-02,0.016625
2.5104e-02,0.0177188
2.5136e-02,0.017875
2.5168e-02,0.0166563
2.5200e-02,0.0170938
2.5232e-02,0.0181563
2.5264e-02,0.0184375
2.5296e-02,0.0194688
2.5328e-02,0.0192813
2.5360e-02,0.0185625
2.5392e-02,0.0191563
2.5424e-02,0.019625
2.5456e-02,0.0198438
2.5488e-02,0.02125
2.5520e-02,0.021125
2.5552e-02,0.0214063
2.5584e-02,0.0215313
2.5616e-02,0.020625
2.5648e-02,0.0214375
2.5680e-02,0.0219688
2.5712e-02,0.0208125
2.5744e-02,0.0194063
2.5776e-02,0.0193438
2.5808e-02,0.0197813
2.5840e-02,0.0197813
2.5872e-02,0.0186875
2.5904e-02,0.0190313
2.5936e-02,0.019875
2.5968e-02,0.0204688
2.6000e-02,0.019625
2.6032e-02,0.0193125
2.6064e-02,0.0190938
2.6096e-02,0.0196563
2.6128e-02,0.019375
2.6160e-02,0.0196563
2.6192e-02,0.0191563
2.6224e-02,0.0194688
2.6256e-02,0.0195
2.6288e-02,0.020125
2.6320e-02,0.021
2.6352e-02,0.0202813
2.6384e-02,0.0204688
2.6416e-02,0.0199688
2.6448e-02,0.0209063
2.6480e-02,0.021375
2.6512e-02,0.021625
2.6544e-02,0.0214375
2.6576e-02,0.0219375
2.6608e-02,0.0220938
2.6640e-02,0.0219063
2.6672e-02,0.02225
2.6704e-02,0.0234688
2.6736e-02,0.0241563
2.6768e-02,0.0250625
2.6800e-02,0.0258438
2.6832e-02,0.0260625
2.6864e-02,0.0268125
2.6896e-02,0.0286563
2.6928e-02,0.0303125
2.6960e-02,0.0319688
2.6992e-02,0.0329688
2.7024e-02,0.0324375
2.7056e-02,0.0328125
2.7088e-02,0.0345625
2.7120e-02,0.03475
2.7152e-02,0.0364063
2.7184e-02,0.0380938
2.7216e-02,0.0407188
2.7248e-02,0.0424375
2.7280e-02,0.0440313
2.7312e-02,0.0476875
2.7344e-02,0.0500625
2.7376e-02,0.0501563
2.7408e-02,0.0510313
2.7440e-02,0.0514375
2.7472e-02,0.0544688
2.7504e-02,0.05825
2.7536e-02,0.0619688
2.7568e-02,0.0651563
2.7600e-02,0.0667188
2.7632e-02,0.0681563
2.7664e-02,0.0697188
2.7696e-02,0.0702813
2.7728e-02,0.0717813
2.7760e-02,0.0744063
2.7792e-02,0.0760625
2.7824e-02,0.0776563
2.7856e-02,0.0798125
2.7888e-02,0.0805313
2.7920e-02,0.0814688
2.7952e-02,0.080625
2.7984e-02,0.0810313
2.8016e-02,0.0816875
2.8048e-02,0.0825625
2.8080e-02,0.084875
2.8112e-02,0.0864688
2.8144e-02,0.0869063
2.8176e-02,0.0883125
2.8208e-02,0.0910938
2.8240e-02,0.0941875
2.8272e-02,0.0956875
2.8304e-02,0.0974063
2.8336e-02,0.102531
2.8368e-02,0.10725
2.8400e-02,0.112938
2.8432e-02,0.118875
2.8464e-02,0.123938
2.8496e-02,0.127125
2.8528e-02,0.128406
2.8560e-02,0.131438
2.8592e-02,0.138531
2.8624e-02,0.14575
2.8656e-02,0.151969
2.8688e-02,0.154469
2.8720e-02,0.160156
2.8752e-02,0.165031
2.8784e-02,0.171375
2.8816e-02,0.171531
2.8848e-02,0.168188
2.8880e-02,0.170531
2.8912e-02,0.17275
2.8944e-02,0.172344
2.8976e-02,0.16925
2.9008e-02,0.16625
2.9040e-02,0.16325
2.9072e-02,0.165938
2.9104e-02,0.167125
2.9136e-02,0.166563
2.9168e-02,0.16275
2.9200e-02,0.158813
2.9232e-02,0.154
2.9264e-02,0.148875
2.9296e-02,0.146281
2.9328e-02,0.147375
2.9360e-02,0.1495
2.9392e-02,0.152281
2.9424e-02,0.156844
2.9456e-02,0.158906
2.9488e-02,0.160844
2.9520e-02,0.163313
2.9552e-02,0.167469
2.9584e-02,0.174469
2.9616e-02,0.184188
2.9648e-02,0.1955
2.9680e-02,0.20375
2.9712e-02,0.213406
2.9744e-02,0.220438
2.9776e-02,0.226156
2.9808e-02,0.237656
2.9840e-02,0.253156
2.9872e-02,0.2745
2.9904e-02,0.292625
2.9936e-02,0.312563
2.9968e-02,0.337438
3.0000e-02,0.358281
3.0032e-02,0.385875
3.0064e-02,0.4105
3.0096e-02,0.4355
3.0128e-02,0.465406
3.0160e-02,0.49075
3.0192e-02,0.532813
3.0224e-02,0.570875
3.0256e-02,0.6085
3.0288e-02,0.649188
3.0320e-02,0.704063
3.0352e-02,0.753156
3.0384e-02,0.78975
3.0416e-02,0.832875
3.0448e-02,0.885813
3.0480e-02,0.914719
3.0512e-02,0.954906
3.0544e-02,0.994469
3.0576e-02,1.02559
3.0608e-02,1.074
3.0640e-02,1.10491
3.0672e-02,1.14353
3.0704e-02,1.17444
3.0736e-02,1.19447
3.0768e-02,1.21138
3.0800e-02,1.22694
3.0832e-02,1.24822
3.0864e-02,1.25897
3.0896e-02,1.26609
3.0928e-02,1.25619
3.0960e-02,1.258
3.0992e-02,1.26103
3.1024e-02,1.25953
3.1056e-02,1.26853
3.1088e-02,1.26913
3.1120e-02,1.25728
3.1152e-02,1.2375
3.1184e-02,1.22409
3.1216e-02,1.20791
3.1248e-02,1.17809
3.1280e-02,1.15303
3.1312e-02,1.12859
3.1344e-02,1.09506
3.1376e-02,1.05975
3.1408e-02,0.998156
3.1440e-02,0.948188
3.1472e-02,0.888344
3.1504e-02,0.83725
3.1536e-02,0.778281
3.1568e-02,0.725563
3.1600e-02,0.6745
3.1632e-02,0.627688
3.1664e-02,0.572531
3.1696e-02,0.523063
3.1728e-02,0.474406
3.1760e-02,0.419
3.1792e-02,0.373906
3.1824e-02,0.336563
3.1856e-02,0.302219
3.1888e-02,0.273938
3.1920e-02,0.250594
3.1952e-02,0.229688
3.1984e-02,0.21175
3.2016e-02,0.194875
3.2048e-02,0.180281
3.2080e-02,0.171063
3.2112e-02,0.165344
3.2144e-02,0.157938
3.2176e-02,0.151875
3.2208e-02,0.147625
3.2240e-02,0.142594
3.2272e-02,0.138469
3.2304e-02,0.135188
3.2336e-02,0.137781
3.2368e-02,0.137
3.2400e-02,0.13275
3.2432e-02,0.13125
3.2464e-02,0.131
3.2496e-02,0.131531
3.2528e-02,0.133781
3.2560e-02,0.132281
3.2592e-02,0.129875
3.2624e-02,0.129094
3.2656e-02,0.123156
3.2688e-02,0.117625
3.2720e-02,0.11425
3.2752e-02,0.112219
3.2784e-02,0.110344
3.2816e-02,0.108938
3.2848e-02,0.106813
3.2880e-02,0.104969
3.2912e-02,0.0995625
3.2944e-02,0.0954688
3.2976e-02,0.0916875
3.3008e-02,0.0846875
3.3040e-02,0.07825
3.3072e-02,0.0765313
3.3104e-02,0.0739375
3.3136e-02,0.0726875
3.3168e-02,0.0700625
3.3200e-02,0.0695938
3.3232e-02,0.0670625
3.3264e-02,0.0628125
3.3296e-02,0.0579688
3.3328e-02,0.0542188
3.3360e-02,0.0533438
3.3392e-02,0.0512188
3.3424e-02,0.0499688
3.3456e-02,0.0487813
3.3488e-02,0.047375
3.3520e-02,0.0481875
3.3552e-02,0.047625
3.3584e-02,0.0459688
3.3616e-02,0.0432188
3.3648e-02,0.0424688
3.3680e-02,0.0400625
3.3712e-02,0.0395938
3.3744e-02,0.0383125
3.3776e-02,0.0384688
3.3808e-02,0.0358438
3.3840e-02,0.0348438
3.3872e-02,0.034125
3.3904e-02,0.032375
3.3936e-02,0.0321563
3.3968e-02,0.0300625
3.4000e-02,0.0303125
3.4032e-02,0.0295313
3.4064e-02,0.0284688
3.4096e-02,0.0267188
3.4128e-02,0.0260625
3.4160e-02,0.0249688
3.4192e-02,0.0235625
3.4224e-02,0.0230625
3.4256e-02,0.022375
3.4288e-02,0.0214375
3.4320e-02,0.0215313
3.4352e-02,0.0206563
3.4384e-02,0.0205938
3.4416e-02,0.0192188
3.4448e-02,0.0182813
3.4480e-02,0.0180625
3.4512e-02,0.0192813
3.4544e-02,0.0196875
3.4576e-02,0.0199375
3.4608e-02,0.01975
3.4640e-02,0.0197188
3.4672e-02,0.0191875
3.4704e-02,0.0189688
3.4736e-02,0.018125
3.4768e-02,0.018125
3.4800e-02,0.018625
3.4832e-02,0.0195625
3.4864e-02,0.01825
3.4896e-02,0.0182813
3.4928e-02,0.0181875
3.4960e-02,0.0187188
3.4992e-02,0.018
3.5024e-02,0.0179063
3.5056e-02,0.018
3.5088e-02,0.0179688
3.5120e-02,0.0184688
3.5152e-02,0.0185938
3.5184e-02,0.0185625
3.5216e-02,0.0185625
3.5248e-02,0.0185938
3.5280e-02,0.01925
3.5312e-02,0.019
3.5344e-02,0.019125
3.5376e-02,0.0190313
3.5408e-02,0.0199063
3.5440e-02,0.0194688
3.5472e-02,0.0193438
3.5504e-02,0.01925
3.5536e-02,0.0195
3.5568e-02,0.0202813
3.5600e-02,0.020625
3.5632e-02,0.0205625
3.5664e-02,0.021375
3.5696e-02,0.020375
3.5728e-02,0.0215625
3.5760e-02,0.022375
3.5792e-02,0.0230313
3.5824e-02,0.0235
3.5856e-02,0.025375
3.5888e-02,0.02575
3.5920e-02,0.0262188
3.5952e-02,0.025875
3.5984e-02,0.0270938
3.6016e-02,0.0286875
3.6048e-02,0.0296563
3.6080e-02,0.0301563
3.6112e-02,0.0311875
3.6144e-02,0.0337188
3.6176e-02,0.0346875
3.6208e-02,0.0363438
3.6240e-02,0.0358125
3.6272e-02,0.0374375
3.6304e-02,0.0383438
3.6336e-02,0.0383438
3.6368e-02,0.0395625
3.6400e-02,0.0415
3.6432e-02,0.0429688
3.6464e-02,0.0453125
3.6496e-02,0.0475
3.6528e-02,0.0478125
3.6560e-02,0.0476563
3.6592e-02,0.0474375
3.6624e-02,0.0481563
3.6656e-02,0.0480625
3.6688e-02,0.0481875
3.6720e-02,0.0460938
3.6752e-02,0.0436875
3.6784e-02,0.0418125
3.6816e-02,0.0408125
3.6848e-02,0.0385313
3.6880e-02,0.0381875
3.6912e-02,0.0367813
3.6944e-02,0.03575
3.6976e-02,0.0334688
3.7008e-02,0.0315625
3.7040e-02,0.0304375
3.7072e-02,0.0289063
3.7104e-02,0.0262188
3.7136e-02,0.0251875
3.7168e-02,0.0244063
3.7200e-02,0.0220938
3.7232e-02,0.0215625
3.7264e-02,0.0210313
3.7296e-02,0.0188125
3.7328e-02,0.0180313
3.7360e-02,0.0175313
3.7392e-02,0.0160313
3.7424e-02,0.014875
3.7456e-02,0.015125
3.7488e-02,0.013875
3.7520e-02,0.0147188
3.7552e-02,0.0139688
3.7584e-02,0.014125
3.7616e-02,0.014
3.7648e-02,0.0139063
3.7680e-02,0.01375
3.7712e-02,0.0140938
3.7744e-02,0.0146563
3.7776e-02,0.0147813
3.7808e-02,0.0140625
3.7840e-02,0.01425
3.7872e-02,0.0144375
3.7904e-02,0.0146563
3.7936e-02,0.0139063
3.7968e-02,0.0140625
3.8000e-02,0.0142188
3.8032e-02,0.0141563
3.8064e-02,0.0141563
3.8096e-02,0.0139063
3.8128e-02,0.0142188
3.8160e-02,0.0145625
3.8192e-02,0.0133438
3.8224e-02,0.014125
3.8256e-02,0.014375
3.8288e-02,0.0143438
3.8320e-02,0.0141563
3.8352e-02,0.0142188
3.8384e-02,0.0142813
3.8416e-02,0.0141875
3.8448e-02,0.0141563
3.8480e-02,0.013875
3.8512e-02,0.0139688
3.8544e-02,0.0139688
3.8576e-02,0.0139375
3.8608e-02,0.0136875
3.8640e-02,0.0136563
3.8672e-02,0.0133438
3.8704e-02,0.014
3.8736e-02,0.0140313
3.8768e-02,0.0139688
3.8800e-02,0.0140625
3.8832e-02,0.014
3.8864e-02,0.0142188
3.8896e-02,0.0141563
3.8928e-02,0.0148125
3.8960e-02,0.0145313
3.8992e-02,0.0150625
3.9024e-02,0.0142813
3.9056e-02,0.014625
3.9088e-02,0.015
3.9120e-02,0.0146875
3.9152e-02,0.0142813
3.9184e-02,0.0136875
3.9216e-02,0.0126875
3.9248e-02,0.0135
3.9280e-02,0.0137813
3.9312e-02,0.0134375
3.9344e-02,0.0136563
3.9376e-02,0.0131563
3.9408e-02,0.013375
3.9440e-02,0.0128438
3.9472e-02,0.0135938
3.9504e-02,0.0142188
3.9536e-02,0.01425
3.9568e-02,0.014
3.9600e-02,0.0140938
3.9632e-02,0.0140313
3.9664e-02,0.0133438
3.9696e-02,0.0139688
3.9728e-02,0.013875
3.9760e-02,0.01425
3.9792e-02,0.0141563
3.9824e-02,0.0148125
3.9856e-02,0.0151563
3.9888e-02,0.0145313
3.9920e-02,0.0142813
3.9952e-02,0.0142813
3.9984e-02,0.0140938
4.0016e-02,0.014
4.0048e-02,0.0139688
4.0080e-02,0.0139063
4.0112e-02,0.0140313
4.0144e-02,0.0139688
4.0176e-02,0.0140313
4.0208e-02,0.0140313
4.0240e-02,0.0140938
4.0272e-02,0.014125
4.0304e-02,0.0140938
4.0336e-02,0.013
4.0368e-02,0.0136875
4.0400e-02,0.0135625
4.0432e-02,0.0138438
4.0464e-02,0.0138125
4.0496e-02,0.0134375
4.0528e-02,0.013625
4.0560e-02,0.0141875
4.0592e-02,0.0147813
4.0624e-02,0.0145
4.0656e-02,0.013625
4.0688e-02,0.0142188
4.0720e-02,0.0134063
4.0752e-02,0.0136875
4.0784e-02,0.0135938
4.0816e-02,0.0141563
4.0848e-02,0.0141563
4.0880e-02,0.0133438
4.0912e-02,0.012875
4.0944e-02,0.0135
4.0976e-02,0.013
4.1008e-02,0.0128125
4.1040e-02,0.013625
4.1072e-02,0.0140938
4.1104e-02,0.0141875
4.1136e-02,0.014125
4.1168e-02,0.0140313
4.1200e-02,0.0134375
4.1232e-02,0.0134063
4.1264e-02,0.0132813
4.1296e-02,0.0139063
4.1328e-02,0.0142188
4.1360e-02,0.0140938
4.1392e-02,0.0140313
4.1424e-02,0.014
4.1456e-02,0.0130625
4.1488e-02,0.0142813
4.1520e-02,0.0142813
4.1552e-02,0.0137813
4.1584e-02,0.014125
4.1616e-02,0.0142188
4.1648e-02,0.0136563
4.1680e-02,0.0138125
4.1712e-02,0.0140313
4.1744e-02,0.0140313
4.1776e-02,0.0140313
4.1808e-02,0.0140625
4.1840e-02,0.013125
4.1872e-02,0.0121875
4.1904e-02,0.013
4.1936e-02,0.0140313
4.1968e-02,0.0142188
4.2000e-02,0.014625
4.2032e-02,0.015625
4.2064e-02,0.014875
4.2096e-02,0.014125
4.2128e-02,0.0149375
4.2160e-02,0.0148438
4.2192e-02,0.0159063
4.2224e-02,0.0151875
4.2256e-02,0.0143438
4.2288e-02,0.0142188
4.2320e-02,0.014125
4.2352e-02,0.0133438
4.2384e-02,0.0121875
4.2416e-02,0.013
4.2448e-02,0.0127188
4.2480e-02,0.014125
4.2512e-02,0.0135625
4.2544e-02,0.0138438
4.2576e-02,0.0149375
4.2608e-02,0.01475
4.2640e-02,0.0146563
4.2672e-02,0.0140938
4.2704e-02,0.0140625
4.2736e-02,0.0140625
4.2768e-02,0.0141875
4.2800e-02,0.0145313
4.2832e-02,0.0144375
4.2864e-02,0.0143438
4.2896e-02,0.0142188
4.2928e-02,0.014
4.2960e-02,0.0140313
4.2992e-02,0.0140938
4.3024e-02,0.0140313
4.3056e-02,0.0136875
4.3088e-02,0.013125
4.3120e-02,0.0138438
4.3152e-02,0.0136563
4.3184e-02,0.0139688
4.3216e-02,0.01375
4.3248e-02,0.0134375
4.3280e-02,0.01325
4.3312e-02,0.014125
4.3344e-02,0.0140938
4.3376e-02,0.0140625
4.3408e-02,0.0135
4.3440e-02,0.0137813
4.3472e-02,0.0130625
4.3504e-02,0.0139688
4.3536e-02,0.0138438
4.3568e-02,0.0128438
4.3600e-02,0.013375
4.3632e-02,0.0134063
4.3664e-02,0.0139688
4.3696e-02,0.014375
4.3728e-02,0.0147813
4.3760e-02,0.0149688
4.3792e-02,0.0145938
4.3824e-02,0.014125
4.3856e-02,0.0140625
4.3888e-02,0.0140625
4.3920e-02,0.0140625
4.3952e-02,0.0139063
4.3984e-02,0.0151563
4.4016e-02,0.0155938
4.4048e-02,0.0150625
