432Lab4/Green_357A_sigma.csv

Model,MSO2024
Firmware Version,1.52

Point Format,Y
Horizontal Units,S
Horizontal Scale,0.01
Sample Interval,3.2e-05
Filter Frequency,2e+08
Record Length,3125
Gating,0.0% to 100.0%
Probe Attenuation,1
Vertical Units,V
Vertical Offset,0
Vertical Scale,0.02
Label,
TIME,CH1
1.3200e-02,0.04515
1.3232e-02,0.0472219
1.3264e-02,0.0469125
1.3296e-02,0.0475719
1.3328e-02,0.0483156
1.3360e-02,0.0490156
1.3392e-02,0.0501469
1.3424e-02,0.0509656
1.3456e-02,0.052
1.3488e-02,0.0528813
1.3520e-02,0.0535781
1.3552e-02,0.0561531
1.3584e-02,0.057225
1.3616e-02,0.0577156
1.3648e-02,0.0578344
1.3680e-02,0.0580125
1.3712e-02,0.0580719
1.3744e-02,0.0582469
1.3776e-02,0.0586
1.3808e-02,0.0587688
1.3840e-02,0.0590188
1.3872e-02,0.0579938
1.3904e-02,0.0573469
1.3936e-02,0.0546094
1.3968e-02,0.0531563
1.4000e-02,0.0502813
1.4032e-02,0.0479625
1.4064e-02,0.0451094
1.4096e-02,0.0435156
1.4128e-02,0.0420969
1.4160e-02,0.0399031
1.4192e-02,0.0383281
1.4224e-02,0.0364219
1.4256e-02,0.033875
1.4288e-02,0.0317063
1.4320e-02,0.0292219
1.4352e-02,0.0272094
1.4384e-02,0.0250125
1.4416e-02,0.0229719
1.4448e-02,0.0215625
1.4480e-02,0.0201563
1.4512e-02,0.0195094
1.4544e-02,0.0193625
1.4576e-02,0.0185
1.4608e-02,0.0180313
1.4640e-02,0.0167063
1.4672e-02,0.0156063
1.4704e-02,0.0142875
1.4736e-02,0.0132969
1.4768e-02,0.0135438
1.4800e-02,0.0134531
1.4832e-02,0.0133844
1.4864e-02,0.0132156
1.4896e-02,0.0129156
1.4928e-02,0.012575
1.4960e-02,0.0125563
1.4992e-02,0.0117281
1.5024e-02,0.0114063
1.5056e-02,0.0109656
1.5088e-02,0.0118531
1.5120e-02,0.0123969
1.5152e-02,0.0130063
1.5184e-02,0.0132406
1.5216e-02,0.0132
1.5248e-02,0.01335
1.5280e-02,0.0133156
1.5312e-02,0.0136594
1.5344e-02,0.0134094
1.5376e-02,0.0127344
1.5408e-02,0.012975
1.5440e-02,0.0139781
1.5472e-02,0.0142031
1.5504e-02,0.0147031
1.5536e-02,0.0143094
1.5568e-02,0.0145156
1.5600e-02,0.0156688
1.5632e-02,0.016075
1.5664e-02,0.0161375
1.5696e-02,0.0167594
1.5728e-02,0.0167781
1.5760e-02,0.0168094
1.5792e-02,0.0175125
1.5824e-02,0.0175531
1.5856e-02,0.0175531
1.5888e-02,0.0182219
1.5920e-02,0.0183875
1.5952e-02,0.0178219
1.5984e-02,0.0173781
1.6016e-02,0.0177563
1.6048e-02,0.0185563
1.6080e-02,0.0189031
1.6112e-02,0.0192594
1.6144e-02,0.0202719
1.6176e-02,0.0210781
1.6208e-02,0.0214563
1.6240e-02,0.0214125
1.6272e-02,0.0217844
1.6304e-02,0.0212938
1.6336e-02,0.0216063
1.6368e-02,0.0216781
1.6400e-02,0.0212875
1.6432e-02,0.0206844
1.6464e-02,0.0206875
1.6496e-02,0.0212063
1.6528e-02,0.020275
1.6560e-02,0.0202469
1.6592e-02,0.0210375
1.6624e-02,0.020875
1.6656e-02,0.0196469
1.6688e-02,0.0194031
1.6720e-02,0.0185719
1.6752e-02,0.0178719
1.6784e-02,0.0183656
1.6816e-02,0.0178406
1.6848e-02,0.0175156
1.6880e-02,0.0168813
1.6912e-02,0.0161156
1.6944e-02,0.0154688
1.6976e-02,0.0148938
1.7008e-02,0.0141406
1.7040e-02,0.0137063
1.7072e-02,0.0131656
1.7104e-02,0.0131344
1.7136e-02,0.0122063
1.7168e-02,0.0120156
1.7200e-02,0.0112
1.7232e-02,0.0106844
1.7264e-02,0.0104563
1.7296e-02,0.00981875
1.7328e-02,0.00943438
1.7360e-02,0.00920313
1.7392e-02,0.00932813
1.7424e-02,0.00908438
1.7456e-02,0.008925
1.7488e-02,0.00859063
1.7520e-02,0.00859063
1.7552e-02,0.0085625
1.7584e-02,0.00852813
1.7616e-02,0.00827813
1.7648e-02,0.00833438
1.7680e-02,0.00821563
1.7712e-02,0.00843438
1.7744e-02,0.0089125
1.7776e-02,0.00906875
1.7808e-02,0.00905313
1.7840e-02,0.0091875
1.7872e-02,0.00887813
1.7904e-02,0.00895625
1.7936e-02,0.00875625
1.7968e-02,0.00855625
1.8000e-02,0.00889063
1.8032e-02,0.00911875
1.8064e-02,0.00913125
1.8096e-02,0.00919688
1.8128e-02,0.00992813
1.8160e-02,0.0101188
1.8192e-02,0.010325
1.8224e-02,0.0110281
1.8256e-02,0.0114063
1.8288e-02,0.0116188
1.8320e-02,0.011625
1.8352e-02,0.0120563
1.8384e-02,0.0129375
1.8416e-02,0.0131625
1.8448e-02,0.0134719
1.8480e-02,0.0134813
1.8512e-02,0.0136875
1.8544e-02,0.0143938
1.8576e-02,0.0149938
1.8608e-02,0.0154656
1.8640e-02,0.0156719
1.8672e-02,0.015725
1.8704e-02,0.0159469
1.8736e-02,0.0163469
1.8768e-02,0.01735
1.8800e-02,0.0180344
1.8832e-02,0.0192094
1.8864e-02,0.0199281
1.8896e-02,0.0203375
1.8928e-02,0.0211406
1.8960e-02,0.0217125
1.8992e-02,0.0230156
1.9024e-02,0.0232188
1.9056e-02,0.0241281
1.9088e-02,0.0249719
1.9120e-02,0.0255563
1.9152e-02,0.0259969
1.9184e-02,0.0268938
1.9216e-02,0.0268688
1.9248e-02,0.0267438
1.9280e-02,0.0271844
1.9312e-02,0.0271031
1.9344e-02,0.0264406
1.9376e-02,0.0262688
1.9408e-02,0.026225
1.9440e-02,0.0263813
1.9472e-02,0.0256781
1.9504e-02,0.0247844
1.9536e-02,0.0242906
1.9568e-02,0.0235375
1.9600e-02,0.0233219
1.9632e-02,0.023825
1.9664e-02,0.0231969
1.9696e-02,0.0220875
1.9728e-02,0.0214313
1.9760e-02,0.0212469
1.9792e-02,0.0202625
1.9824e-02,0.0198031
1.9856e-02,0.01895
1.9888e-02,0.0184
1.9920e-02,0.0180313
1.9952e-02,0.0178313
1.9984e-02,0.0173125
2.0016e-02,0.0169469
2.0048e-02,0.0162625
2.0080e-02,0.0161438
2.0112e-02,0.0156875
2.0144e-02,0.0150531
2.0176e-02,0.0149938
2.0208e-02,0.0155625
2.0240e-02,0.0156156
2.0272e-02,0.0158656
2.0304e-02,0.0159938
2.0336e-02,0.0167281
2.0368e-02,0.0179
2.0400e-02,0.0180469
2.0432e-02,0.0186031
2.0464e-02,0.0182813
2.0496e-02,0.0174906
2.0528e-02,0.0174531
2.0560e-02,0.0186469
2.0592e-02,0.0190656
2.0624e-02,0.0192594
2.0656e-02,0.019125
2.0688e-02,0.01935
2.0720e-02,0.0195781
2.0752e-02,0.0196438
2.0784e-02,0.0204438
2.0816e-02,0.0219906
2.0848e-02,0.0231844
2.0880e-02,0.0236813
2.0912e-02,0.0240625
2.0944e-02,0.0253781
2.0976e-02,0.0269469
2.1008e-02,0.0281813
2.1040e-02,0.0284281
2.1072e-02,0.0290469
2.1104e-02,0.0289406
2.1136e-02,0.0299844
2.1168e-02,0.03215
2.1200e-02,0.0340563
2.1232e-02,0.0343781
2.1264e-02,0.0355125
2.1296e-02,0.0362563
2.1328e-02,0.0388375
2.1360e-02,0.0398031
2.1392e-02,0.0411594
2.1424e-02,0.043
2.1456e-02,0.0444094
2.1488e-02,0.0468875
2.1520e-02,0.049075
2.1552e-02,0.0500531
2.1584e-02,0.0512313
2.1616e-02,0.0519344
2.1648e-02,0.0533625
2.1680e-02,0.0537656
2.1712e-02,0.0531719
2.1744e-02,0.0538969
2.1776e-02,0.0533844
2.1808e-02,0.0529375
2.1840e-02,0.0538656
2.1872e-02,0.0535813
2.1904e-02,0.0521063
2.1936e-02,0.0525563
2.1968e-02,0.051575
2.2000e-02,0.0498188
2.2032e-02,0.0477656
2.2064e-02,0.0454906
2.2096e-02,0.0436844
2.2128e-02,0.0423875
2.2160e-02,0.0407094
2.2192e-02,0.0398188
2.2224e-02,0.03795
2.2256e-02,0.0355281
2.2288e-02,0.034625
2.2320e-02,0.0325156
2.2352e-02,0.0304594
2.2384e-02,0.0293031
2.2416e-02,0.0278719
2.2448e-02,0.0267906
2.2480e-02,0.0265594
2.2512e-02,0.0264969
2.2544e-02,0.0260313
2.2576e-02,0.025425
2.2608e-02,0.0262719
2.2640e-02,0.0261969
2.2672e-02,0.0260625
2.2704e-02,0.0260906
2.2736e-02,0.0263313
2.2768e-02,0.0265938
2.2800e-02,0.0265781
2.2832e-02,0.0271531
2.2864e-02,0.0270094
2.2896e-02,0.0263281
2.2928e-02,0.0261719
2.2960e-02,0.0263875
2.2992e-02,0.0268969
2.3024e-02,0.0267688
2.3056e-02,0.0276156
2.3088e-02,0.0284625
2.3120e-02,0.0285781
2.3152e-02,0.0298469
2.3184e-02,0.0314125
2.3216e-02,0.0316844
2.3248e-02,0.0328906
2.3280e-02,0.033575
2.3312e-02,0.0339625
2.3344e-02,0.0353563
2.3376e-02,0.0382938
2.3408e-02,0.0388938
2.3440e-02,0.0405156
2.3472e-02,0.0435781
2.3504e-02,0.045825
2.3536e-02,0.0489031
2.3568e-02,0.0519938
2.3600e-02,0.0546719
2.3632e-02,0.0597063
2.3664e-02,0.0639063
2.3696e-02,0.0658969
2.3728e-02,0.0675969
2.3760e-02,0.0705781
2.3792e-02,0.0737
2.3824e-02,0.0782062
2.3856e-02,0.0809969
2.3888e-02,0.0855156
2.3920e-02,0.0889375
2.3952e-02,0.0915906
2.3984e-02,0.0943594
2.4016e-02,0.097975
2.4048e-02,0.102366
2.4080e-02,0.104716
2.4112e-02,0.105087
2.4144e-02,0.104919
2.4176e-02,0.106716
2.4208e-02,0.106256
2.4240e-02,0.107906
2.4272e-02,0.109228
2.4304e-02,0.109459
2.4336e-02,0.107916
2.4368e-02,0.106656
2.4400e-02,0.105687
2.4432e-02,0.104722
2.4464e-02,0.101403
2.4496e-02,0.0980062
2.4528e-02,0.0948
2.4560e-02,0.0919375
2.4592e-02,0.0872375
2.4624e-02,0.0826937
2.4656e-02,0.0769125
2.4688e-02,0.0722594
2.4720e-02,0.066075
2.4752e-02,0.0588344
2.4784e-02,0.0530781
2.4816e-02,0.0496188
2.4848e-02,0.0457188
2.4880e-02,0.0414688
2.4912e-02,0.0369281
2.4944e-02,0.0332438
2.4976e-02,0.0299875
2.5008e-02,0.0268281
2.5040e-02,0.0250031
2.5072e-02,0.0229656
2.5104e-02,0.0212844
2.5136e-02,0.0197469
2.5168e-02,0.0186875
2.5200e-02,0.0173719
2.5232e-02,0.0151313
2.5264e-02,0.0136875
2.5296e-02,0.0128219
2.5328e-02,0.0123313
2.5360e-02,0.0115844
2.5392e-02,0.0107875
2.5424e-02,0.0103094
2.5456e-02,0.00964688
2.5488e-02,0.00960938
2.5520e-02,0.00928438
2.5552e-02,0.00871563
2.5584e-02,0.00791563
2.5616e-02,0.00774688
2.5648e-02,0.00769375
2.5680e-02,0.0075
2.5712e-02,0.00755
2.5744e-02,0.007375
2.5776e-02,0.00713438
2.5808e-02,0.006875
2.5840e-02,0.00685
2.5872e-02,0.00710313
2.5904e-02,0.00714688
2.5936e-02,0.0073
2.5968e-02,0.0074125
2.6000e-02,0.00751563
2.6032e-02,0.00725625
2.6064e-02,0.00685625
2.6096e-02,0.00630938
2.6128e-02,0.00645625
2.6160e-02,0.00651875
2.6192e-02,0.00719688
2.6224e-02,0.00714375
2.6256e-02,0.00690313
2.6288e-02,0.00672813
2.6320e-02,0.0065875
2.6352e-02,0.00654375
2.6384e-02,0.00637188
2.6416e-02,0.00634063
2.6448e-02,0.00624063
2.6480e-02,0.00613125
2.6512e-02,0.0062
2.6544e-02,0.00629688
2.6576e-02,0.00620938
2.6608e-02,0.00581875
2.6640e-02,0.00558125
2.6672e-02,0.0055875
2.6704e-02,0.005725
2.6736e-02,0.0058625
2.6768e-02,0.00582188
2.6800e-02,0.00580625
2.6832e-02,0.00593438
2.6864e-02,0.0055875
2.6896e-02,0.00567188
2.6928e-02,0.00575313
2.6960e-02,0.00579375
2.6992e-02,0.0059875
2.7024e-02,0.0057
2.7056e-02,0.00545
2.7088e-02,0.00528125
2.7120e-02,0.00534375
2.7152e-02,0.00545313
2.7184e-02,0.00557813
2.7216e-02,0.00544063
2.7248e-02,0.00541875
2.7280e-02,0.00544063
2.7312e-02,0.00559063
2.7344e-02,0.0050375
2.7376e-02,0.00493438
2.7408e-02,0.0051375
2.7440e-02,0.00510313
2.7472e-02,0.00505625
2.7504e-02,0.00515
2.7536e-02,0.005475
2.7568e-02,0.00536563
2.7600e-02,0.00536563
2.7632e-02,0.00560938
2.7664e-02,0.00527813
2.7696e-02,0.00514688
2.7728e-02,0.00488125
2.7760e-02,0.004975
2.7792e-02,0.00482813
2.7824e-02,0.005
2.7856e-02,0.00492813
2.7888e-02,0.00515
2.7920e-02,0.00526563
2.7952e-02,0.00510625
2.7984e-02,0.00530313
2.8016e-02,0.00528125
2.8048e-02,0.00532188
2.8080e-02,0.00508125
2.8112e-02,0.00519688
2.8144e-02,0.00552813
2.8176e-02,0.00533125
2.8208e-02,0.00506563
2.8240e-02,0.00537813
2.8272e-02,0.00548125
2.8304e-02,0.00558438
2.8336e-02,0.00559375
2.8368e-02,0.00571563
2.8400e-02,0.00555938
2.8432e-02,0.0056875
2.8464e-02,0.00562188
2.8496e-02,0.00569688
2.8528e-02,0.00579375
2.8560e-02,0.00550625
2.8592e-02,0.00556875
2.8624e-02,0.00560938
2.8656e-02,0.00553438
2.8688e-02,0.005675
2.8720e-02,0.00576875
2.8752e-02,0.00564063
2.8784e-02,0.00554688
2.8816e-02,0.0053625
2.8848e-02,0.00523438
2.8880e-02,0.0053875
2.8912e-02,0.00565625
2.8944e-02,0.00572188
2.8976e-02,0.00583125
2.9008e-02,0.00583125
2.9040e-02,0.00581875
2.9072e-02,0.0058125
2.9104e-02,0.0057375
2.9136e-02,0.0058375
2.9168e-02,0.00615313
2.9200e-02,0.00624688
2.9232e-02,0.005975
2.9264e-02,0.00611875
2.9296e-02,0.00600625
2.9328e-02,0.00588438
2.9360e-02,0.00589375
2.9392e-02,0.00579063
2.9424e-02,0.00570938
2.9456e-02,0.00577188
2.9488e-02,0.00575
2.9520e-02,0.00535313
2.9552e-02,0.0054625
2.9584e-02,0.00545938
2.9616e-02,0.00542188
2.9648e-02,0.00537188
2.9680e-02,0.00512813
2.9712e-02,0.00504688
2.9744e-02,0.0047875
2.9776e-02,0.00500938
2.9808e-02,0.00508125
2.9840e-02,0.00524063
2.9872e-02,0.00505
2.9904e-02,0.00511875
2.9936e-02,0.0055625
2.9968e-02,0.00582813
3.0000e-02,0.00616875
3.0032e-02,0.0058625
3.0064e-02,0.00545
3.0096e-02,0.00529375
3.0128e-02,0.0050875
3.0160e-02,0.00499375
3.0192e-02,0.00514063
3.0224e-02,0.00526875
3.0256e-02,0.0050875
3.0288e-02,0.005075
3.0320e-02,0.00505938
3.0352e-02,0.00501875
3.0384e-02,0.00512813
3.0416e-02,0.00533125
3.0448e-02,0.005475
3.0480e-02,0.00547813
3.0512e-02,0.00574688
3.0544e-02,0.00615313
3.0576e-02,0.00593438
3.0608e-02,0.00589688
3.0640e-02,0.00577813
3.0672e-02,0.0059125
3.0704e-02,0.006025
3.0736e-02,0.00617813
3.0768e-02,0.00623438
3.0800e-02,0.006225
3.0832e-02,0.0061625
3.0864e-02,0.0062125
3.0896e-02,0.00622813
3.0928e-02,0.00656875
3.0960e-02,0.007225
3.0992e-02,0.00735938
3.1024e-02,0.00691875
3.1056e-02,0.00677188
3.1088e-02,0.00680625
3.1120e-02,0.006475
3.1152e-02,0.006575
3.1184e-02,0.00752188
3.1216e-02,0.00769063
3.1248e-02,0.00777188
3.1280e-02,0.00740625
3.1312e-02,0.00749688
3.1344e-02,0.00790938
3.1376e-02,0.00838438
3.1408e-02,0.00868438
3.1440e-02,0.00815
3.1472e-02,0.00795313
3.1504e-02,0.00748438
3.1536e-02,0.00728125
3.1568e-02,0.007775
3.1600e-02,0.00815938
3.1632e-02,0.008575
3.1664e-02,0.00948438
3.1696e-02,0.0099625
3.1728e-02,0.0101219
3.1760e-02,0.00979688
3.1792e-02,0.0102938
3.1824e-02,0.0106156
3.1856e-02,0.0111625
3.1888e-02,0.0118125
3.1920e-02,0.0128094
3.1952e-02,0.0127344
3.1984e-02,0.0131469
3.2016e-02,0.0140219
3.2048e-02,0.0155063
3.2080e-02,0.0155938
3.2112e-02,0.01595
3.2144e-02,0.0165313
3.2176e-02,0.0172844
3.2208e-02,0.0185563
3.2240e-02,0.0196281
3.2272e-02,0.0197563
3.2304e-02,0.0207719
3.2336e-02,0.0220313
3.2368e-02,0.0227844
3.2400e-02,0.0248406
3.2432e-02,0.0266563
3.2464e-02,0.0285344
3.2496e-02,0.029025
3.2528e-02,0.0294125
3.2560e-02,0.0310656
3.2592e-02,0.031925
3.2624e-02,0.0325656
3.2656e-02,0.0327906
3.2688e-02,0.03345
3.2720e-02,0.0340375
3.2752e-02,0.0345563
3.2784e-02,0.0358156
3.2816e-02,0.0374344
3.2848e-02,0.0386875
3.2880e-02,0.03925
3.2912e-02,0.0389188
3.2944e-02,0.0379031
3.2976e-02,0.0392063
3.3008e-02,0.0408781
3.3040e-02,0.0445031
3.3072e-02,0.0483344
3.3104e-02,0.0500313
3.3136e-02,0.0533219
3.3168e-02,0.0561156
3.3200e-02,0.0598531
3.3232e-02,0.0640438
3.3264e-02,0.0662656
3.3296e-02,0.068225
3.3328e-02,0.0706844
3.3360e-02,0.0741656
3.3392e-02,0.0785219
3.3424e-02,0.0822531
3.3456e-02,0.084875
3.3488e-02,0.0874125
3.3520e-02,0.0925937
3.3552e-02,0.0962687
3.3584e-02,0.0996969
3.3616e-02,0.101041
3.3648e-02,0.101756
3.3680e-02,0.103431
3.3712e-02,0.10425
3.3744e-02,0.106334
3.3776e-02,0.106562
3.3808e-02,0.107337
3.3840e-02,0.107737
3.3872e-02,0.104944
3.3904e-02,0.104669
3.3936e-02,0.103572
3.3968e-02,0.100694
3.4000e-02,0.0984531
3.4032e-02,0.0946187
3.4064e-02,0.0895406
3.4096e-02,0.0857156
3.4128e-02,0.0809469
3.4160e-02,0.0771344
3.4192e-02,0.0729688
3.4224e-02,0.0674375
3.4256e-02,0.0607094
3.4288e-02,0.0539969
3.4320e-02,0.0482563
3.4352e-02,0.042975
3.4384e-02,0.0372875
3.4416e-02,0.0327531
3.4448e-02,0.02945
3.4480e-02,0.0278219
3.4512e-02,0.0255688
3.4544e-02,0.0241688
3.4576e-02,0.0227563
3.4608e-02,0.0208438
3.4640e-02,0.0194313
3.4672e-02,0.0189281
3.4704e-02,0.0193531
3.4736e-02,0.0188469
3.4768e-02,0.0181656
3.4800e-02,0.0181625
3.4832e-02,0.01795
3.4864e-02,0.0180938
3.4896e-02,0.018225
3.4928e-02,0.0193531
3.4960e-02,0.0201625
3.4992e-02,0.0206094
3.5024e-02,0.0216563
3.5056e-02,0.022975
3.5088e-02,0.0227719
3.5120e-02,0.0232406
3.5152e-02,0.0229938
3.5184e-02,0.0236781
3.5216e-02,0.0240938
3.5248e-02,0.0249188
3.5280e-02,0.0253094
3.5312e-02,0.0267063
3.5344e-02,0.028275
3.5376e-02,0.0290094
3.5408e-02,0.0293594
3.5440e-02,0.0307
3.5472e-02,0.0315438
3.5504e-02,0.0331219
3.5536e-02,0.0347438
3.5568e-02,0.0358844
3.5600e-02,0.0362844
3.5632e-02,0.0376375
3.5664e-02,0.0394719
3.5696e-02,0.0414219
3.5728e-02,0.0425781
3.5760e-02,0.0436531
3.5792e-02,0.0465406
3.5824e-02,0.0484156
3.5856e-02,0.0495938
3.5888e-02,0.051925
3.5920e-02,0.0537688
3.5952e-02,0.0559125
3.5984e-02,0.0579844
3.6016e-02,0.0590625
3.6048e-02,0.0591375
3.6080e-02,0.059975
3.6112e-02,0.0607719
3.6144e-02,0.0616938
3.6176e-02,0.0605844
3.6208e-02,0.0613625
3.6240e-02,0.0593156
3.6272e-02,0.0562719
3.6304e-02,0.0539219
3.6336e-02,0.0540969
3.6368e-02,0.0524219
3.6400e-02,0.0482531
3.6432e-02,0.0451313
3.6464e-02,0.0433063
3.6496e-02,0.0406875
3.6528e-02,0.0377719
3.6560e-02,0.0349313
3.6592e-02,0.0330438
3.6624e-02,0.0307031
3.6656e-02,0.0285344
3.6688e-02,0.0259281
3.6720e-02,0.0238063
3.6752e-02,0.0217
3.6784e-02,0.0204219
3.6816e-02,0.0189344
3.6848e-02,0.0174406
3.6880e-02,0.0159313
3.6912e-02,0.0149219
3.6944e-02,0.0140813
3.6976e-02,0.0134844
3.7008e-02,0.0125813
3.7040e-02,0.0122969
3.7072e-02,0.0129656
3.7104e-02,0.0133594
3.7136e-02,0.0131469
3.7168e-02,0.0126969
3.7200e-02,0.0124625
3.7232e-02,0.0119406
3.7264e-02,0.0117469
3.7296e-02,0.0121844
3.7328e-02,0.0125969
3.7360e-02,0.0125469
3.7392e-02,0.013075
3.7424e-02,0.0134188
3.7456e-02,0.0133781
3.7488e-02,0.0142281
3.7520e-02,0.0140438
3.7552e-02,0.0142344
3.7584e-02,0.0146719
3.7616e-02,0.0145938
3.7648e-02,0.0146844
3.7680e-02,0.015175
3.7712e-02,0.0153813
3.7744e-02,0.0160469
3.7776e-02,0.0163469
3.7808e-02,0.0167
3.7840e-02,0.0175188
3.7872e-02,0.0175125
3.7904e-02,0.0173625
3.7936e-02,0.0181406
3.7968e-02,0.0184844
3.8000e-02,0.0191188
3.8032e-02,0.0195594
3.8064e-02,0.0202531
3.8096e-02,0.0199656
3.8128e-02,0.0203781
3.8160e-02,0.0212906
3.8192e-02,0.021825
3.8224e-02,0.0216
3.8256e-02,0.0213656
3.8288e-02,0.0210656
3.8320e-02,0.0211156
3.8352e-02,0.0221344
3.8384e-02,0.0220938
3.8416e-02,0.0224281
3.8448e-02,0.0227219
3.8480e-02,0.0221594
3.8512e-02,0.021375
3.8544e-02,0.0211656
3.8576e-02,0.0197656
3.8608e-02,0.0185656
3.8640e-02,0.0178531
3.8672e-02,0.0176563
3.8704e-02,0.0170969
3.8736e-02,0.0162844
3.8768e-02,0.0156656
3.8800e-02,0.0151781
3.8832e-02,0.0147313
3.8864e-02,0.0141938
3.8896e-02,0.0132563
3.8928e-02,0.0120875
3.8960e-02,0.0114469
3.8992e-02,0.010575
3.9024e-02,0.0100531
3.9056e-02,0.009975
3.9088e-02,0.00949063
3.9120e-02,0.00893125
3.9152e-02,0.00958125
3.9184e-02,0.00910938
3.9216e-02,0.00813438
3.9248e-02,0.00819688
3.9280e-02,0.00820938
3.9312e-02,0.00815313
3.9344e-02,0.00789063
3.9376e-02,0.00775
3.9408e-02,0.00789375
3.9440e-02,0.00759375
3.9472e-02,0.0076625
3.9504e-02,0.00767813
3.9536e-02,0.007975
3.9568e-02,0.0085375
3.9600e-02,0.008975
3.9632e-02,0.00852188
3.9664e-02,0.00844688
3.9696e-02,0.00933125
3.9728e-02,0.00985313
3.9760e-02,0.00999063
3.9792e-02,0.0102688
3.9824e-02,0.0103406
3.9856e-02,0.0105531
3.9888e-02,0.0106125
3.9920e-02,0.011
3.9952e-02,0.0116344
3.9984e-02,0.0115406
4.0016e-02,0.0116344
4.0048e-02,0.01175
4.0080e-02,0.0123
4.0112e-02,0.012525
4.0144e-02,0.0129563
4.0176e-02,0.0129813
4.0208e-02,0.0134094
4.0240e-02,0.0143938
4.0272e-02,0.0157531
4.0304e-02,0.0167781
4.0336e-02,0.0168313
4.0368e-02,0.0176313
4.0400e-02,0.0185969
4.0432e-02,0.0195063
4.0464e-02,0.0198531
4.0496e-02,0.0203844
4.0528e-02,0.02185
4.0560e-02,0.0220906
4.0592e-02,0.0221563
4.0624e-02,0.0230875
4.0656e-02,0.0234219
4.0688e-02,0.0235906
4.0720e-02,0.0251313
4.0752e-02,0.0251688
4.0784e-02,0.0261375
4.0816e-02,0.0256125
4.0848e-02,0.0265344
4.0880e-02,0.0266
4.0912e-02,0.02695
4.0944e-02,0.0262
4.0976e-02,0.0253313
4.1008e-02,0.0250031
4.1040e-02,0.0247063
4.1072e-02,0.0252813
4.1104e-02,0.0245844
4.1136e-02,0.0227063
4.1168e-02,0.0210844
4.1200e-02,0.0199344
4.1232e-02,0.0194625
4.1264e-02,0.0191406
4.1296e-02,0.0190406
4.1328e-02,0.0195281
4.1360e-02,0.0189563
4.1392e-02,0.0174813
4.1424e-02,0.0166906
4.1456e-02,0.0158906
4.1488e-02,0.0152344
4.1520e-02,0.0153813
4.1552e-02,0.0157813
4.1584e-02,0.0156
4.1616e-02,0.0160531
4.1648e-02,0.0162406
4.1680e-02,0.0161281
4.1712e-02,0.0164813
4.1744e-02,0.0163688
4.1776e-02,0.0167344
4.1808e-02,0.016375
4.1840e-02,0.0164125
4.1872e-02,0.0171188
4.1904e-02,0.0176375
4.1936e-02,0.0185531
4.1968e-02,0.0195781
4.2000e-02,0.019675
4.2032e-02,0.0199188
4.2064e-02,0.0210844
4.2096e-02,0.0220438
4.2128e-02,0.0227313
4.2160e-02,0.0235031
4.2192e-02,0.0231
4.2224e-02,0.0231219
4.2256e-02,0.0248219
4.2288e-02,0.0268094
4.2320e-02,0.0278844
4.2352e-02,0.0294563
4.2384e-02,0.0305844
4.2416e-02,0.0313594
4.2448e-02,0.0319188
4.2480e-02,0.0342031
4.2512e-02,0.0356813
4.2544e-02,0.0377906
4.2576e-02,0.0391938
4.2608e-02,0.0413656
4.2640e-02,0.04465
4.2672e-02,0.04615
4.2704e-02,0.0490688
4.2736e-02,0.0503
4.2768e-02,0.0508531
4.2800e-02,0.0514094
4.2832e-02,0.0523719
4.2864e-02,0.0528125
4.2896e-02,0.0553
4.2928e-02,0.0571031
4.2960e-02,0.0573438
4.2992e-02,0.0576031
4.3024e-02,0.0557188
4.3056e-02,0.0533406
4.3088e-02,0.0527969
4.3120e-02,0.0522781
4.3152e-02,0.0518594
4.3184e-02,0.0502063
4.3216e-02,0.0492969
4.3248e-02,0.0471219
4.3280e-02,0.0451969
