432Lab4/Yellow_B0.csv

Model,MSO2024
Firmware Version,1.52

Point Format,Y
Horizontal Units,S
Horizontal Scale,0.01
Sample Interval,3.2e-05
Filter Frequency,2e+08
Record Length,3125
Gating,0.0% to 100.0%
Probe Attenuation,1
Vertical Units,V
Vertical Offset,0
Vertical Scale,0.05
Label,
TIME,CH1
1.3200e-02,0.0471484
1.3232e-02,0.0495
1.3264e-02,0.052125
1.3296e-02,0.0543672
1.3328e-02,0.0515469
1.3360e-02,0.053125
1.3392e-02,0.0554141
1.3424e-02,0.0550781
1.3456e-02,0.0549609
1.3488e-02,0.0529062
1.3520e-02,0.0514375
1.3552e-02,0.0514922
1.3584e-02,0.0514453
1.3616e-02,0.0488281
1.3648e-02,0.0497656
1.3680e-02,0.0518594
1.3712e-02,0.0519453
1.3744e-02,0.0495781
1.3776e-02,0.0475625
1.3808e-02,0.0478203
1.3840e-02,0.0460234
1.3872e-02,0.0462031
1.3904e-02,0.0477891
1.3936e-02,0.0452578
1.3968e-02,0.0467656
1.4000e-02,0.0463359
1.4032e-02,0.0462891
1.4064e-02,0.0472109
1.4096e-02,0.0447266
1.4128e-02,0.0432266
1.4160e-02,0.0463047
1.4192e-02,0.0479219
1.4224e-02,0.0472969
1.4256e-02,0.0494219
1.4288e-02,0.0492578
1.4320e-02,0.0487969
1.4352e-02,0.0479297
1.4384e-02,0.0463359
1.4416e-02,0.0447734
1.4448e-02,0.0426719
1.4480e-02,0.0441719
1.4512e-02,0.0445937
1.4544e-02,0.0450078
1.4576e-02,0.0445703
1.4608e-02,0.0438437
1.4640e-02,0.0459687
1.4672e-02,0.0457656
1.4704e-02,0.0467266
1.4736e-02,0.0468437
1.4768e-02,0.0468281
1.4800e-02,0.0470391
1.4832e-02,0.0448516
1.4864e-02,0.0429844
1.4896e-02,0.0426641
1.4928e-02,0.0407109
1.4960e-02,0.0427031
1.4992e-02,0.0451094
1.5024e-02,0.0452812
1.5056e-02,0.0438125
1.5088e-02,0.0450547
1.5120e-02,0.0462812
1.5152e-02,0.0451172
1.5184e-02,0.0442891
1.5216e-02,0.0421797
1.5248e-02,0.0415
1.5280e-02,0.0428047
1.5312e-02,0.0428047
1.5344e-02,0.0433437
1.5376e-02,0.0451875
1.5408e-02,0.0437109
1.5440e-02,0.0426484
1.5472e-02,0.0415859
1.5504e-02,0.0427344
1.5536e-02,0.0417812
1.5568e-02,0.0414766
1.5600e-02,0.0413984
1.5632e-02,0.0407422
1.5664e-02,0.0387187
1.5696e-02,0.0386172
1.5728e-02,0.0393516
1.5760e-02,0.0409922
1.5792e-02,0.0421328
1.5824e-02,0.0419531
1.5856e-02,0.0420547
1.5888e-02,0.0420547
1.5920e-02,0.0432109
1.5952e-02,0.0463516
1.5984e-02,0.0446719
1.6016e-02,0.0430703
1.6048e-02,0.0438828
1.6080e-02,0.0461797
1.6112e-02,0.0455781
1.6144e-02,0.0444453
1.6176e-02,0.0436016
1.6208e-02,0.0421172
1.6240e-02,0.0428125
1.6272e-02,0.0434141
1.6304e-02,0.0428437
1.6336e-02,0.0412734
1.6368e-02,0.0404297
1.6400e-02,0.0400469
1.6432e-02,0.0417578
1.6464e-02,0.0431484
1.6496e-02,0.0430156
1.6528e-02,0.0427266
1.6560e-02,0.0430703
1.6592e-02,0.041625
1.6624e-02,0.0421797
1.6656e-02,0.0439531
1.6688e-02,0.0451406
1.6720e-02,0.0441484
1.6752e-02,0.0439844
1.6784e-02,0.0475234
1.6816e-02,0.0477656
1.6848e-02,0.0474687
1.6880e-02,0.0475859
1.6912e-02,0.0475703
1.6944e-02,0.0451484
1.6976e-02,0.0440781
1.7008e-02,0.0468516
1.7040e-02,0.0469141
1.7072e-02,0.0443047
1.7104e-02,0.0426484
1.7136e-02,0.040375
1.7168e-02,0.0410781
1.7200e-02,0.0410625
1.7232e-02,0.0414844
1.7264e-02,0.0424922
1.7296e-02,0.0439453
1.7328e-02,0.0437891
1.7360e-02,0.0424922
1.7392e-02,0.0430625
1.7424e-02,0.0430391
1.7456e-02,0.0428516
1.7488e-02,0.0439062
1.7520e-02,0.0439062
1.7552e-02,0.0434766
1.7584e-02,0.0414141
1.7616e-02,0.0404141
1.7648e-02,0.0437266
1.7680e-02,0.0472969
1.7712e-02,0.0460469
1.7744e-02,0.0440937
1.7776e-02,0.0413281
1.7808e-02,0.0427109
1.7840e-02,0.0408594
1.7872e-02,0.0426719
1.7904e-02,0.0415625
1.7936e-02,0.0417422
1.7968e-02,0.0391406
1.8000e-02,0.0421797
1.8032e-02,0.0412578
1.8064e-02,0.0429922
1.8096e-02,0.0434531
1.8128e-02,0.0456953
1.8160e-02,0.0451094
1.8192e-02,0.0433594
1.8224e-02,0.0430937
1.8256e-02,0.0424375
1.8288e-02,0.0415937
1.8320e-02,0.0415781
1.8352e-02,0.0425469
1.8384e-02,0.0437031
1.8416e-02,0.04575
1.8448e-02,0.0450937
1.8480e-02,0.0449141
1.8512e-02,0.04375
1.8544e-02,0.0423828
1.8576e-02,0.0454297
1.8608e-02,0.0467578
1.8640e-02,0.0478203
1.8672e-02,0.0472344
1.8704e-02,0.0449297
1.8736e-02,0.0429687
1.8768e-02,0.0419219
1.8800e-02,0.0429531
1.8832e-02,0.0444141
1.8864e-02,0.0438281
1.8896e-02,0.0426953
1.8928e-02,0.0418437
1.8960e-02,0.0414297
1.8992e-02,0.0429844
1.9024e-02,0.0440781
1.9056e-02,0.043875
1.9088e-02,0.0435391
1.9120e-02,0.0415703
1.9152e-02,0.0410156
1.9184e-02,0.0396797
1.9216e-02,0.0387812
1.9248e-02,0.0381641
1.9280e-02,0.0402969
1.9312e-02,0.0418516
1.9344e-02,0.0403828
1.9376e-02,0.0414297
1.9408e-02,0.0464375
1.9440e-02,0.0478594
1.9472e-02,0.0485547
1.9504e-02,0.0463047
1.9536e-02,0.0444375
1.9568e-02,0.0428047
1.9600e-02,0.0452109
1.9632e-02,0.0461641
1.9664e-02,0.0475391
1.9696e-02,0.0481094
1.9728e-02,0.0458047
1.9760e-02,0.0445391
1.9792e-02,0.0463828
1.9824e-02,0.0488203
1.9856e-02,0.0488125
1.9888e-02,0.0471875
1.9920e-02,0.0497969
1.9952e-02,0.0506562
1.9984e-02,0.0529062
2.0016e-02,0.0517187
2.0048e-02,0.0491016
2.0080e-02,0.0490859
2.0112e-02,0.0500312
2.0144e-02,0.0497578
2.0176e-02,0.0500937
2.0208e-02,0.0514922
2.0240e-02,0.0526094
2.0272e-02,0.0571016
2.0304e-02,0.0587187
2.0336e-02,0.0581641
2.0368e-02,0.0584922
2.0400e-02,0.0593984
2.0432e-02,0.0607422
2.0464e-02,0.0603516
2.0496e-02,0.0585859
2.0528e-02,0.0607812
2.0560e-02,0.0631016
2.0592e-02,0.0638594
2.0624e-02,0.0668359
2.0656e-02,0.0690781
2.0688e-02,0.0693672
2.0720e-02,0.0716328
2.0752e-02,0.0710078
2.0784e-02,0.0691797
2.0816e-02,0.0691172
2.0848e-02,0.0714922
2.0880e-02,0.0720859
2.0912e-02,0.0762344
2.0944e-02,0.0777266
2.0976e-02,0.0781719
2.1008e-02,0.0798047
2.1040e-02,0.0861172
2.1072e-02,0.093375
2.1104e-02,0.0950703
2.1136e-02,0.0983281
2.1168e-02,0.101562
2.1200e-02,0.10607
2.1232e-02,0.10825
2.1264e-02,0.116078
2.1296e-02,0.115953
2.1328e-02,0.119766
2.1360e-02,0.123812
2.1392e-02,0.127359
2.1424e-02,0.130609
2.1456e-02,0.130203
2.1488e-02,0.137336
2.1520e-02,0.142508
2.1552e-02,0.143359
2.1584e-02,0.153219
2.1616e-02,0.163117
2.1648e-02,0.163609
2.1680e-02,0.161891
2.1712e-02,0.169289
2.1744e-02,0.176242
2.1776e-02,0.179266
2.1808e-02,0.183578
2.1840e-02,0.188203
2.1872e-02,0.195977
2.1904e-02,0.199289
2.1936e-02,0.208805
2.1968e-02,0.207508
2.2000e-02,0.200641
2.2032e-02,0.202055
2.2064e-02,0.214602
2.2096e-02,0.22293
2.2128e-02,0.230258
2.2160e-02,0.232773
2.2192e-02,0.234359
2.2224e-02,0.230563
2.2256e-02,0.232688
2.2288e-02,0.238242
2.2320e-02,0.252969
2.2352e-02,0.265125
2.2384e-02,0.269
2.2416e-02,0.27693
2.2448e-02,0.28782
2.2480e-02,0.294391
2.2512e-02,0.307672
2.2544e-02,0.313883
2.2576e-02,0.316445
2.2608e-02,0.326977
2.2640e-02,0.331477
2.2672e-02,0.341094
2.2704e-02,0.342422
2.2736e-02,0.346281
2.2768e-02,0.34875
2.2800e-02,0.348891
2.2832e-02,0.353438
2.2864e-02,0.357031
2.2896e-02,0.355211
2.2928e-02,0.358188
2.2960e-02,0.358016
2.2992e-02,0.353641
2.3024e-02,0.350445
2.3056e-02,0.346945
2.3088e-02,0.34307
2.3120e-02,0.332922
2.3152e-02,0.327352
2.3184e-02,0.317766
2.3216e-02,0.308758
2.3248e-02,0.291094
2.3280e-02,0.275203
2.3312e-02,0.261859
2.3344e-02,0.239703
2.3376e-02,0.218164
2.3408e-02,0.206008
2.3440e-02,0.191766
2.3472e-02,0.175828
2.3504e-02,0.162164
2.3536e-02,0.157102
2.3568e-02,0.150383
2.3600e-02,0.143359
2.3632e-02,0.132211
2.3664e-02,0.130836
2.3696e-02,0.127289
2.3728e-02,0.126094
2.3760e-02,0.12032
2.3792e-02,0.119297
2.3824e-02,0.114734
2.3856e-02,0.117805
2.3888e-02,0.116664
2.3920e-02,0.113062
2.3952e-02,0.111055
2.3984e-02,0.110016
2.4016e-02,0.111359
2.4048e-02,0.112047
2.4080e-02,0.105695
2.4112e-02,0.102023
2.4144e-02,0.102227
2.4176e-02,0.105047
2.4208e-02,0.106797
2.4240e-02,0.106602
2.4272e-02,0.106281
2.4304e-02,0.104172
2.4336e-02,0.100742
2.4368e-02,0.0975469
2.4400e-02,0.092625
2.4432e-02,0.0906016
2.4464e-02,0.0845625
2.4496e-02,0.0788828
2.4528e-02,0.0750937
2.4560e-02,0.0715234
2.4592e-02,0.0719141
2.4624e-02,0.0675703
2.4656e-02,0.0670625
2.4688e-02,0.0624531
2.4720e-02,0.0605312
2.4752e-02,0.0617812
2.4784e-02,0.0606484
2.4816e-02,0.0603516
2.4848e-02,0.0574375
2.4880e-02,0.0555234
2.4912e-02,0.0532656
2.4944e-02,0.0528047
2.4976e-02,0.0522109
2.5008e-02,0.0522812
2.5040e-02,0.0496562
2.5072e-02,0.0515469
2.5104e-02,0.0529219
2.5136e-02,0.0544141
2.5168e-02,0.0531719
2.5200e-02,0.0545703
2.5232e-02,0.0535703
2.5264e-02,0.0527891
2.5296e-02,0.0544531
2.5328e-02,0.0537344
2.5360e-02,0.0527969
2.5392e-02,0.0515547
2.5424e-02,0.0490156
2.5456e-02,0.0472891
2.5488e-02,0.0495859
2.5520e-02,0.0489609
2.5552e-02,0.0497187
2.5584e-02,0.0543125
2.5616e-02,0.0564219
2.5648e-02,0.0567031
2.5680e-02,0.0561562
2.5712e-02,0.0543125
2.5744e-02,0.0531875
2.5776e-02,0.0531953
2.5808e-02,0.0523203
2.5840e-02,0.0525547
2.5872e-02,0.0531641
2.5904e-02,0.0526484
2.5936e-02,0.0521875
2.5968e-02,0.0498203
2.6000e-02,0.0485156
2.6032e-02,0.0485859
2.6064e-02,0.0514219
2.6096e-02,0.0491875
2.6128e-02,0.0475859
2.6160e-02,0.0458672
2.6192e-02,0.0466797
2.6224e-02,0.0485859
2.6256e-02,0.0492734
2.6288e-02,0.0508984
2.6320e-02,0.0500469
2.6352e-02,0.0505391
2.6384e-02,0.0473828
2.6416e-02,0.0468047
2.6448e-02,0.0487109
2.6480e-02,0.0491406
2.6512e-02,0.0502422
2.6544e-02,0.0502891
2.6576e-02,0.0509219
2.6608e-02,0.0502344
2.6640e-02,0.0484141
2.6672e-02,0.0506094
2.6704e-02,0.0520625
2.6736e-02,0.0558125
2.6768e-02,0.0555469
2.6800e-02,0.0537578
2.6832e-02,0.0511016
2.6864e-02,0.0521719
2.6896e-02,0.0504687
2.6928e-02,0.0509375
2.6960e-02,0.0511875
2.6992e-02,0.0512812
2.7024e-02,0.0514844
2.7056e-02,0.0519219
2.7088e-02,0.0504453
2.7120e-02,0.0506953
2.7152e-02,0.0521641
2.7184e-02,0.0530469
2.7216e-02,0.0555234
2.7248e-02,0.0582187
2.7280e-02,0.0576406
2.7312e-02,0.0597422
2.7344e-02,0.0594922
2.7376e-02,0.0644062
2.7408e-02,0.0641953
2.7440e-02,0.0631094
2.7472e-02,0.0654844
2.7504e-02,0.0678984
2.7536e-02,0.0666562
2.7568e-02,0.0681484
2.7600e-02,0.0690703
2.7632e-02,0.0667344
2.7664e-02,0.0665469
2.7696e-02,0.0667266
2.7728e-02,0.0708203
2.7760e-02,0.0695156
2.7792e-02,0.0672031
2.7824e-02,0.0684844
2.7856e-02,0.0663516
2.7888e-02,0.0645625
2.7920e-02,0.0641406
2.7952e-02,0.0658359
2.7984e-02,0.0672656
2.8016e-02,0.0652812
2.8048e-02,0.0677187
2.8080e-02,0.0674531
2.8112e-02,0.065625
2.8144e-02,0.0633828
2.8176e-02,0.0591016
2.8208e-02,0.0582734
2.8240e-02,0.0557891
2.8272e-02,0.0534375
2.8304e-02,0.0517266
2.8336e-02,0.0537734
2.8368e-02,0.0546328
2.8400e-02,0.0526328
2.8432e-02,0.0512734
2.8464e-02,0.0510391
2.8496e-02,0.0525781
2.8528e-02,0.0511797
2.8560e-02,0.0525234
2.8592e-02,0.0509141
2.8624e-02,0.0488125
2.8656e-02,0.0508516
2.8688e-02,0.0515859
2.8720e-02,0.0517578
2.8752e-02,0.0508047
2.8784e-02,0.0498125
2.8816e-02,0.0492031
2.8848e-02,0.0499453
2.8880e-02,0.0516797
2.8912e-02,0.0558906
2.8944e-02,0.05725
2.8976e-02,0.0575391
2.9008e-02,0.0545781
2.9040e-02,0.0535
2.9072e-02,0.0538281
2.9104e-02,0.0520547
2.9136e-02,0.0528516
2.9168e-02,0.0550625
2.9200e-02,0.0570469
2.9232e-02,0.0594687
2.9264e-02,0.0577969
2.9296e-02,0.0603125
2.9328e-02,0.0632187
2.9360e-02,0.0615781
2.9392e-02,0.0605469
2.9424e-02,0.0613906
2.9456e-02,0.0623906
2.9488e-02,0.0607109
2.9520e-02,0.0616875
2.9552e-02,0.0606172
2.9584e-02,0.0619922
2.9616e-02,0.0638047
2.9648e-02,0.0641562
2.9680e-02,0.0652969
2.9712e-02,0.0643516
2.9744e-02,0.0686641
2.9776e-02,0.0687969
2.9808e-02,0.0680547
2.9840e-02,0.068875
2.9872e-02,0.0700859
2.9904e-02,0.0720859
2.9936e-02,0.0717656
2.9968e-02,0.0705312
3.0000e-02,0.0690859
3.0032e-02,0.067375
3.0064e-02,0.0664453
3.0096e-02,0.0661719
3.0128e-02,0.0643594
3.0160e-02,0.0627266
3.0192e-02,0.0611484
3.0224e-02,0.0609766
3.0256e-02,0.0619219
3.0288e-02,0.0649844
3.0320e-02,0.0642344
3.0352e-02,0.0598125
3.0384e-02,0.0561094
3.0416e-02,0.0537969
3.0448e-02,0.0517187
3.0480e-02,0.0508437
3.0512e-02,0.0493281
3.0544e-02,0.0483281
3.0576e-02,0.0479141
3.0608e-02,0.0466406
3.0640e-02,0.0458516
3.0672e-02,0.0450703
3.0704e-02,0.0471797
3.0736e-02,0.0476484
3.0768e-02,0.0468359
3.0800e-02,0.0475625
3.0832e-02,0.0470469
3.0864e-02,0.0454687
3.0896e-02,0.0464297
3.0928e-02,0.0491797
3.0960e-02,0.052125
3.0992e-02,0.0524062
3.1024e-02,0.0519766
3.1056e-02,0.0500859
3.1088e-02,0.0525625
3.1120e-02,0.0517266
3.1152e-02,0.0535859
3.1184e-02,0.0536797
3.1216e-02,0.0517109
3.1248e-02,0.0505234
3.1280e-02,0.0500391
3.1312e-02,0.0507656
3.1344e-02,0.0533047
3.1376e-02,0.0546016
3.1408e-02,0.0546797
3.1440e-02,0.0539531
3.1472e-02,0.0558906
3.1504e-02,0.0594609
3.1536e-02,0.059
3.1568e-02,0.0603281
3.1600e-02,0.0635781
3.1632e-02,0.064625
3.1664e-02,0.0700391
3.1696e-02,0.0738203
3.1728e-02,0.0760234
3.1760e-02,0.08025
3.1792e-02,0.0845703
3.1824e-02,0.0866562
3.1856e-02,0.0901328
3.1888e-02,0.0969609
3.1920e-02,0.102187
3.1952e-02,0.102664
3.1984e-02,0.100742
3.2016e-02,0.102969
3.2048e-02,0.108586
3.2080e-02,0.119086
3.2112e-02,0.124687
3.2144e-02,0.126242
3.2176e-02,0.123984
3.2208e-02,0.131109
3.2240e-02,0.139141
3.2272e-02,0.143398
3.2304e-02,0.156234
3.2336e-02,0.165789
3.2368e-02,0.170055
3.2400e-02,0.176992
3.2432e-02,0.194
3.2464e-02,0.206695
3.2496e-02,0.214516
3.2528e-02,0.22232
3.2560e-02,0.225242
3.2592e-02,0.232891
3.2624e-02,0.250125
3.2656e-02,0.266258
3.2688e-02,0.270445
3.2720e-02,0.273711
3.2752e-02,0.283453
3.2784e-02,0.288141
3.2816e-02,0.29682
3.2848e-02,0.305539
3.2880e-02,0.311578
3.2912e-02,0.321344
3.2944e-02,0.331406
3.2976e-02,0.335477
3.3008e-02,0.335859
3.3040e-02,0.336555
3.3072e-02,0.339617
3.3104e-02,0.346656
3.3136e-02,0.343609
3.3168e-02,0.334891
3.3200e-02,0.331211
3.3232e-02,0.32357
3.3264e-02,0.320891
3.3296e-02,0.314648
3.3328e-02,0.304297
3.3360e-02,0.291281
3.3392e-02,0.280461
3.3424e-02,0.2715
3.3456e-02,0.255344
3.3488e-02,0.239195
3.3520e-02,0.220273
3.3552e-02,0.198023
3.3584e-02,0.175633
3.3616e-02,0.15818
3.3648e-02,0.147562
3.3680e-02,0.135461
3.3712e-02,0.124016
3.3744e-02,0.110578
3.3776e-02,0.101375
3.3808e-02,0.0916562
3.3840e-02,0.0844297
3.3872e-02,0.0804922
3.3904e-02,0.0746953
3.3936e-02,0.0708516
3.3968e-02,0.0679062
3.4000e-02,0.0654141
3.4032e-02,0.0647734
3.4064e-02,0.0615312
3.4096e-02,0.0608047
3.4128e-02,0.0579219
3.4160e-02,0.0557266
3.4192e-02,0.057875
3.4224e-02,0.0555234
3.4256e-02,0.0531797
3.4288e-02,0.0543359
3.4320e-02,0.0577344
3.4352e-02,0.0570156
3.4384e-02,0.0574687
3.4416e-02,0.0573516
3.4448e-02,0.0572734
3.4480e-02,0.0576641
3.4512e-02,0.0582734
3.4544e-02,0.0590703
3.4576e-02,0.0580625
3.4608e-02,0.0580156
3.4640e-02,0.0585703
3.4672e-02,0.0604766
3.4704e-02,0.0605312
3.4736e-02,0.0604687
3.4768e-02,0.062375
3.4800e-02,0.0626719
3.4832e-02,0.0646094
3.4864e-02,0.0640469
3.4896e-02,0.0645234
3.4928e-02,0.06325
3.4960e-02,0.0633203
3.4992e-02,0.0636562
3.5024e-02,0.0639766
3.5056e-02,0.0648359
3.5088e-02,0.0666953
3.5120e-02,0.0685469
3.5152e-02,0.0713125
3.5184e-02,0.0727031
3.5216e-02,0.0753203
3.5248e-02,0.0785312
3.5280e-02,0.0804687
3.5312e-02,0.0779609
3.5344e-02,0.0758516
3.5376e-02,0.0791172
3.5408e-02,0.0831875
3.5440e-02,0.0872031
3.5472e-02,0.091125
3.5504e-02,0.0949922
3.5536e-02,0.0950625
3.5568e-02,0.0964844
3.5600e-02,0.102547
3.5632e-02,0.107711
3.5664e-02,0.107594
3.5696e-02,0.105383
3.5728e-02,0.106844
3.5760e-02,0.108484
3.5792e-02,0.106453
3.5824e-02,0.104234
3.5856e-02,0.102023
3.5888e-02,0.100594
3.5920e-02,0.100203
3.5952e-02,0.0994531
3.5984e-02,0.0969844
3.6016e-02,0.0925312
3.6048e-02,0.0926953
3.6080e-02,0.0910625
3.6112e-02,0.086875
3.6144e-02,0.0823828
3.6176e-02,0.0766641
3.6208e-02,0.0734453
3.6240e-02,0.071
3.6272e-02,0.0670937
3.6304e-02,0.0632031
3.6336e-02,0.0607578
3.6368e-02,0.0574141
3.6400e-02,0.0552734
3.6432e-02,0.0527109
3.6464e-02,0.0489297
3.6496e-02,0.049875
3.6528e-02,0.0490937
3.6560e-02,0.0497187
3.6592e-02,0.0519687
3.6624e-02,0.0518437
3.6656e-02,0.0491328
3.6688e-02,0.0494609
3.6720e-02,0.0488672
3.6752e-02,0.0462031
3.6784e-02,0.0469766
3.6816e-02,0.0472969
3.6848e-02,0.0496016
3.6880e-02,0.0516797
3.6912e-02,0.0511094
3.6944e-02,0.0506016
3.6976e-02,0.0491094
3.7008e-02,0.0466016
3.7040e-02,0.048375
3.7072e-02,0.0488437
3.7104e-02,0.0504453
3.7136e-02,0.0501484
3.7168e-02,0.0511406
3.7200e-02,0.0503359
3.7232e-02,0.0513125
3.7264e-02,0.0504687
3.7296e-02,0.052125
3.7328e-02,0.0527656
3.7360e-02,0.0540937
3.7392e-02,0.0550078
3.7424e-02,0.0546953
3.7456e-02,0.0526562
3.7488e-02,0.0506094
3.7520e-02,0.0508437
3.7552e-02,0.0518047
3.7584e-02,0.0510547
3.7616e-02,0.0498594
3.7648e-02,0.0496641
3.7680e-02,0.0482266
3.7712e-02,0.0502656
3.7744e-02,0.0527578
3.7776e-02,0.0530156
3.7808e-02,0.0516484
3.7840e-02,0.0480547
3.7872e-02,0.0476719
3.7904e-02,0.0467969
3.7936e-02,0.0456406
3.7968e-02,0.0450078
3.8000e-02,0.0450156
3.8032e-02,0.0446328
3.8064e-02,0.0456875
3.8096e-02,0.0458984
3.8128e-02,0.0452969
3.8160e-02,0.0455547
3.8192e-02,0.0480859
3.8224e-02,0.0485703
3.8256e-02,0.0455781
3.8288e-02,0.0452109
3.8320e-02,0.0435937
3.8352e-02,0.0463672
3.8384e-02,0.0452266
3.8416e-02,0.0443672
3.8448e-02,0.0472266
3.8480e-02,0.0472266
3.8512e-02,0.0475234
3.8544e-02,0.0450078
3.8576e-02,0.0457109
3.8608e-02,0.0468125
3.8640e-02,0.0473594
3.8672e-02,0.0450625
3.8704e-02,0.0428984
3.8736e-02,0.0431328
3.8768e-02,0.043125
3.8800e-02,0.0417344
3.8832e-02,0.0433281
3.8864e-02,0.0461328
3.8896e-02,0.0447656
3.8928e-02,0.0412734
3.8960e-02,0.0412734
3.8992e-02,0.0408516
3.9024e-02,0.0392656
3.9056e-02,0.0380547
3.9088e-02,0.0394609
3.9120e-02,0.0416719
3.9152e-02,0.0414609
3.9184e-02,0.0406328
3.9216e-02,0.0406172
3.9248e-02,0.0441719
3.9280e-02,0.0460391
3.9312e-02,0.0451484
3.9344e-02,0.0425078
3.9376e-02,0.0408437
3.9408e-02,0.0409141
3.9440e-02,0.0420156
3.9472e-02,0.0441797
3.9504e-02,0.0453281
3.9536e-02,0.0452109
3.9568e-02,0.0444219
3.9600e-02,0.0456484
3.9632e-02,0.0448359
3.9664e-02,0.0448281
3.9696e-02,0.0446406
3.9728e-02,0.0439609
3.9760e-02,0.0436797
3.9792e-02,0.04325
3.9824e-02,0.0421094
3.9856e-02,0.0422656
3.9888e-02,0.0430703
3.9920e-02,0.0440781
3.9952e-02,0.0453437
3.9984e-02,0.0462812
4.0016e-02,0.0454687
4.0048e-02,0.0461562
4.0080e-02,0.0464297
4.0112e-02,0.0457031
4.0144e-02,0.0448906
4.0176e-02,0.0434375
4.0208e-02,0.0434062
4.0240e-02,0.0415625
4.0272e-02,0.0395781
4.0304e-02,0.0418359
4.0336e-02,0.0425078
4.0368e-02,0.0429766
4.0400e-02,0.0414609
4.0432e-02,0.0415547
4.0464e-02,0.0417344
4.0496e-02,0.0422812
4.0528e-02,0.0439922
4.0560e-02,0.0485547
4.0592e-02,0.0467812
4.0624e-02,0.0461719
4.0656e-02,0.0439766
4.0688e-02,0.0425937
4.0720e-02,0.0431562
4.0752e-02,0.0437187
4.0784e-02,0.0441562
4.0816e-02,0.0439141
4.0848e-02,0.0442969
4.0880e-02,0.0423984
4.0912e-02,0.0431641
4.0944e-02,0.0434375
4.0976e-02,0.0427734
4.1008e-02,0.0431562
4.1040e-02,0.0421172
4.1072e-02,0.040125
4.1104e-02,0.0400156
4.1136e-02,0.0395547
4.1168e-02,0.0422812
4.1200e-02,0.0426016
4.1232e-02,0.0425391
4.1264e-02,0.0434062
4.1296e-02,0.0423906
4.1328e-02,0.0431562
4.1360e-02,0.0422187
4.1392e-02,0.0409453
4.1424e-02,0.0391562
4.1456e-02,0.0381484
4.1488e-02,0.0376094
4.1520e-02,0.0388984
4.1552e-02,0.0388047
4.1584e-02,0.0371641
4.1616e-02,0.0391094
4.1648e-02,0.0416562
4.1680e-02,0.0444531
4.1712e-02,0.0440156
4.1744e-02,0.04425
4.1776e-02,0.0455625
4.1808e-02,0.0454375
4.1840e-02,0.0440625
4.1872e-02,0.0425
4.1904e-02,0.0435625
4.1936e-02,0.04125
4.1968e-02,0.0410625
4.2000e-02,0.0421953
4.2032e-02,0.0443203
4.2064e-02,0.0445625
4.2096e-02,0.0446016
4.2128e-02,0.0440234
4.2160e-02,0.0453437
4.2192e-02,0.0427422
4.2224e-02,0.0428437
4.2256e-02,0.0424687
4.2288e-02,0.0422031
4.2320e-02,0.0429375
4.2352e-02,0.0429844
4.2384e-02,0.0441328
4.2416e-02,0.0420156
4.2448e-02,0.0427734
4.2480e-02,0.0462891
4.2512e-02,0.0490625
4.2544e-02,0.0499687
4.2576e-02,0.0499375
4.2608e-02,0.0496406
4.2640e-02,0.0489531
4.2672e-02,0.0500937
4.2704e-02,0.0509531
4.2736e-02,0.050875
4.2768e-02,0.0498672
4.2800e-02,0.0495859
4.2832e-02,0.0481484
4.2864e-02,0.0487656
4.2896e-02,0.0528437
4.2928e-02,0.0568281
4.2960e-02,0.0600234
4.2992e-02,0.0582031
4.3024e-02,0.0546641
4.3056e-02,0.0533828
4.3088e-02,0.0584766
4.3120e-02,0.0636172
4.3152e-02,0.0671016
4.3184e-02,0.0647266
4.3216e-02,0.0639844
4.3248e-02,0.0700859
4.3280e-02,0.0731562
4.3312e-02,0.0729453
4.3344e-02,0.0750625
4.3376e-02,0.0754609
4.3408e-02,0.0783672
4.3440e-02,0.0809062
4.3472e-02,0.084625
4.3504e-02,0.0876875
4.3536e-02,0.0909297
4.3568e-02,0.0890234
4.3600e-02,0.0881562
