432Lab4/Yellow_182A_pi.csv

Model,MSO2024
Firmware Version,1.52

Point Format,Y
Horizontal Units,S
Horizontal Scale,0.01
Sample Interval,3.2e-05
Filter Frequency,2e+08
Record Length,3125
Gating,0.0% to 100.0%
Probe Attenuation,1
Vertical Units,V
Vertical Offset,0
Vertical Scale,0.02
Label,
TIME,CH1
1.3200e-02,0.0282
1.3232e-02,0.0281656
1.3264e-02,0.0285781
1.3296e-02,0.0278062
1.3328e-02,0.02765
1.3360e-02,0.0275406
1.3392e-02,0.0278781
1.3424e-02,0.0281687
1.3456e-02,0.0283344
1.3488e-02,0.0299844
1.3520e-02,0.0297687
1.3552e-02,0.0290219
1.3584e-02,0.0282219
1.3616e-02,0.0286406
1.3648e-02,0.0282812
1.3680e-02,0.0286937
1.3712e-02,0.0288031
1.3744e-02,0.0289062
1.3776e-02,0.0290094
1.3808e-02,0.0291594
1.3840e-02,0.0293531
1.3872e-02,0.029525
1.3904e-02,0.0307469
1.3936e-02,0.0299594
1.3968e-02,0.0292781
1.4000e-02,0.0287844
1.4032e-02,0.028225
1.4064e-02,0.0279344
1.4096e-02,0.0280625
1.4128e-02,0.0279625
1.4160e-02,0.0280437
1.4192e-02,0.0289844
1.4224e-02,0.0295719
1.4256e-02,0.0295375
1.4288e-02,0.0303594
1.4320e-02,0.0308031
1.4352e-02,0.0312594
1.4384e-02,0.0311375
1.4416e-02,0.0300875
1.4448e-02,0.029875
1.4480e-02,0.0291812
1.4512e-02,0.0295344
1.4544e-02,0.0301812
1.4576e-02,0.0315125
1.4608e-02,0.0308781
1.4640e-02,0.0308625
1.4672e-02,0.0322
1.4704e-02,0.0318562
1.4736e-02,0.0316687
1.4768e-02,0.0310687
1.4800e-02,0.0307656
1.4832e-02,0.0306344
1.4864e-02,0.030375
1.4896e-02,0.0296187
1.4928e-02,0.029275
1.4960e-02,0.0294094
1.4992e-02,0.0308812
1.5024e-02,0.0303375
1.5056e-02,0.0296031
1.5088e-02,0.0291781
1.5120e-02,0.0303
1.5152e-02,0.0304281
1.5184e-02,0.0306562
1.5216e-02,0.0304344
1.5248e-02,0.0294375
1.5280e-02,0.0294969
1.5312e-02,0.0298219
1.5344e-02,0.0295969
1.5376e-02,0.0297437
1.5408e-02,0.0292094
1.5440e-02,0.0290406
1.5472e-02,0.0299031
1.5504e-02,0.0302906
1.5536e-02,0.0312281
1.5568e-02,0.0307844
1.5600e-02,0.0311937
1.5632e-02,0.0302187
1.5664e-02,0.029675
1.5696e-02,0.0298531
1.5728e-02,0.0293219
1.5760e-02,0.0290375
1.5792e-02,0.029225
1.5824e-02,0.02915
1.5856e-02,0.0291375
1.5888e-02,0.0290094
1.5920e-02,0.0295437
1.5952e-02,0.0295625
1.5984e-02,0.0297406
1.6016e-02,0.0298812
1.6048e-02,0.0297781
1.6080e-02,0.0314781
1.6112e-02,0.0316281
1.6144e-02,0.0307875
1.6176e-02,0.0299656
1.6208e-02,0.0307219
1.6240e-02,0.0306719
1.6272e-02,0.03055
1.6304e-02,0.0301219
1.6336e-02,0.0302344
1.6368e-02,0.030375
1.6400e-02,0.0304344
1.6432e-02,0.0301375
1.6464e-02,0.0309062
1.6496e-02,0.0308781
1.6528e-02,0.0301219
1.6560e-02,0.0304156
1.6592e-02,0.0297187
1.6624e-02,0.0293531
1.6656e-02,0.03125
1.6688e-02,0.0326656
1.6720e-02,0.0333219
1.6752e-02,0.0336187
1.6784e-02,0.0331156
1.6816e-02,0.0336344
1.6848e-02,0.0332875
1.6880e-02,0.0320687
1.6912e-02,0.0315656
1.6944e-02,0.0308562
1.6976e-02,0.0319187
1.7008e-02,0.0338906
1.7040e-02,0.0353531
1.7072e-02,0.0355844
1.7104e-02,0.0378312
1.7136e-02,0.0376844
1.7168e-02,0.0368719
1.7200e-02,0.0376781
1.7232e-02,0.0386625
1.7264e-02,0.0385125
1.7296e-02,0.039575
1.7328e-02,0.0408062
1.7360e-02,0.0428812
1.7392e-02,0.0440906
1.7424e-02,0.0460625
1.7456e-02,0.0470562
1.7488e-02,0.0465469
1.7520e-02,0.0482281
1.7552e-02,0.0519375
1.7584e-02,0.0524687
1.7616e-02,0.0540594
1.7648e-02,0.055625
1.7680e-02,0.0563781
1.7712e-02,0.0591844
1.7744e-02,0.0629
1.7776e-02,0.0665156
1.7808e-02,0.0691969
1.7840e-02,0.0694906
1.7872e-02,0.0719906
1.7904e-02,0.0745375
1.7936e-02,0.0761
1.7968e-02,0.0769719
1.8000e-02,0.0784281
1.8032e-02,0.0809937
1.8064e-02,0.0828687
1.8096e-02,0.0860156
1.8128e-02,0.0888
1.8160e-02,0.0888812
1.8192e-02,0.0871344
1.8224e-02,0.0867437
1.8256e-02,0.0901625
1.8288e-02,0.0939062
1.8320e-02,0.0949719
1.8352e-02,0.0967375
1.8384e-02,0.0967937
1.8416e-02,0.0981437
1.8448e-02,0.0984594
1.8480e-02,0.0992969
1.8512e-02,0.0992937
1.8544e-02,0.0971187
1.8576e-02,0.0953469
1.8608e-02,0.0946844
1.8640e-02,0.0951406
1.8672e-02,0.0966406
1.8704e-02,0.0977906
1.8736e-02,0.0974344
1.8768e-02,0.0968812
1.8800e-02,0.0943906
1.8832e-02,0.0937156
1.8864e-02,0.0915625
1.8896e-02,0.089525
1.8928e-02,0.0870219
1.8960e-02,0.0854219
1.8992e-02,0.0834625
1.9024e-02,0.0827625
1.9056e-02,0.0803406
1.9088e-02,0.0753781
1.9120e-02,0.0727125
1.9152e-02,0.0719312
1.9184e-02,0.0725812
1.9216e-02,0.0722781
1.9248e-02,0.0708156
1.9280e-02,0.06685
1.9312e-02,0.0644437
1.9344e-02,0.0621812
1.9376e-02,0.06
1.9408e-02,0.0591625
1.9440e-02,0.0585156
1.9472e-02,0.0577125
1.9504e-02,0.0557469
1.9536e-02,0.0521469
1.9568e-02,0.0488
1.9600e-02,0.046575
1.9632e-02,0.0462656
1.9664e-02,0.0452969
1.9696e-02,0.0441719
1.9728e-02,0.0434687
1.9760e-02,0.0421687
1.9792e-02,0.04085
1.9824e-02,0.040375
1.9856e-02,0.0406031
1.9888e-02,0.0397406
1.9920e-02,0.0380437
1.9952e-02,0.0368719
1.9984e-02,0.0368469
2.0016e-02,0.0360031
2.0048e-02,0.0340437
2.0080e-02,0.0335656
2.0112e-02,0.0334031
2.0144e-02,0.0331094
2.0176e-02,0.0328344
2.0208e-02,0.0330906
2.0240e-02,0.0340375
2.0272e-02,0.0327281
2.0304e-02,0.0322344
2.0336e-02,0.0324719
2.0368e-02,0.031975
2.0400e-02,0.0306
2.0432e-02,0.0304125
2.0464e-02,0.0300875
2.0496e-02,0.0306687
2.0528e-02,0.0304937
2.0560e-02,0.03075
2.0592e-02,0.0306969
2.0624e-02,0.0300937
2.0656e-02,0.0303281
2.0688e-02,0.029975
2.0720e-02,0.0296969
2.0752e-02,0.0296094
2.0784e-02,0.0309156
2.0816e-02,0.0309437
2.0848e-02,0.0309156
2.0880e-02,0.0305031
2.0912e-02,0.0303656
2.0944e-02,0.0309656
2.0976e-02,0.0311781
2.1008e-02,0.0303906
2.1040e-02,0.0301594
2.1072e-02,0.030225
2.1104e-02,0.03065
2.1136e-02,0.0315719
2.1168e-02,0.0307531
2.1200e-02,0.0301656
2.1232e-02,0.0298594
2.1264e-02,0.0305219
2.1296e-02,0.031025
2.1328e-02,0.0308219
2.1360e-02,0.030825
2.1392e-02,0.0302656
2.1424e-02,0.0297375
2.1456e-02,0.0297875
2.1488e-02,0.0289969
2.1520e-02,0.0294375
2.1552e-02,0.0293312
2.1584e-02,0.0293219
2.1616e-02,0.029275
2.1648e-02,0.0294719
2.1680e-02,0.0301
2.1712e-02,0.030525
2.1744e-02,0.0307625
2.1776e-02,0.0306656
2.1808e-02,0.0312
2.1840e-02,0.0308312
2.1872e-02,0.0301281
2.1904e-02,0.0309844
2.1936e-02,0.0317406
2.1968e-02,0.0314594
2.2000e-02,0.0308312
2.2032e-02,0.0314094
2.2064e-02,0.0313
2.2096e-02,0.0313437
2.2128e-02,0.0317187
2.2160e-02,0.0315219
2.2192e-02,0.0322625
2.2224e-02,0.0327562
2.2256e-02,0.0320594
2.2288e-02,0.0317281
2.2320e-02,0.0318406
2.2352e-02,0.0315312
2.2384e-02,0.0315844
2.2416e-02,0.0320625
2.2448e-02,0.0328
2.2480e-02,0.0333
2.2512e-02,0.0327969
2.2544e-02,0.0320844
2.2576e-02,0.0312312
2.2608e-02,0.0306969
2.2640e-02,0.0307937
2.2672e-02,0.0307937
2.2704e-02,0.0304312
2.2736e-02,0.0296625
2.2768e-02,0.0306219
2.2800e-02,0.0316312
2.2832e-02,0.0317219
2.2864e-02,0.0312906
2.2896e-02,0.0303625
2.2928e-02,0.0300344
2.2960e-02,0.0307031
2.2992e-02,0.0304406
2.3024e-02,0.0298969
2.3056e-02,0.0297187
2.3088e-02,0.0297937
2.3120e-02,0.0295
2.3152e-02,0.0286
2.3184e-02,0.0281031
2.3216e-02,0.0280687
2.3248e-02,0.0284406
2.3280e-02,0.0287031
2.3312e-02,0.0286594
2.3344e-02,0.0288469
2.3376e-02,0.0291187
2.3408e-02,0.0296344
2.3440e-02,0.0289
2.3472e-02,0.0291469
2.3504e-02,0.0295687
2.3536e-02,0.0297594
2.3568e-02,0.02905
2.3600e-02,0.0281687
2.3632e-02,0.0276812
2.3664e-02,0.0286719
2.3696e-02,0.02865
2.3728e-02,0.0285562
2.3760e-02,0.0287375
2.3792e-02,0.0281812
2.3824e-02,0.0276937
2.3856e-02,0.0274781
2.3888e-02,0.0275
2.3920e-02,0.0275531
2.3952e-02,0.0278781
2.3984e-02,0.0283531
2.4016e-02,0.029425
2.4048e-02,0.0295781
2.4080e-02,0.0292687
2.4112e-02,0.0281875
2.4144e-02,0.0280875
2.4176e-02,0.0288469
2.4208e-02,0.0289312
2.4240e-02,0.0285562
2.4272e-02,0.0281687
2.4304e-02,0.0286156
2.4336e-02,0.0286344
2.4368e-02,0.0278875
2.4400e-02,0.0278969
2.4432e-02,0.0279531
2.4464e-02,0.0285562
2.4496e-02,0.0288875
2.4528e-02,0.0290844
2.4560e-02,0.0290187
2.4592e-02,0.0295562
2.4624e-02,0.0296031
2.4656e-02,0.029275
2.4688e-02,0.0292437
2.4720e-02,0.0293156
2.4752e-02,0.0294187
2.4784e-02,0.0295531
2.4816e-02,0.0309062
2.4848e-02,0.0308187
2.4880e-02,0.0303469
2.4912e-02,0.0301906
2.4944e-02,0.0302844
2.4976e-02,0.0298344
2.5008e-02,0.0294406
2.5040e-02,0.0294906
2.5072e-02,0.0298
2.5104e-02,0.0299937
2.5136e-02,0.0314625
2.5168e-02,0.0316969
2.5200e-02,0.0323594
2.5232e-02,0.0322594
2.5264e-02,0.0320812
2.5296e-02,0.03275
2.5328e-02,0.0325469
2.5360e-02,0.0328937
2.5392e-02,0.0327719
2.5424e-02,0.0325094
2.5456e-02,0.0324469
2.5488e-02,0.0312687
2.5520e-02,0.0317219
2.5552e-02,0.032575
2.5584e-02,0.0321375
2.5616e-02,0.0317562
2.5648e-02,0.0321875
2.5680e-02,0.0316031
2.5712e-02,0.0320125
2.5744e-02,0.0319969
2.5776e-02,0.0316437
2.5808e-02,0.0321094
2.5840e-02,0.0327219
2.5872e-02,0.0325469
2.5904e-02,0.0320187
2.5936e-02,0.0315562
2.5968e-02,0.0316687
2.6000e-02,0.0326719
2.6032e-02,0.0336469
2.6064e-02,0.0334031
2.6096e-02,0.0333
2.6128e-02,0.0336062
2.6160e-02,0.0339219
2.6192e-02,0.0341719
2.6224e-02,0.0342531
2.6256e-02,0.0331844
2.6288e-02,0.0324125
2.6320e-02,0.0326812
2.6352e-02,0.0329469
2.6384e-02,0.0330781
2.6416e-02,0.0328594
2.6448e-02,0.0328031
2.6480e-02,0.032875
2.6512e-02,0.0317
2.6544e-02,0.03135
2.6576e-02,0.0310281
2.6608e-02,0.0311344
2.6640e-02,0.0319594
2.6672e-02,0.0331594
2.6704e-02,0.0331375
2.6736e-02,0.0320156
2.6768e-02,0.0324125
2.6800e-02,0.0320469
2.6832e-02,0.0326094
2.6864e-02,0.032775
2.6896e-02,0.0329937
2.6928e-02,0.0338344
2.6960e-02,0.0341969
2.6992e-02,0.03395
2.7024e-02,0.0328375
2.7056e-02,0.032525
2.7088e-02,0.0322781
2.7120e-02,0.0322156
2.7152e-02,0.0334125
2.7184e-02,0.0335844
2.7216e-02,0.0334937
2.7248e-02,0.0329531
2.7280e-02,0.0325281
2.7312e-02,0.03175
2.7344e-02,0.0325344
2.7376e-02,0.0341656
2.7408e-02,0.0342531
2.7440e-02,0.0331719
2.7472e-02,0.0319125
2.7504e-02,0.032225
2.7536e-02,0.0324062
2.7568e-02,0.0330687
2.7600e-02,0.0336344
2.7632e-02,0.0348531
2.7664e-02,0.0341219
2.7696e-02,0.0334937
2.7728e-02,0.0329344
2.7760e-02,0.0332062
2.7792e-02,0.0341437
2.7824e-02,0.0341469
2.7856e-02,0.0346125
2.7888e-02,0.0351812
2.7920e-02,0.0362844
2.7952e-02,0.0385031
2.7984e-02,0.0395187
2.8016e-02,0.0405937
2.8048e-02,0.0413906
2.8080e-02,0.0431094
2.8112e-02,0.0456469
2.8144e-02,0.0477406
2.8176e-02,0.0479812
2.8208e-02,0.0489344
2.8240e-02,0.0508844
2.8272e-02,0.0540562
2.8304e-02,0.0550781
2.8336e-02,0.05475
2.8368e-02,0.0563625
2.8400e-02,0.0578781
2.8432e-02,0.0607531
2.8464e-02,0.0635594
2.8496e-02,0.0653781
2.8528e-02,0.0679156
2.8560e-02,0.0714687
2.8592e-02,0.0739844
2.8624e-02,0.0758531
2.8656e-02,0.0766719
2.8688e-02,0.0783656
2.8720e-02,0.08055
2.8752e-02,0.0820937
2.8784e-02,0.0823594
2.8816e-02,0.0845937
2.8848e-02,0.0852375
2.8880e-02,0.0860156
2.8912e-02,0.0869969
2.8944e-02,0.0878156
2.8976e-02,0.0871562
2.9008e-02,0.0860625
2.9040e-02,0.0848781
2.9072e-02,0.0836656
2.9104e-02,0.0814656
2.9136e-02,0.0816656
2.9168e-02,0.0834219
2.9200e-02,0.0856625
2.9232e-02,0.0841781
2.9264e-02,0.0826781
2.9296e-02,0.0799375
2.9328e-02,0.0779469
2.9360e-02,0.0762656
2.9392e-02,0.073275
2.9424e-02,0.0708781
2.9456e-02,0.0683375
2.9488e-02,0.0674562
2.9520e-02,0.0660594
2.9552e-02,0.0631344
2.9584e-02,0.0598594
2.9616e-02,0.0576031
2.9648e-02,0.0561125
2.9680e-02,0.0539344
2.9712e-02,0.0517094
2.9744e-02,0.0500375
2.9776e-02,0.0479875
2.9808e-02,0.0464594
2.9840e-02,0.044025
2.9872e-02,0.04165
2.9904e-02,0.0406094
2.9936e-02,0.0398375
2.9968e-02,0.038975
3.0000e-02,0.0386281
3.0032e-02,0.0382375
3.0064e-02,0.0379625
3.0096e-02,0.0367844
3.0128e-02,0.0361875
3.0160e-02,0.035075
3.0192e-02,0.0350719
3.0224e-02,0.0346281
3.0256e-02,0.0344469
3.0288e-02,0.0349906
3.0320e-02,0.0356469
3.0352e-02,0.0357781
3.0384e-02,0.0352812
3.0416e-02,0.0358594
3.0448e-02,0.0361687
3.0480e-02,0.0365281
3.0512e-02,0.0352594
3.0544e-02,0.0355031
3.0576e-02,0.0352844
3.0608e-02,0.0348437
3.0640e-02,0.0343812
3.0672e-02,0.0349125
3.0704e-02,0.0351062
3.0736e-02,0.0363937
3.0768e-02,0.0356312
3.0800e-02,0.0350312
3.0832e-02,0.033825
3.0864e-02,0.0335562
3.0896e-02,0.03345
3.0928e-02,0.0327406
3.0960e-02,0.0324562
3.0992e-02,0.0323969
3.1024e-02,0.0315937
3.1056e-02,0.0320312
3.1088e-02,0.033275
3.1120e-02,0.0333656
3.1152e-02,0.0336969
3.1184e-02,0.0345312
3.1216e-02,0.0347406
3.1248e-02,0.0343187
3.1280e-02,0.0338625
3.1312e-02,0.0336937
3.1344e-02,0.0341094
3.1376e-02,0.0333437
3.1408e-02,0.0323625
3.1440e-02,0.0321375
3.1472e-02,0.03185
3.1504e-02,0.0316187
3.1536e-02,0.0309812
3.1568e-02,0.0315187
3.1600e-02,0.0315875
3.1632e-02,0.031675
3.1664e-02,0.0315937
3.1696e-02,0.0323219
3.1728e-02,0.0326906
3.1760e-02,0.0327812
3.1792e-02,0.0322031
3.1824e-02,0.0312125
3.1856e-02,0.0309562
3.1888e-02,0.0305094
3.1920e-02,0.0310031
3.1952e-02,0.0309969
3.1984e-02,0.0318406
3.2016e-02,0.0326406
3.2048e-02,0.0327656
3.2080e-02,0.0328156
3.2112e-02,0.0329469
3.2144e-02,0.03305
3.2176e-02,0.0333562
3.2208e-02,0.0329687
3.2240e-02,0.0329969
3.2272e-02,0.03275
3.2304e-02,0.0322062
3.2336e-02,0.0323281
3.2368e-02,0.0323781
3.2400e-02,0.0327844
3.2432e-02,0.0333187
3.2464e-02,0.0334875
3.2496e-02,0.0328937
3.2528e-02,0.0335781
3.2560e-02,0.0335937
3.2592e-02,0.0325719
3.2624e-02,0.0324969
3.2656e-02,0.0325156
3.2688e-02,0.0319125
3.2720e-02,0.0313344
3.2752e-02,0.0316437
3.2784e-02,0.0314719
3.2816e-02,0.0318562
3.2848e-02,0.0329031
3.2880e-02,0.0333031
3.2912e-02,0.0334812
3.2944e-02,0.0338406
3.2976e-02,0.0342969
3.3008e-02,0.033375
3.3040e-02,0.0321812
3.3072e-02,0.0322906
3.3104e-02,0.0327062
3.3136e-02,0.0321219
3.3168e-02,0.0322812
3.3200e-02,0.0322344
3.3232e-02,0.0325687
3.3264e-02,0.0327187
3.3296e-02,0.0324969
3.3328e-02,0.0317844
3.3360e-02,0.0319844
3.3392e-02,0.0325219
3.3424e-02,0.0319156
3.3456e-02,0.0320531
3.3488e-02,0.0325031
3.3520e-02,0.0314094
3.3552e-02,0.0306156
3.3584e-02,0.0317219
3.3616e-02,0.0319062
3.3648e-02,0.0317531
3.3680e-02,0.0312062
3.3712e-02,0.0303219
3.3744e-02,0.0294219
3.3776e-02,0.0289594
3.3808e-02,0.0293187
3.3840e-02,0.0290031
3.3872e-02,0.0292312
3.3904e-02,0.0288656
3.3936e-02,0.0292156
3.3968e-02,0.0298625
3.4000e-02,0.0297812
3.4032e-02,0.0295344
3.4064e-02,0.0285875
3.4096e-02,0.0282031
3.4128e-02,0.0282344
3.4160e-02,0.0282656
3.4192e-02,0.0283156
3.4224e-02,0.0279969
3.4256e-02,0.0286562
3.4288e-02,0.0283969
3.4320e-02,0.0281406
3.4352e-02,0.0290969
3.4384e-02,0.0292719
3.4416e-02,0.0292531
3.4448e-02,0.0285312
3.4480e-02,0.0289094
3.4512e-02,0.0285094
3.4544e-02,0.0288562
3.4576e-02,0.0295937
3.4608e-02,0.0293281
3.4640e-02,0.0285969
3.4672e-02,0.028325
3.4704e-02,0.02805
3.4736e-02,0.0273281
3.4768e-02,0.0274344
3.4800e-02,0.0276969
3.4832e-02,0.0279875
3.4864e-02,0.0283062
3.4896e-02,0.0284719
3.4928e-02,0.0286094
3.4960e-02,0.0285594
3.4992e-02,0.0284594
3.5024e-02,0.0285719
3.5056e-02,0.0293469
3.5088e-02,0.0299969
3.5120e-02,0.0297094
3.5152e-02,0.0288906
3.5184e-02,0.0279094
3.5216e-02,0.0271906
3.5248e-02,0.0273187
3.5280e-02,0.0280656
3.5312e-02,0.0284687
3.5344e-02,0.027925
3.5376e-02,0.0278875
3.5408e-02,0.0278687
3.5440e-02,0.027675
3.5472e-02,0.0272719
3.5504e-02,0.0276719
3.5536e-02,0.0272187
3.5568e-02,0.0267406
3.5600e-02,0.0271375
3.5632e-02,0.0268312
3.5664e-02,0.0265094
3.5696e-02,0.0271437
3.5728e-02,0.0273406
3.5760e-02,0.0271094
3.5792e-02,0.0275031
3.5824e-02,0.0272781
3.5856e-02,0.0273406
3.5888e-02,0.0267156
3.5920e-02,0.0277594
3.5952e-02,0.0281031
3.5984e-02,0.0281531
3.6016e-02,0.0290562
3.6048e-02,0.0286125
3.6080e-02,0.0276937
3.6112e-02,0.0269969
3.6144e-02,0.0272281
3.6176e-02,0.0271812
3.6208e-02,0.0265094
3.6240e-02,0.0266812
3.6272e-02,0.0268906
3.6304e-02,0.0270312
3.6336e-02,0.0272281
3.6368e-02,0.0274062
3.6400e-02,0.0270062
3.6432e-02,0.0271031
3.6464e-02,0.027675
3.6496e-02,0.0274062
3.6528e-02,0.0272187
3.6560e-02,0.0272031
3.6592e-02,0.0278969
3.6624e-02,0.0280219
3.6656e-02,0.0282594
3.6688e-02,0.0294656
3.6720e-02,0.0292656
3.6752e-02,0.0292312
3.6784e-02,0.0288594
3.6816e-02,0.0288219
3.6848e-02,0.027975
3.6880e-02,0.0277344
3.6912e-02,0.0276312
3.6944e-02,0.0272344
3.6976e-02,0.0270094
3.7008e-02,0.0274969
3.7040e-02,0.0272219
3.7072e-02,0.0274094
3.7104e-02,0.0282406
3.7136e-02,0.0293281
3.7168e-02,0.0297781
3.7200e-02,0.0302406
3.7232e-02,0.0298562
3.7264e-02,0.0304125
3.7296e-02,0.0310156
3.7328e-02,0.0308156
3.7360e-02,0.0306312
3.7392e-02,0.0304469
3.7424e-02,0.0297625
3.7456e-02,0.0292281
3.7488e-02,0.0293531
3.7520e-02,0.029325
3.7552e-02,0.0292281
3.7584e-02,0.0300312
3.7616e-02,0.030825
3.7648e-02,0.0317625
3.7680e-02,0.0314937
3.7712e-02,0.0310969
3.7744e-02,0.0308875
3.7776e-02,0.030725
3.7808e-02,0.0312219
3.7840e-02,0.0306687
3.7872e-02,0.0306187
3.7904e-02,0.0308469
3.7936e-02,0.0306812
3.7968e-02,0.0300219
3.8000e-02,0.0298937
3.8032e-02,0.0291062
3.8064e-02,0.0293406
3.8096e-02,0.0298062
3.8128e-02,0.0288625
3.8160e-02,0.0284
3.8192e-02,0.0286156
3.8224e-02,0.029725
3.8256e-02,0.0295625
3.8288e-02,0.0308781
3.8320e-02,0.0308062
3.8352e-02,0.0312281
3.8384e-02,0.0308031
3.8416e-02,0.0296812
3.8448e-02,0.0295719
3.8480e-02,0.0291656
3.8512e-02,0.0292531
3.8544e-02,0.0294937
3.8576e-02,0.0298656
3.8608e-02,0.0305594
3.8640e-02,0.0313375
3.8672e-02,0.0315156
3.8704e-02,0.0310875
3.8736e-02,0.0302281
3.8768e-02,0.0299375
3.8800e-02,0.0300812
3.8832e-02,0.029425
3.8864e-02,0.0289437
3.8896e-02,0.0296031
3.8928e-02,0.0303875
3.8960e-02,0.0316125
3.8992e-02,0.0316281
3.9024e-02,0.031325
3.9056e-02,0.0302969
3.9088e-02,0.0295594
3.9120e-02,0.0291625
3.9152e-02,0.0294531
3.9184e-02,0.0294562
3.9216e-02,0.0292344
3.9248e-02,0.03005
3.9280e-02,0.0299031
3.9312e-02,0.0297625
3.9344e-02,0.0304156
3.9376e-02,0.0304125
3.9408e-02,0.0300156
3.9440e-02,0.0299562
3.9472e-02,0.0305594
3.9504e-02,0.0320906
3.9536e-02,0.0328031
3.9568e-02,0.0323031
3.9600e-02,0.0326937
3.9632e-02,0.0319687
3.9664e-02,0.0311125
3.9696e-02,0.0310344
3.9728e-02,0.0323375
3.9760e-02,0.0321562
3.9792e-02,0.0321625
3.9824e-02,0.032725
3.9856e-02,0.0336906
3.9888e-02,0.0335687
3.9920e-02,0.0345375
3.9952e-02,0.0343344
3.9984e-02,0.0343562
4.0016e-02,0.0346125
4.0048e-02,0.0348781
4.0080e-02,0.0358562
4.0112e-02,0.0370656
4.0144e-02,0.0375531
4.0176e-02,0.0373312
4.0208e-02,0.0380031
4.0240e-02,0.0393562
4.0272e-02,0.04025
4.0304e-02,0.0413437
4.0336e-02,0.0435656
4.0368e-02,0.0461406
4.0400e-02,0.0489594
4.0432e-02,0.0500812
4.0464e-02,0.0517719
4.0496e-02,0.0530875
4.0528e-02,0.0552781
4.0560e-02,0.0563219
4.0592e-02,0.0585125
4.0624e-02,0.0616281
4.0656e-02,0.0632375
4.0688e-02,0.0662312
4.0720e-02,0.0684125
4.0752e-02,0.0716406
4.0784e-02,0.0729187
4.0816e-02,0.0746125
4.0848e-02,0.07665
4.0880e-02,0.0783406
4.0912e-02,0.0790219
4.0944e-02,0.0829156
4.0976e-02,0.0850469
4.1008e-02,0.0887094
4.1040e-02,0.0875625
4.1072e-02,0.08765
4.1104e-02,0.0908031
4.1136e-02,0.0936
4.1168e-02,0.0938875
4.1200e-02,0.093325
4.1232e-02,0.0946937
4.1264e-02,0.0964
4.1296e-02,0.0972875
4.1328e-02,0.0978906
4.1360e-02,0.0970594
4.1392e-02,0.0964375
4.1424e-02,0.0952437
4.1456e-02,0.0946219
4.1488e-02,0.0937062
4.1520e-02,0.0930125
4.1552e-02,0.0929281
4.1584e-02,0.0910812
4.1616e-02,0.0894125
4.1648e-02,0.0887906
4.1680e-02,0.0875531
4.1712e-02,0.0851562
4.1744e-02,0.0816125
4.1776e-02,0.0792531
4.1808e-02,0.0774875
4.1840e-02,0.07455
4.1872e-02,0.0718219
4.1904e-02,0.0691219
4.1936e-02,0.0683531
4.1968e-02,0.0665375
4.2000e-02,0.0631812
4.2032e-02,0.0607625
4.2064e-02,0.0595094
4.2096e-02,0.05795
4.2128e-02,0.0556906
4.2160e-02,0.0534156
4.2192e-02,0.0512875
4.2224e-02,0.0498437
4.2256e-02,0.0492437
4.2288e-02,0.0479625
4.2320e-02,0.0465406
4.2352e-02,0.0437094
4.2384e-02,0.0423031
4.2416e-02,0.0407281
4.2448e-02,0.0400219
4.2480e-02,0.039375
4.2512e-02,0.0389625
4.2544e-02,0.0370281
4.2576e-02,0.0362437
4.2608e-02,0.0359
4.2640e-02,0.0356219
4.2672e-02,0.0351406
4.2704e-02,0.0340812
4.2736e-02,0.0335375
4.2768e-02,0.03285
4.2800e-02,0.0318156
4.2832e-02,0.0309125
4.2864e-02,0.0304031
4.2896e-02,0.0302062
4.2928e-02,0.0308469
4.2960e-02,0.0306156
4.2992e-02,0.030625
4.3024e-02,0.0307812
4.3056e-02,0.0301625
4.3088e-02,0.0301187
4.3120e-02,0.0291844
4.3152e-02,0.0285406
4.3184e-02,0.0291187
4.3216e-02,0.0307375
4.3248e-02,0.0309906
4.3280e-02,0.0305594
4.3312e-02,0.0303125
4.3344e-02,0.0291156
4.3376e-02,0.0287406
4.3408e-02,0.0287656
4.3440e-02,0.0295344
4.3472e-02,0.0311437
4.3504e-02,0.0308875
