432Lab4/Yellow_1817A_no_polarizer.csv

Model,MSO2024
Firmware Version,1.52

Point Format,Y
Horizontal Units,S
Horizontal Scale,0.01
Sample Interval,3.2e-05
Filter Frequency,2e+08
Record Length,3125
Gating,0.0% to 100.0%
Probe Attenuation,1
Vertical Units,V
Vertical Offset,0
Vertical Scale,0.05
Label,
TIME,CH1
1.3200e-02,0.0390703
1.3232e-02,0.03775
1.3264e-02,0.0385703
1.3296e-02,0.0398828
1.3328e-02,0.04075
1.3360e-02,0.0396016
1.3392e-02,0.0396797
1.3424e-02,0.0393672
1.3456e-02,0.0396953
1.3488e-02,0.0423281
1.3520e-02,0.0417031
1.3552e-02,0.0419062
1.3584e-02,0.0407344
1.3616e-02,0.0406797
1.3648e-02,0.0415703
1.3680e-02,0.0417969
1.3712e-02,0.0404297
1.3744e-02,0.0421094
1.3776e-02,0.0422422
1.3808e-02,0.0421094
1.3840e-02,0.0409297
1.3872e-02,0.0398359
1.3904e-02,0.0390234
1.3936e-02,0.0438203
1.3968e-02,0.0466328
1.4000e-02,0.045375
1.4032e-02,0.0443203
1.4064e-02,0.0428437
1.4096e-02,0.0420625
1.4128e-02,0.0445703
1.4160e-02,0.0441172
1.4192e-02,0.0419531
1.4224e-02,0.0415781
1.4256e-02,0.0416875
1.4288e-02,0.04425
1.4320e-02,0.0448672
1.4352e-02,0.04625
1.4384e-02,0.0476875
1.4416e-02,0.0479297
1.4448e-02,0.0462578
1.4480e-02,0.0467891
1.4512e-02,0.0470781
1.4544e-02,0.0467578
1.4576e-02,0.0458516
1.4608e-02,0.0446172
1.4640e-02,0.0439531
1.4672e-02,0.0455312
1.4704e-02,0.0460781
1.4736e-02,0.0462422
1.4768e-02,0.0478906
1.4800e-02,0.0494297
1.4832e-02,0.0477422
1.4864e-02,0.0476406
1.4896e-02,0.0461328
1.4928e-02,0.0452266
1.4960e-02,0.0439609
1.4992e-02,0.0431016
1.5024e-02,0.04225
1.5056e-02,0.0411328
1.5088e-02,0.0414375
1.5120e-02,0.0427969
1.5152e-02,0.0446953
1.5184e-02,0.0451719
1.5216e-02,0.0445312
1.5248e-02,0.0427734
1.5280e-02,0.0426953
1.5312e-02,0.0413594
1.5344e-02,0.0408906
1.5376e-02,0.0410625
1.5408e-02,0.0423359
1.5440e-02,0.0410859
1.5472e-02,0.0422891
1.5504e-02,0.0416484
1.5536e-02,0.0420937
1.5568e-02,0.0434844
1.5600e-02,0.0438516
1.5632e-02,0.0430547
1.5664e-02,0.0416875
1.5696e-02,0.0408047
1.5728e-02,0.0403516
1.5760e-02,0.0404687
1.5792e-02,0.0399297
1.5824e-02,0.0404922
1.5856e-02,0.0405625
1.5888e-02,0.0407969
1.5920e-02,0.0431406
1.5952e-02,0.0437422
1.5984e-02,0.0426328
1.6016e-02,0.0427891
1.6048e-02,0.0440859
1.6080e-02,0.0423672
1.6112e-02,0.0410625
1.6144e-02,0.0407812
1.6176e-02,0.0403281
1.6208e-02,0.0399766
1.6240e-02,0.0412578
1.6272e-02,0.0412656
1.6304e-02,0.0419375
1.6336e-02,0.0432578
1.6368e-02,0.0440625
1.6400e-02,0.0434609
1.6432e-02,0.04325
1.6464e-02,0.0420391
1.6496e-02,0.0432891
1.6528e-02,0.0439922
1.6560e-02,0.0453672
1.6592e-02,0.0464531
1.6624e-02,0.04825
1.6656e-02,0.0517031
1.6688e-02,0.0519141
1.6720e-02,0.0537734
1.6752e-02,0.0537812
1.6784e-02,0.0527656
1.6816e-02,0.0524531
1.6848e-02,0.0545156
1.6880e-02,0.0569766
1.6912e-02,0.0580937
1.6944e-02,0.0567891
1.6976e-02,0.0561094
1.7008e-02,0.0589766
1.7040e-02,0.0609375
1.7072e-02,0.0603672
1.7104e-02,0.0601172
1.7136e-02,0.0630781
1.7168e-02,0.0659297
1.7200e-02,0.0685156
1.7232e-02,0.0715547
1.7264e-02,0.0724766
1.7296e-02,0.0705234
1.7328e-02,0.0690391
1.7360e-02,0.0680859
1.7392e-02,0.0657031
1.7424e-02,0.0656172
1.7456e-02,0.0664687
1.7488e-02,0.0691953
1.7520e-02,0.0706953
1.7552e-02,0.0705859
1.7584e-02,0.072875
1.7616e-02,0.0759609
1.7648e-02,0.0812109
1.7680e-02,0.0856875
1.7712e-02,0.0863359
1.7744e-02,0.0888359
1.7776e-02,0.0911016
1.7808e-02,0.0940234
1.7840e-02,0.0978281
1.7872e-02,0.0987891
1.7904e-02,0.0991094
1.7936e-02,0.103094
1.7968e-02,0.106781
1.8000e-02,0.106695
1.8032e-02,0.10818
1.8064e-02,0.111727
1.8096e-02,0.11843
1.8128e-02,0.118812
1.8160e-02,0.121977
1.8192e-02,0.127953
1.8224e-02,0.126289
1.8256e-02,0.120734
1.8288e-02,0.119602
1.8320e-02,0.115562
1.8352e-02,0.116687
1.8384e-02,0.114375
1.8416e-02,0.110602
1.8448e-02,0.10893
1.8480e-02,0.107125
1.8512e-02,0.104062
1.8544e-02,0.104523
1.8576e-02,0.102836
1.8608e-02,0.100055
1.8640e-02,0.0939687
1.8672e-02,0.0908437
1.8704e-02,0.0881875
1.8736e-02,0.0842266
1.8768e-02,0.0804375
1.8800e-02,0.0763828
1.8832e-02,0.0746406
1.8864e-02,0.0704531
1.8896e-02,0.0683594
1.8928e-02,0.0637578
1.8960e-02,0.0629375
1.8992e-02,0.0616172
1.9024e-02,0.0588984
1.9056e-02,0.0582187
1.9088e-02,0.0570156
1.9120e-02,0.0570469
1.9152e-02,0.0551016
1.9184e-02,0.0521094
1.9216e-02,0.0500469
1.9248e-02,0.049375
1.9280e-02,0.0478359
1.9312e-02,0.0461875
1.9344e-02,0.0466797
1.9376e-02,0.0453672
1.9408e-02,0.04375
1.9440e-02,0.0439687
1.9472e-02,0.0449609
1.9504e-02,0.0443281
1.9536e-02,0.0435625
1.9568e-02,0.0429766
1.9600e-02,0.0430078
1.9632e-02,0.0424844
1.9664e-02,0.0432031
1.9696e-02,0.0428828
1.9728e-02,0.0438594
1.9760e-02,0.0467344
1.9792e-02,0.0460156
1.9824e-02,0.04675
1.9856e-02,0.0471094
1.9888e-02,0.0452187
1.9920e-02,0.0433906
1.9952e-02,0.04325
1.9984e-02,0.0444375
2.0016e-02,0.0470078
2.0048e-02,0.0473125
2.0080e-02,0.0462969
2.0112e-02,0.0452734
2.0144e-02,0.0451484
2.0176e-02,0.0476875
2.0208e-02,0.0486094
2.0240e-02,0.0490234
2.0272e-02,0.0491875
2.0304e-02,0.0507969
2.0336e-02,0.0510156
2.0368e-02,0.0505078
2.0400e-02,0.0499531
2.0432e-02,0.0501562
2.0464e-02,0.0504687
2.0496e-02,0.0525469
2.0528e-02,0.0542109
2.0560e-02,0.0565703
2.0592e-02,0.0578594
2.0624e-02,0.0588516
2.0656e-02,0.0586484
2.0688e-02,0.0597344
2.0720e-02,0.0614297
2.0752e-02,0.0644141
2.0784e-02,0.0700781
2.0816e-02,0.0736094
2.0848e-02,0.0745937
2.0880e-02,0.0746406
2.0912e-02,0.0746406
2.0944e-02,0.0781484
2.0976e-02,0.0801797
2.1008e-02,0.0822656
2.1040e-02,0.0896562
2.1072e-02,0.0939531
2.1104e-02,0.0968672
2.1136e-02,0.10025
2.1168e-02,0.102195
2.1200e-02,0.104484
2.1232e-02,0.105898
2.1264e-02,0.110922
2.1296e-02,0.118008
2.1328e-02,0.12325
2.1360e-02,0.124836
2.1392e-02,0.126906
2.1424e-02,0.129984
2.1456e-02,0.133383
2.1488e-02,0.141812
2.1520e-02,0.145953
2.1552e-02,0.14718
2.1584e-02,0.149773
2.1616e-02,0.153156
2.1648e-02,0.154602
2.1680e-02,0.158258
2.1712e-02,0.161297
2.1744e-02,0.165641
2.1776e-02,0.166875
2.1808e-02,0.171727
2.1840e-02,0.176086
2.1872e-02,0.176398
2.1904e-02,0.175586
2.1936e-02,0.177219
2.1968e-02,0.175477
2.2000e-02,0.174437
2.2032e-02,0.175062
2.2064e-02,0.171266
2.2096e-02,0.169867
2.2128e-02,0.168148
2.2160e-02,0.168656
2.2192e-02,0.164328
2.2224e-02,0.157719
2.2256e-02,0.15032
2.2288e-02,0.148016
2.2320e-02,0.140602
2.2352e-02,0.133867
2.2384e-02,0.126562
2.2416e-02,0.122086
2.2448e-02,0.117266
2.2480e-02,0.112016
2.2512e-02,0.107633
2.2544e-02,0.101078
2.2576e-02,0.0974219
2.2608e-02,0.0946719
2.2640e-02,0.0886562
2.2672e-02,0.0808906
2.2704e-02,0.0763437
2.2736e-02,0.0748984
2.2768e-02,0.0714297
2.2800e-02,0.0715156
2.2832e-02,0.0687969
2.2864e-02,0.0634609
2.2896e-02,0.0612578
2.2928e-02,0.0600781
2.2960e-02,0.0602812
2.2992e-02,0.0619922
2.3024e-02,0.0611406
2.3056e-02,0.0597891
2.3088e-02,0.0576016
2.3120e-02,0.0568281
2.3152e-02,0.0550391
2.3184e-02,0.0537422
2.3216e-02,0.0520156
2.3248e-02,0.0533437
2.3280e-02,0.0548984
2.3312e-02,0.0548906
2.3344e-02,0.0531094
2.3376e-02,0.0508906
2.3408e-02,0.0487266
2.3440e-02,0.0470937
2.3472e-02,0.0457578
2.3504e-02,0.0454219
2.3536e-02,0.0454297
2.3568e-02,0.0461328
2.3600e-02,0.0462187
2.3632e-02,0.0467812
2.3664e-02,0.0484297
2.3696e-02,0.0482969
2.3728e-02,0.0480625
2.3760e-02,0.0485703
2.3792e-02,0.0500781
2.3824e-02,0.0495703
2.3856e-02,0.0463672
2.3888e-02,0.0463281
2.3920e-02,0.0482422
2.3952e-02,0.0488281
2.3984e-02,0.0473672
2.4016e-02,0.0471484
2.4048e-02,0.0473203
2.4080e-02,0.0463281
2.4112e-02,0.0482812
2.4144e-02,0.0512734
2.4176e-02,0.0527578
2.4208e-02,0.0542187
2.4240e-02,0.0554766
2.4272e-02,0.0570078
2.4304e-02,0.0576641
2.4336e-02,0.0567734
2.4368e-02,0.0570391
2.4400e-02,0.060125
2.4432e-02,0.0605312
2.4464e-02,0.0645234
2.4496e-02,0.0642891
2.4528e-02,0.0629766
2.4560e-02,0.0663359
2.4592e-02,0.0710234
2.4624e-02,0.0748516
2.4656e-02,0.0741875
2.4688e-02,0.0743906
2.4720e-02,0.0750312
2.4752e-02,0.0759531
2.4784e-02,0.0773516
2.4816e-02,0.0811094
2.4848e-02,0.08375
2.4880e-02,0.0834844
2.4912e-02,0.0854922
2.4944e-02,0.088875
2.4976e-02,0.0890703
2.5008e-02,0.0885781
2.5040e-02,0.0924609
2.5072e-02,0.0953906
2.5104e-02,0.100391
2.5136e-02,0.102773
2.5168e-02,0.0997891
2.5200e-02,0.101016
2.5232e-02,0.10375
2.5264e-02,0.10575
2.5296e-02,0.107617
2.5328e-02,0.109414
2.5360e-02,0.108906
2.5392e-02,0.111961
2.5424e-02,0.116445
2.5456e-02,0.119922
2.5488e-02,0.119937
2.5520e-02,0.120906
2.5552e-02,0.120375
2.5584e-02,0.121523
2.5616e-02,0.125273
2.5648e-02,0.119734
2.5680e-02,0.116578
2.5712e-02,0.111555
2.5744e-02,0.108672
2.5776e-02,0.107219
2.5808e-02,0.10507
2.5840e-02,0.103227
2.5872e-02,0.0994609
2.5904e-02,0.0949297
2.5936e-02,0.08775
2.5968e-02,0.0815078
2.6000e-02,0.0765937
2.6032e-02,0.0725781
2.6064e-02,0.0687422
2.6096e-02,0.0685156
2.6128e-02,0.0689219
2.6160e-02,0.0675391
2.6192e-02,0.0639766
2.6224e-02,0.0615234
2.6256e-02,0.0590937
2.6288e-02,0.0581094
2.6320e-02,0.0575781
2.6352e-02,0.0557812
2.6384e-02,0.0550547
2.6416e-02,0.0547812
2.6448e-02,0.0540625
2.6480e-02,0.0535703
2.6512e-02,0.0523125
2.6544e-02,0.0527031
2.6576e-02,0.0520312
2.6608e-02,0.052375
2.6640e-02,0.0519375
2.6672e-02,0.0505
2.6704e-02,0.0517891
2.6736e-02,0.0524609
2.6768e-02,0.0535078
2.6800e-02,0.0545391
2.6832e-02,0.0553984
2.6864e-02,0.0545312
2.6896e-02,0.053375
2.6928e-02,0.053
2.6960e-02,0.0513516
2.6992e-02,0.0500156
2.7024e-02,0.0504297
2.7056e-02,0.0540156
2.7088e-02,0.0559219
2.7120e-02,0.0532656
2.7152e-02,0.0528594
2.7184e-02,0.0506406
2.7216e-02,0.0488359
2.7248e-02,0.0487109
2.7280e-02,0.0487187
2.7312e-02,0.0480937
2.7344e-02,0.0468125
2.7376e-02,0.0445859
2.7408e-02,0.0437578
2.7440e-02,0.0434687
2.7472e-02,0.0435937
2.7504e-02,0.0439453
2.7536e-02,0.046125
2.7568e-02,0.0472891
2.7600e-02,0.0475781
2.7632e-02,0.0474766
2.7664e-02,0.047625
2.7696e-02,0.0464609
2.7728e-02,0.0459609
2.7760e-02,0.0464219
2.7792e-02,0.0475312
2.7824e-02,0.0513672
2.7856e-02,0.0539844
2.7888e-02,0.0550859
2.7920e-02,0.0556953
2.7952e-02,0.0568672
2.7984e-02,0.0548359
2.8016e-02,0.0539375
2.8048e-02,0.0541797
2.8080e-02,0.0572109
2.8112e-02,0.0588828
2.8144e-02,0.0583984
2.8176e-02,0.0617187
2.8208e-02,0.0635234
2.8240e-02,0.0658281
2.8272e-02,0.0672031
2.8304e-02,0.0671016
2.8336e-02,0.0679219
2.8368e-02,0.0676719
2.8400e-02,0.0720781
2.8432e-02,0.0773281
2.8464e-02,0.0789219
2.8496e-02,0.0797969
2.8528e-02,0.0810703
2.8560e-02,0.0853672
2.8592e-02,0.0870703
2.8624e-02,0.0916094
2.8656e-02,0.0920078
2.8688e-02,0.0920625
2.8720e-02,0.0968516
2.8752e-02,0.102906
2.8784e-02,0.104625
2.8816e-02,0.106664
2.8848e-02,0.10807
2.8880e-02,0.112625
2.8912e-02,0.112555
2.8944e-02,0.113922
2.8976e-02,0.117
2.9008e-02,0.116461
2.9040e-02,0.116078
2.9072e-02,0.117633
2.9104e-02,0.118492
2.9136e-02,0.120641
2.9168e-02,0.118164
2.9200e-02,0.111406
2.9232e-02,0.103687
2.9264e-02,0.101219
2.9296e-02,0.0980937
2.9328e-02,0.0904687
2.9360e-02,0.0829453
2.9392e-02,0.0755156
2.9424e-02,0.0736406
2.9456e-02,0.0712187
2.9488e-02,0.0677891
2.9520e-02,0.0639609
2.9552e-02,0.0615
2.9584e-02,0.0573828
2.9616e-02,0.0551562
2.9648e-02,0.0536953
2.9680e-02,0.0525937
2.9712e-02,0.0539297
2.9744e-02,0.0515781
2.9776e-02,0.0509766
2.9808e-02,0.0514687
2.9840e-02,0.0500781
2.9872e-02,0.0507422
2.9904e-02,0.0523047
2.9936e-02,0.0534219
2.9968e-02,0.0531016
3.0000e-02,0.0489687
3.0032e-02,0.0485859
3.0064e-02,0.0505078
3.0096e-02,0.0502734
3.0128e-02,0.0490391
3.0160e-02,0.0484922
3.0192e-02,0.0475547
3.0224e-02,0.0494453
3.0256e-02,0.0509609
3.0288e-02,0.0514766
3.0320e-02,0.0519531
3.0352e-02,0.0533672
3.0384e-02,0.0541953
3.0416e-02,0.0541484
3.0448e-02,0.0540234
3.0480e-02,0.0540937
3.0512e-02,0.0526094
3.0544e-02,0.0486875
3.0576e-02,0.0493437
3.0608e-02,0.0518437
3.0640e-02,0.0507187
3.0672e-02,0.0491953
3.0704e-02,0.0484531
3.0736e-02,0.0510312
3.0768e-02,0.0508516
3.0800e-02,0.0531328
3.0832e-02,0.05325
3.0864e-02,0.0533828
3.0896e-02,0.0530625
3.0928e-02,0.0552812
3.0960e-02,0.0562266
3.0992e-02,0.05475
3.1024e-02,0.0564297
3.1056e-02,0.0578984
3.1088e-02,0.0566406
3.1120e-02,0.0585156
3.1152e-02,0.0603828
3.1184e-02,0.0632656
3.1216e-02,0.0652656
3.1248e-02,0.0670391
3.1280e-02,0.0669453
3.1312e-02,0.0682812
3.1344e-02,0.0736641
3.1376e-02,0.0777109
3.1408e-02,0.0821953
3.1440e-02,0.0861328
3.1472e-02,0.0896328
3.1504e-02,0.0944844
3.1536e-02,0.0956875
3.1568e-02,0.100125
3.1600e-02,0.103437
3.1632e-02,0.109234
3.1664e-02,0.115242
3.1696e-02,0.121195
3.1728e-02,0.121555
3.1760e-02,0.127352
3.1792e-02,0.134031
3.1824e-02,0.139687
3.1856e-02,0.145672
3.1888e-02,0.14893
3.1920e-02,0.149031
3.1952e-02,0.15375
3.1984e-02,0.157094
3.2016e-02,0.16543
3.2048e-02,0.167328
3.2080e-02,0.167109
3.2112e-02,0.164133
3.2144e-02,0.167539
3.2176e-02,0.167859
3.2208e-02,0.167586
3.2240e-02,0.167555
3.2272e-02,0.166414
3.2304e-02,0.161781
3.2336e-02,0.156734
3.2368e-02,0.146078
3.2400e-02,0.143898
3.2432e-02,0.140562
3.2464e-02,0.13268
3.2496e-02,0.127227
3.2528e-02,0.118883
3.2560e-02,0.108352
3.2592e-02,0.100961
3.2624e-02,0.0972187
3.2656e-02,0.0903281
3.2688e-02,0.0849062
3.2720e-02,0.0807812
3.2752e-02,0.0738672
3.2784e-02,0.0705
3.2816e-02,0.06875
3.2848e-02,0.06525
3.2880e-02,0.0616641
3.2912e-02,0.0559375
3.2944e-02,0.0532109
3.2976e-02,0.0511172
3.3008e-02,0.049
3.3040e-02,0.0501094
3.3072e-02,0.0519922
3.3104e-02,0.0521641
3.3136e-02,0.0518359
3.3168e-02,0.0498516
3.3200e-02,0.0476328
3.3232e-02,0.0486641
3.3264e-02,0.0491094
3.3296e-02,0.0481719
3.3328e-02,0.0479844
3.3360e-02,0.0467187
3.3392e-02,0.0472031
3.3424e-02,0.0474531
3.3456e-02,0.0471016
3.3488e-02,0.0463047
3.3520e-02,0.0480547
3.3552e-02,0.0491875
3.3584e-02,0.0504219
3.3616e-02,0.0526406
3.3648e-02,0.0518828
3.3680e-02,0.0541562
3.3712e-02,0.0530391
3.3744e-02,0.0514141
3.3776e-02,0.0522891
3.3808e-02,0.0522266
3.3840e-02,0.0514844
3.3872e-02,0.0522344
3.3904e-02,0.0528437
3.3936e-02,0.0535625
3.3968e-02,0.0538359
3.4000e-02,0.0543437
3.4032e-02,0.053875
3.4064e-02,0.0540391
3.4096e-02,0.0533906
3.4128e-02,0.0531953
3.4160e-02,0.0537422
3.4192e-02,0.0553516
3.4224e-02,0.0582812
3.4256e-02,0.0595391
3.4288e-02,0.0577031
3.4320e-02,0.0580234
3.4352e-02,0.0581875
3.4384e-02,0.0597578
3.4416e-02,0.0583594
3.4448e-02,0.0594766
3.4480e-02,0.0604687
3.4512e-02,0.0631953
3.4544e-02,0.0657031
3.4576e-02,0.0661484
3.4608e-02,0.06575
3.4640e-02,0.0672109
3.4672e-02,0.0651328
3.4704e-02,0.0651641
3.4736e-02,0.066
3.4768e-02,0.0681016
3.4800e-02,0.0718437
3.4832e-02,0.0739297
3.4864e-02,0.0770312
3.4896e-02,0.0797266
3.4928e-02,0.0831719
3.4960e-02,0.0845937
3.4992e-02,0.0874844
3.5024e-02,0.0887578
3.5056e-02,0.0927891
3.5088e-02,0.0961562
3.5120e-02,0.0998281
3.5152e-02,0.104758
3.5184e-02,0.106781
3.5216e-02,0.107633
3.5248e-02,0.10493
3.5280e-02,0.107336
3.5312e-02,0.109625
3.5344e-02,0.111086
3.5376e-02,0.10843
3.5408e-02,0.106969
3.5440e-02,0.106102
3.5472e-02,0.104766
3.5504e-02,0.100062
3.5536e-02,0.0970234
3.5568e-02,0.0968203
3.5600e-02,0.0926094
3.5632e-02,0.0899219
3.5664e-02,0.0866094
3.5696e-02,0.0818203
3.5728e-02,0.0787969
3.5760e-02,0.0771484
3.5792e-02,0.0784062
3.5824e-02,0.0750937
3.5856e-02,0.0696484
3.5888e-02,0.0634453
3.5920e-02,0.0605234
3.5952e-02,0.0587266
3.5984e-02,0.0578828
3.6016e-02,0.057625
3.6048e-02,0.0564219
3.6080e-02,0.0544531
3.6112e-02,0.0544297
3.6144e-02,0.0530312
3.6176e-02,0.0519766
3.6208e-02,0.053875
3.6240e-02,0.0552031
3.6272e-02,0.0541875
3.6304e-02,0.0515859
3.6336e-02,0.0498516
3.6368e-02,0.0509062
3.6400e-02,0.0509062
3.6432e-02,0.0505
3.6464e-02,0.0488594
3.6496e-02,0.0459297
3.6528e-02,0.0445547
3.6560e-02,0.0442266
3.6592e-02,0.0437891
3.6624e-02,0.0421484
3.6656e-02,0.0414766
3.6688e-02,0.0419219
3.6720e-02,0.0423437
3.6752e-02,0.0417344
3.6784e-02,0.0416328
3.6816e-02,0.0417969
3.6848e-02,0.0430234
3.6880e-02,0.0436406
3.6912e-02,0.0436484
3.6944e-02,0.0429375
3.6976e-02,0.0408281
3.7008e-02,0.0390859
3.7040e-02,0.0386875
3.7072e-02,0.0374687
3.7104e-02,0.0374062
3.7136e-02,0.0374844
3.7168e-02,0.0386094
3.7200e-02,0.0373594
3.7232e-02,0.0377031
3.7264e-02,0.0361328
3.7296e-02,0.0350469
3.7328e-02,0.0344453
3.7360e-02,0.0353359
3.7392e-02,0.0364219
3.7424e-02,0.0367891
3.7456e-02,0.037875
3.7488e-02,0.0389062
3.7520e-02,0.0393984
3.7552e-02,0.0401016
3.7584e-02,0.0407734
3.7616e-02,0.0414219
3.7648e-02,0.0412969
3.7680e-02,0.0411797
3.7712e-02,0.0415625
3.7744e-02,0.0428437
3.7776e-02,0.0444531
3.7808e-02,0.0473047
3.7840e-02,0.0450937
3.7872e-02,0.0457266
3.7904e-02,0.0470937
3.7936e-02,0.0456641
3.7968e-02,0.0446328
3.8000e-02,0.0439531
3.8032e-02,0.0461797
3.8064e-02,0.0478437
3.8096e-02,0.0488203
3.8128e-02,0.0472031
3.8160e-02,0.0477891
3.8192e-02,0.0482969
3.8224e-02,0.0476406
3.8256e-02,0.0468516
3.8288e-02,0.0459922
3.8320e-02,0.0474609
3.8352e-02,0.0492969
3.8384e-02,0.0479687
3.8416e-02,0.0463437
3.8448e-02,0.0462812
3.8480e-02,0.0455859
3.8512e-02,0.0453359
3.8544e-02,0.0435781
3.8576e-02,0.0428437
3.8608e-02,0.0438437
3.8640e-02,0.0435547
3.8672e-02,0.0411094
3.8704e-02,0.0397656
3.8736e-02,0.0395312
3.8768e-02,0.0403984
3.8800e-02,0.0407344
3.8832e-02,0.0402656
3.8864e-02,0.0384922
3.8896e-02,0.0375781
3.8928e-02,0.0389531
3.8960e-02,0.0407891
3.8992e-02,0.0408984
3.9024e-02,0.0395078
3.9056e-02,0.0402578
3.9088e-02,0.0404141
3.9120e-02,0.0416953
3.9152e-02,0.0412266
3.9184e-02,0.0396016
3.9216e-02,0.038625
3.9248e-02,0.0393672
3.9280e-02,0.0414687
3.9312e-02,0.0401328
3.9344e-02,0.0413203
3.9376e-02,0.0423437
3.9408e-02,0.0438047
3.9440e-02,0.0455078
3.9472e-02,0.0471094
3.9504e-02,0.0490312
3.9536e-02,0.0502422
3.9568e-02,0.0514297
3.9600e-02,0.0506953
3.9632e-02,0.0482969
3.9664e-02,0.0480781
3.9696e-02,0.0478281
3.9728e-02,0.0464922
3.9760e-02,0.0464297
3.9792e-02,0.0459297
3.9824e-02,0.0463203
3.9856e-02,0.0465859
3.9888e-02,0.0462969
3.9920e-02,0.0475
3.9952e-02,0.0488906
3.9984e-02,0.0509141
4.0016e-02,0.0514219
4.0048e-02,0.0520859
4.0080e-02,0.0556562
4.0112e-02,0.0565859
4.0144e-02,0.0560781
4.0176e-02,0.0566797
4.0208e-02,0.0590703
4.0240e-02,0.0643594
4.0272e-02,0.0652266
4.0304e-02,0.0656406
4.0336e-02,0.0652578
4.0368e-02,0.0650937
4.0400e-02,0.0683906
4.0432e-02,0.0712578
4.0464e-02,0.0764453
4.0496e-02,0.0798125
4.0528e-02,0.0843828
4.0560e-02,0.0872812
4.0592e-02,0.0868828
4.0624e-02,0.0913203
4.0656e-02,0.0956719
4.0688e-02,0.0959219
4.0720e-02,0.0972656
4.0752e-02,0.10375
4.0784e-02,0.110461
4.0816e-02,0.110484
4.0848e-02,0.109102
4.0880e-02,0.111422
4.0912e-02,0.111031
4.0944e-02,0.11318
4.0976e-02,0.112297
4.1008e-02,0.113852
4.1040e-02,0.118484
4.1072e-02,0.117328
4.1104e-02,0.117461
4.1136e-02,0.113578
4.1168e-02,0.109539
4.1200e-02,0.109508
4.1232e-02,0.106352
4.1264e-02,0.103273
4.1296e-02,0.100023
4.1328e-02,0.0982734
4.1360e-02,0.0955469
4.1392e-02,0.0911484
4.1424e-02,0.0878281
4.1456e-02,0.0843359
4.1488e-02,0.0824531
4.1520e-02,0.0780937
4.1552e-02,0.0741328
4.1584e-02,0.0686562
4.1616e-02,0.0656328
4.1648e-02,0.0637109
4.1680e-02,0.0615547
4.1712e-02,0.0602812
4.1744e-02,0.0575234
4.1776e-02,0.0564687
4.1808e-02,0.0539375
4.1840e-02,0.0533359
4.1872e-02,0.0524766
4.1904e-02,0.0527344
4.1936e-02,0.0515
4.1968e-02,0.0499297
4.2000e-02,0.049
4.2032e-02,0.0476172
4.2064e-02,0.0463281
4.2096e-02,0.0454297
4.2128e-02,0.0432344
4.2160e-02,0.0428125
4.2192e-02,0.0426875
4.2224e-02,0.0409141
4.2256e-02,0.0405156
4.2288e-02,0.0431641
4.2320e-02,0.0426953
4.2352e-02,0.0431641
4.2384e-02,0.0457344
4.2416e-02,0.0466641
4.2448e-02,0.0448906
4.2480e-02,0.0441328
4.2512e-02,0.0423516
4.2544e-02,0.0406484
4.2576e-02,0.0399141
4.2608e-02,0.0406953
4.2640e-02,0.0415703
4.2672e-02,0.0417422
4.2704e-02,0.0420781
4.2736e-02,0.0451953
4.2768e-02,0.045875
4.2800e-02,0.0464844
4.2832e-02,0.0463437
4.2864e-02,0.0475312
4.2896e-02,0.049375
4.2928e-02,0.0497812
4.2960e-02,0.0513594
4.2992e-02,0.0543359
4.3024e-02,0.0562969
4.3056e-02,0.0560391
4.3088e-02,0.0577969
4.3120e-02,0.05975
4.3152e-02,0.0611562
4.3184e-02,0.0646016
4.3216e-02,0.0668359
4.3248e-02,0.0695859
4.3280e-02,0.0702734
4.3312e-02,0.0708047
4.3344e-02,0.0734297
4.3376e-02,0.0770859
4.3408e-02,0.0805312
4.3440e-02,0.0830156
4.3472e-02,0.0864375
4.3504e-02,0.0888281
4.3536e-02,0.0930234
4.3568e-02,0.0949062
4.3600e-02,0.0997422
4.3632e-02,0.103211
