432Lab4/Yellow_182A_sigma.csv

Model,MSO2024
Firmware Version,1.52

Point Format,Y
Horizontal Units,S
Horizontal Scale,0.01
Sample Interval,3.2e-05
Filter Frequency,2e+08
Record Length,3125
Gating,0.0% to 100.0%
Probe Attenuation,1
Vertical Units,V
Vertical Offset,0
Vertical Scale,0.02
Label,
TIME,CH1
1.3200e-02,0.0327031
1.3232e-02,0.0329781
1.3264e-02,0.0335062
1.3296e-02,0.0341562
1.3328e-02,0.0335687
1.3360e-02,0.03215
1.3392e-02,0.0317187
1.3424e-02,0.0327156
1.3456e-02,0.0340469
1.3488e-02,0.0334844
1.3520e-02,0.0332937
1.3552e-02,0.0322875
1.3584e-02,0.0324156
1.3616e-02,0.03235
1.3648e-02,0.0325344
1.3680e-02,0.032875
1.3712e-02,0.0333687
1.3744e-02,0.0325937
1.3776e-02,0.0323187
1.3808e-02,0.0328469
1.3840e-02,0.0327219
1.3872e-02,0.0329344
1.3904e-02,0.0343812
1.3936e-02,0.0338437
1.3968e-02,0.0337469
1.4000e-02,0.0330437
1.4032e-02,0.0322219
1.4064e-02,0.0319812
1.4096e-02,0.0319281
1.4128e-02,0.0320875
1.4160e-02,0.0324969
1.4192e-02,0.0324062
1.4224e-02,0.0329281
1.4256e-02,0.0320844
1.4288e-02,0.0317812
1.4320e-02,0.0309469
1.4352e-02,0.0313687
1.4384e-02,0.0312781
1.4416e-02,0.0311812
1.4448e-02,0.0308375
1.4480e-02,0.0321594
1.4512e-02,0.0326
1.4544e-02,0.0320031
1.4576e-02,0.0318781
1.4608e-02,0.0323594
1.4640e-02,0.0324906
1.4672e-02,0.0329156
1.4704e-02,0.0330312
1.4736e-02,0.0337156
1.4768e-02,0.0341125
1.4800e-02,0.034025
1.4832e-02,0.0345719
1.4864e-02,0.0344625
1.4896e-02,0.0338625
1.4928e-02,0.0341844
1.4960e-02,0.0343844
1.4992e-02,0.0342719
1.5024e-02,0.0343094
1.5056e-02,0.0344719
1.5088e-02,0.0361
1.5120e-02,0.0365844
1.5152e-02,0.0363687
1.5184e-02,0.037675
1.5216e-02,0.03785
1.5248e-02,0.0379187
1.5280e-02,0.03865
1.5312e-02,0.0392687
1.5344e-02,0.0378406
1.5376e-02,0.03785
1.5408e-02,0.0381625
1.5440e-02,0.0392687
1.5472e-02,0.0412719
1.5504e-02,0.0413969
1.5536e-02,0.0427469
1.5568e-02,0.0420281
1.5600e-02,0.040475
1.5632e-02,0.0418
1.5664e-02,0.043125
1.5696e-02,0.0438625
1.5728e-02,0.0455031
1.5760e-02,0.0475906
1.5792e-02,0.0486031
1.5824e-02,0.0484094
1.5856e-02,0.0474906
1.5888e-02,0.0478906
1.5920e-02,0.0474687
1.5952e-02,0.0481469
1.5984e-02,0.0502875
1.6016e-02,0.0526937
1.6048e-02,0.0537937
1.6080e-02,0.0533094
1.6112e-02,0.0537781
1.6144e-02,0.0550156
1.6176e-02,0.0551531
1.6208e-02,0.0562
1.6240e-02,0.0582656
1.6272e-02,0.0608625
1.6304e-02,0.0628719
1.6336e-02,0.0638344
1.6368e-02,0.0632312
1.6400e-02,0.0665562
1.6432e-02,0.0690156
1.6464e-02,0.069075
1.6496e-02,0.0679469
1.6528e-02,0.0695812
1.6560e-02,0.0695531
1.6592e-02,0.0682594
1.6624e-02,0.0684156
1.6656e-02,0.0691906
1.6688e-02,0.0700594
1.6720e-02,0.0697437
1.6752e-02,0.0693844
1.6784e-02,0.0697344
1.6816e-02,0.0694375
1.6848e-02,0.0675844
1.6880e-02,0.0662437
1.6912e-02,0.064925
1.6944e-02,0.0647531
1.6976e-02,0.0641062
1.7008e-02,0.0624031
1.7040e-02,0.0607719
1.7072e-02,0.0579406
1.7104e-02,0.0562562
1.7136e-02,0.0559281
1.7168e-02,0.0545125
1.7200e-02,0.0535125
1.7232e-02,0.0531844
1.7264e-02,0.050225
1.7296e-02,0.0473
1.7328e-02,0.0462687
1.7360e-02,0.0445344
1.7392e-02,0.0439219
1.7424e-02,0.0435406
1.7456e-02,0.042475
1.7488e-02,0.0411375
1.7520e-02,0.0404625
1.7552e-02,0.041025
1.7584e-02,0.0392469
1.7616e-02,0.0382406
1.7648e-02,0.0384344
1.7680e-02,0.0382156
1.7712e-02,0.0376562
1.7744e-02,0.0377969
1.7776e-02,0.0364687
1.7808e-02,0.0359344
1.7840e-02,0.0356312
1.7872e-02,0.0356062
1.7904e-02,0.0342031
1.7936e-02,0.0340562
1.7968e-02,0.0339969
1.8000e-02,0.034025
1.8032e-02,0.0338469
1.8064e-02,0.0336
1.8096e-02,0.0329031
1.8128e-02,0.0322875
1.8160e-02,0.0315125
1.8192e-02,0.0306812
1.8224e-02,0.0307937
1.8256e-02,0.0308094
1.8288e-02,0.0302719
1.8320e-02,0.0304906
1.8352e-02,0.0303875
1.8384e-02,0.0299281
1.8416e-02,0.0306437
1.8448e-02,0.0313875
1.8480e-02,0.0318094
1.8512e-02,0.0304594
1.8544e-02,0.030675
1.8576e-02,0.0305375
1.8608e-02,0.0301687
1.8640e-02,0.0290344
1.8672e-02,0.0288125
1.8704e-02,0.0293719
1.8736e-02,0.0290406
1.8768e-02,0.0281125
1.8800e-02,0.0280219
1.8832e-02,0.0281937
1.8864e-02,0.0288094
1.8896e-02,0.0290031
1.8928e-02,0.02865
1.8960e-02,0.0288
1.8992e-02,0.0289531
1.9024e-02,0.0276344
1.9056e-02,0.0271219
1.9088e-02,0.0281187
1.9120e-02,0.0293937
1.9152e-02,0.0307437
1.9184e-02,0.030725
1.9216e-02,0.0300625
1.9248e-02,0.0295219
1.9280e-02,0.0286062
1.9312e-02,0.0289531
1.9344e-02,0.0293125
1.9376e-02,0.0301094
1.9408e-02,0.0300656
1.9440e-02,0.0295969
1.9472e-02,0.029475
1.9504e-02,0.0293781
1.9536e-02,0.0293312
1.9568e-02,0.0306281
1.9600e-02,0.0306094
1.9632e-02,0.0305031
1.9664e-02,0.0288719
1.9696e-02,0.0288094
1.9728e-02,0.0290187
1.9760e-02,0.0288156
1.9792e-02,0.0284531
1.9824e-02,0.0292187
1.9856e-02,0.0286625
1.9888e-02,0.0290437
1.9920e-02,0.0296375
1.9952e-02,0.02975
1.9984e-02,0.0299687
2.0016e-02,0.0303
2.0048e-02,0.0300344
2.0080e-02,0.0302312
2.0112e-02,0.0302156
2.0144e-02,0.03055
2.0176e-02,0.0313406
2.0208e-02,0.0308531
2.0240e-02,0.0314656
2.0272e-02,0.0315312
2.0304e-02,0.0322656
2.0336e-02,0.0326062
2.0368e-02,0.0331562
2.0400e-02,0.0317906
2.0432e-02,0.0302469
2.0464e-02,0.0295094
2.0496e-02,0.0303031
2.0528e-02,0.0306094
2.0560e-02,0.0299719
2.0592e-02,0.029
2.0624e-02,0.0281719
2.0656e-02,0.0296406
2.0688e-02,0.0298031
2.0720e-02,0.0302594
2.0752e-02,0.0299687
2.0784e-02,0.0297062
2.0816e-02,0.0289875
2.0848e-02,0.029775
2.0880e-02,0.0297531
2.0912e-02,0.0302937
2.0944e-02,0.0308094
2.0976e-02,0.0310437
2.1008e-02,0.0301187
2.1040e-02,0.0299719
2.1072e-02,0.0294719
2.1104e-02,0.0299469
2.1136e-02,0.0303969
2.1168e-02,0.0302781
2.1200e-02,0.0300469
2.1232e-02,0.0295719
2.1264e-02,0.0293
2.1296e-02,0.0290344
2.1328e-02,0.0289062
2.1360e-02,0.0288406
2.1392e-02,0.0288531
2.1424e-02,0.0292344
2.1456e-02,0.029825
2.1488e-02,0.0289125
2.1520e-02,0.0283062
2.1552e-02,0.0292437
2.1584e-02,0.0308656
2.1616e-02,0.031025
2.1648e-02,0.03055
2.1680e-02,0.0299031
2.1712e-02,0.0303281
2.1744e-02,0.0307
2.1776e-02,0.0322156
2.1808e-02,0.0315156
2.1840e-02,0.0309781
2.1872e-02,0.0305969
2.1904e-02,0.03075
2.1936e-02,0.0317219
2.1968e-02,0.0320531
2.2000e-02,0.0328437
2.2032e-02,0.0316875
2.2064e-02,0.0317
2.2096e-02,0.0320875
2.2128e-02,0.0317812
2.2160e-02,0.0311187
2.2192e-02,0.0306219
2.2224e-02,0.0305875
2.2256e-02,0.0302125
2.2288e-02,0.0301875
2.2320e-02,0.031475
2.2352e-02,0.0320281
2.2384e-02,0.0326219
2.2416e-02,0.0330062
2.2448e-02,0.0329844
2.2480e-02,0.0349937
2.2512e-02,0.0349719
2.2544e-02,0.0346406
2.2576e-02,0.0346531
2.2608e-02,0.0354594
2.2640e-02,0.0363094
2.2672e-02,0.0376625
2.2704e-02,0.0383187
2.2736e-02,0.0391594
2.2768e-02,0.0396469
2.2800e-02,0.0396312
2.2832e-02,0.0393594
2.2864e-02,0.0402312
2.2896e-02,0.0409062
2.2928e-02,0.0426875
2.2960e-02,0.0438687
2.2992e-02,0.044925
2.3024e-02,0.0437
2.3056e-02,0.0433469
2.3088e-02,0.0432187
2.3120e-02,0.0443031
2.3152e-02,0.0459062
2.3184e-02,0.0447937
2.3216e-02,0.0439875
2.3248e-02,0.0445719
2.3280e-02,0.0451875
2.3312e-02,0.0483969
2.3344e-02,0.0502687
2.3376e-02,0.0506312
2.3408e-02,0.0511531
2.3440e-02,0.0514406
2.3472e-02,0.0533844
2.3504e-02,0.0556562
2.3536e-02,0.0569219
2.3568e-02,0.0577875
2.3600e-02,0.0585562
2.3632e-02,0.0596781
2.3664e-02,0.0606937
2.3696e-02,0.0626281
2.3728e-02,0.0650094
2.3760e-02,0.0659531
2.3792e-02,0.063975
2.3824e-02,0.0617281
2.3856e-02,0.0614187
2.3888e-02,0.0633719
2.3920e-02,0.0646875
2.3952e-02,0.0656312
2.3984e-02,0.0665687
2.4016e-02,0.0664375
2.4048e-02,0.0658625
2.4080e-02,0.0666312
2.4112e-02,0.0688625
2.4144e-02,0.0688312
2.4176e-02,0.0676437
2.4208e-02,0.0672031
2.4240e-02,0.0661656
2.4272e-02,0.0645187
2.4304e-02,0.0636906
2.4336e-02,0.06275
2.4368e-02,0.0608937
2.4400e-02,0.06065
2.4432e-02,0.0601437
2.4464e-02,0.0584219
2.4496e-02,0.0567594
2.4528e-02,0.0548844
2.4560e-02,0.0535094
2.4592e-02,0.0514344
2.4624e-02,0.05035
2.4656e-02,0.0491406
2.4688e-02,0.0474719
2.4720e-02,0.0465719
2.4752e-02,0.0447312
2.4784e-02,0.0441719
2.4816e-02,0.0433406
2.4848e-02,0.0426062
2.4880e-02,0.0417969
2.4912e-02,0.0404281
2.4944e-02,0.0391687
2.4976e-02,0.0391719
2.5008e-02,0.0382344
2.5040e-02,0.0392156
2.5072e-02,0.0391937
2.5104e-02,0.0389562
2.5136e-02,0.0386094
2.5168e-02,0.0385969
2.5200e-02,0.0377656
2.5232e-02,0.0372812
2.5264e-02,0.0391031
2.5296e-02,0.0386344
2.5328e-02,0.0390062
2.5360e-02,0.0395156
2.5392e-02,0.0385344
2.5424e-02,0.0382562
2.5456e-02,0.0374375
2.5488e-02,0.0368937
2.5520e-02,0.0352937
2.5552e-02,0.0349094
2.5584e-02,0.0365906
2.5616e-02,0.0371937
2.5648e-02,0.0364031
2.5680e-02,0.0364937
2.5712e-02,0.0364937
2.5744e-02,0.0376844
2.5776e-02,0.0370219
2.5808e-02,0.0362062
2.5840e-02,0.0358781
2.5872e-02,0.0363875
2.5904e-02,0.0352156
2.5936e-02,0.0347875
2.5968e-02,0.0355062
2.6000e-02,0.0352906
2.6032e-02,0.0341531
2.6064e-02,0.0332875
2.6096e-02,0.0341437
2.6128e-02,0.0339562
2.6160e-02,0.0337312
2.6192e-02,0.0336531
2.6224e-02,0.0345312
2.6256e-02,0.0354344
2.6288e-02,0.0366656
2.6320e-02,0.037475
2.6352e-02,0.038775
2.6384e-02,0.0387031
2.6416e-02,0.0380906
2.6448e-02,0.0375062
2.6480e-02,0.0378594
2.6512e-02,0.0368844
2.6544e-02,0.0374187
2.6576e-02,0.0377281
2.6608e-02,0.0377812
2.6640e-02,0.0379469
2.6672e-02,0.0385562
2.6704e-02,0.0389906
2.6736e-02,0.040425
2.6768e-02,0.0405
2.6800e-02,0.0419531
2.6832e-02,0.0438281
2.6864e-02,0.0448625
2.6896e-02,0.0442812
2.6928e-02,0.0447094
2.6960e-02,0.045675
2.6992e-02,0.0477875
2.7024e-02,0.0513219
2.7056e-02,0.0529125
2.7088e-02,0.0555656
2.7120e-02,0.0558844
2.7152e-02,0.0556625
2.7184e-02,0.0546281
2.7216e-02,0.0547219
2.7248e-02,0.0565125
2.7280e-02,0.0582219
2.7312e-02,0.060875
2.7344e-02,0.0624281
2.7376e-02,0.062075
2.7408e-02,0.0634719
2.7440e-02,0.0652375
2.7472e-02,0.0675531
2.7504e-02,0.0672125
2.7536e-02,0.0680594
2.7568e-02,0.0677312
2.7600e-02,0.0688906
2.7632e-02,0.0687594
2.7664e-02,0.0677719
2.7696e-02,0.0680812
2.7728e-02,0.06635
2.7760e-02,0.0648687
2.7792e-02,0.0635406
2.7824e-02,0.0620219
2.7856e-02,0.0589219
2.7888e-02,0.05925
2.7920e-02,0.0576281
2.7952e-02,0.0546406
2.7984e-02,0.0516969
2.8016e-02,0.0492406
2.8048e-02,0.0465219
2.8080e-02,0.0446219
2.8112e-02,0.0435406
2.8144e-02,0.0421344
2.8176e-02,0.0406156
2.8208e-02,0.0398125
2.8240e-02,0.0392
2.8272e-02,0.0380625
2.8304e-02,0.0371156
2.8336e-02,0.0367125
2.8368e-02,0.0355062
2.8400e-02,0.0353625
2.8432e-02,0.0353062
2.8464e-02,0.0346562
2.8496e-02,0.0347594
2.8528e-02,0.0341281
2.8560e-02,0.0338062
2.8592e-02,0.0330531
2.8624e-02,0.0329969
2.8656e-02,0.0335969
2.8688e-02,0.0333156
2.8720e-02,0.0331687
2.8752e-02,0.0323687
2.8784e-02,0.0326
2.8816e-02,0.0327031
2.8848e-02,0.0322437
2.8880e-02,0.0321094
2.8912e-02,0.0319031
2.8944e-02,0.031525
2.8976e-02,0.0310781
2.9008e-02,0.0314031
2.9040e-02,0.0312219
2.9072e-02,0.0320281
2.9104e-02,0.0324906
2.9136e-02,0.0332469
2.9168e-02,0.0325062
2.9200e-02,0.0334156
2.9232e-02,0.0329594
2.9264e-02,0.0326375
2.9296e-02,0.0319531
2.9328e-02,0.0314156
2.9360e-02,0.0311906
2.9392e-02,0.0315906
2.9424e-02,0.0320062
2.9456e-02,0.0326469
2.9488e-02,0.0332094
2.9520e-02,0.0319125
2.9552e-02,0.0311562
2.9584e-02,0.0308281
2.9616e-02,0.0315594
2.9648e-02,0.0318812
2.9680e-02,0.0319937
2.9712e-02,0.03195
2.9744e-02,0.0329844
2.9776e-02,0.03265
2.9808e-02,0.0327406
2.9840e-02,0.0331219
2.9872e-02,0.0324469
2.9904e-02,0.0316625
2.9936e-02,0.031675
2.9968e-02,0.0313875
3.0000e-02,0.0316625
3.0032e-02,0.0323812
3.0064e-02,0.0327687
3.0096e-02,0.0330375
3.0128e-02,0.0324312
3.0160e-02,0.0313844
3.0192e-02,0.0326156
3.0224e-02,0.0333187
3.0256e-02,0.0330719
3.0288e-02,0.0322
3.0320e-02,0.0317031
3.0352e-02,0.0328781
3.0384e-02,0.0330031
3.0416e-02,0.0326937
3.0448e-02,0.0329312
3.0480e-02,0.0333187
3.0512e-02,0.0336687
3.0544e-02,0.0329094
3.0576e-02,0.0316719
3.0608e-02,0.0312562
3.0640e-02,0.0311969
3.0672e-02,0.0307812
3.0704e-02,0.0306156
3.0736e-02,0.0307844
3.0768e-02,0.0315625
3.0800e-02,0.0322
3.0832e-02,0.0329531
3.0864e-02,0.0320156
3.0896e-02,0.031975
3.0928e-02,0.0322562
3.0960e-02,0.0318375
3.0992e-02,0.0318437
3.1024e-02,0.0320187
3.1056e-02,0.0322312
3.1088e-02,0.0322375
3.1120e-02,0.0316844
3.1152e-02,0.0322312
3.1184e-02,0.0321281
3.1216e-02,0.0324875
3.1248e-02,0.0326406
3.1280e-02,0.0329625
3.1312e-02,0.0323062
3.1344e-02,0.0314719
3.1376e-02,0.0309906
3.1408e-02,0.0315469
3.1440e-02,0.0314187
3.1472e-02,0.0321969
3.1504e-02,0.031775
3.1536e-02,0.0306562
3.1568e-02,0.0299437
3.1600e-02,0.0299656
3.1632e-02,0.0304219
3.1664e-02,0.0303469
3.1696e-02,0.0304656
3.1728e-02,0.0309812
3.1760e-02,0.0309469
3.1792e-02,0.0308812
3.1824e-02,0.0300531
3.1856e-02,0.0306281
3.1888e-02,0.0311
3.1920e-02,0.0308656
3.1952e-02,0.0315844
3.1984e-02,0.0321937
3.2016e-02,0.0323531
3.2048e-02,0.0327437
3.2080e-02,0.0327625
3.2112e-02,0.0322844
3.2144e-02,0.0313937
3.2176e-02,0.0306656
3.2208e-02,0.0296594
3.2240e-02,0.0316969
3.2272e-02,0.0335094
3.2304e-02,0.0337375
3.2336e-02,0.0337281
3.2368e-02,0.0335906
3.2400e-02,0.0334719
3.2432e-02,0.0335687
3.2464e-02,0.0329531
3.2496e-02,0.0331344
3.2528e-02,0.032675
3.2560e-02,0.0327312
3.2592e-02,0.0330937
3.2624e-02,0.0330469
3.2656e-02,0.0334594
3.2688e-02,0.0333094
3.2720e-02,0.0332531
3.2752e-02,0.0332781
3.2784e-02,0.0334719
3.2816e-02,0.0339094
3.2848e-02,0.0328906
3.2880e-02,0.033675
3.2912e-02,0.0347625
3.2944e-02,0.0367906
3.2976e-02,0.0375812
3.3008e-02,0.0378906
3.3040e-02,0.0382625
3.3072e-02,0.0375844
3.3104e-02,0.0377594
3.3136e-02,0.0389312
3.3168e-02,0.0411937
3.3200e-02,0.0429812
3.3232e-02,0.0437562
3.3264e-02,0.0437125
3.3296e-02,0.0439312
3.3328e-02,0.0447594
3.3360e-02,0.0463812
3.3392e-02,0.0470156
3.3424e-02,0.0480656
3.3456e-02,0.0496719
3.3488e-02,0.0517406
3.3520e-02,0.053825
3.3552e-02,0.0542156
3.3584e-02,0.0535875
3.3616e-02,0.055775
3.3648e-02,0.0574906
3.3680e-02,0.0591031
3.3712e-02,0.0600469
3.3744e-02,0.0601937
3.3776e-02,0.060375
3.3808e-02,0.0618094
3.3840e-02,0.0634781
3.3872e-02,0.0639187
3.3904e-02,0.063175
3.3936e-02,0.0626781
3.3968e-02,0.0617531
3.4000e-02,0.0610219
3.4032e-02,0.0617969
3.4064e-02,0.06125
3.4096e-02,0.0617781
3.4128e-02,0.060625
3.4160e-02,0.0600187
3.4192e-02,0.0590562
3.4224e-02,0.0574437
3.4256e-02,0.0558344
3.4288e-02,0.0547375
3.4320e-02,0.0534
3.4352e-02,0.0513344
3.4384e-02,0.0498125
3.4416e-02,0.0478594
3.4448e-02,0.0459844
3.4480e-02,0.0453687
3.4512e-02,0.0433219
3.4544e-02,0.0423687
3.4576e-02,0.0413906
3.4608e-02,0.040425
3.4640e-02,0.0390719
3.4672e-02,0.0382781
3.4704e-02,0.0385687
3.4736e-02,0.0376094
3.4768e-02,0.0374844
3.4800e-02,0.0370187
3.4832e-02,0.03655
3.4864e-02,0.0354625
3.4896e-02,0.0349187
3.4928e-02,0.0343531
3.4960e-02,0.0343687
3.4992e-02,0.0337656
3.5024e-02,0.033275
3.5056e-02,0.0328469
3.5088e-02,0.032925
3.5120e-02,0.0323875
3.5152e-02,0.032175
3.5184e-02,0.0322469
3.5216e-02,0.032425
3.5248e-02,0.0317906
3.5280e-02,0.0317062
3.5312e-02,0.0315375
3.5344e-02,0.0311875
3.5376e-02,0.0312187
3.5408e-02,0.0312969
3.5440e-02,0.0315
3.5472e-02,0.0310281
3.5504e-02,0.0305625
3.5536e-02,0.0304219
3.5568e-02,0.03085
3.5600e-02,0.0305469
3.5632e-02,0.0304687
3.5664e-02,0.0302906
3.5696e-02,0.03105
3.5728e-02,0.0317531
3.5760e-02,0.0313906
3.5792e-02,0.0302937
3.5824e-02,0.0295812
3.5856e-02,0.0288719
3.5888e-02,0.0292156
3.5920e-02,0.0295156
3.5952e-02,0.0287281
3.5984e-02,0.0289187
3.6016e-02,0.029875
3.6048e-02,0.0303812
3.6080e-02,0.0304219
3.6112e-02,0.0304187
3.6144e-02,0.0306969
3.6176e-02,0.0308625
3.6208e-02,0.0301719
3.6240e-02,0.0303125
3.6272e-02,0.0304719
3.6304e-02,0.0303437
3.6336e-02,0.0312
3.6368e-02,0.0317531
3.6400e-02,0.0310375
3.6432e-02,0.0305781
3.6464e-02,0.0301281
3.6496e-02,0.0302906
3.6528e-02,0.0310031
3.6560e-02,0.0326094
3.6592e-02,0.0333719
3.6624e-02,0.0328125
3.6656e-02,0.0324906
3.6688e-02,0.0320656
3.6720e-02,0.0327094
3.6752e-02,0.0329812
3.6784e-02,0.0331969
3.6816e-02,0.0339375
3.6848e-02,0.0344844
3.6880e-02,0.0339344
3.6912e-02,0.03415
3.6944e-02,0.0337312
3.6976e-02,0.0345406
3.7008e-02,0.0351812
3.7040e-02,0.0351687
3.7072e-02,0.0334875
3.7104e-02,0.0319312
3.7136e-02,0.0308406
3.7168e-02,0.0310406
3.7200e-02,0.0310187
3.7232e-02,0.0315187
3.7264e-02,0.0314875
3.7296e-02,0.0312187
3.7328e-02,0.0310062
3.7360e-02,0.0306437
3.7392e-02,0.031175
3.7424e-02,0.0310937
3.7456e-02,0.0309781
3.7488e-02,0.0307219
3.7520e-02,0.0310969
3.7552e-02,0.0313406
3.7584e-02,0.0308875
3.7616e-02,0.03135
3.7648e-02,0.0306906
3.7680e-02,0.0307062
3.7712e-02,0.0309
3.7744e-02,0.03205
3.7776e-02,0.0314906
3.7808e-02,0.0323406
3.7840e-02,0.0326312
3.7872e-02,0.0329125
3.7904e-02,0.0325937
3.7936e-02,0.0321406
3.7968e-02,0.0324875
3.8000e-02,0.0331969
3.8032e-02,0.0336437
3.8064e-02,0.0335719
3.8096e-02,0.0330781
3.8128e-02,0.0334781
3.8160e-02,0.0339562
3.8192e-02,0.034075
3.8224e-02,0.0343156
3.8256e-02,0.0344719
3.8288e-02,0.0354906
3.8320e-02,0.0365219
3.8352e-02,0.0372125
3.8384e-02,0.0367844
3.8416e-02,0.0363562
3.8448e-02,0.0364031
3.8480e-02,0.03705
3.8512e-02,0.0382406
3.8544e-02,0.0383687
3.8576e-02,0.0388656
3.8608e-02,0.0386562
3.8640e-02,0.0372344
3.8672e-02,0.0377375
3.8704e-02,0.0384906
3.8736e-02,0.0390844
3.8768e-02,0.0391187
3.8800e-02,0.0400094
3.8832e-02,0.0403125
3.8864e-02,0.0428594
3.8896e-02,0.0444625
3.8928e-02,0.0452156
3.8960e-02,0.0471437
3.8992e-02,0.0468625
3.9024e-02,0.0470937
3.9056e-02,0.0487531
3.9088e-02,0.0489594
3.9120e-02,0.0492219
3.9152e-02,0.0506062
3.9184e-02,0.0524
3.9216e-02,0.0538031
3.9248e-02,0.0547344
3.9280e-02,0.0566062
3.9312e-02,0.0579031
3.9344e-02,0.058675
3.9376e-02,0.0579812
3.9408e-02,0.0605594
3.9440e-02,0.0609125
3.9472e-02,0.0607156
3.9504e-02,0.0613719
3.9536e-02,0.0633219
3.9568e-02,0.0637125
3.9600e-02,0.0652187
3.9632e-02,0.0671406
3.9664e-02,0.0666125
3.9696e-02,0.0660469
3.9728e-02,0.0673406
3.9760e-02,0.0686906
3.9792e-02,0.0688656
3.9824e-02,0.0693094
3.9856e-02,0.0688781
3.9888e-02,0.0674531
3.9920e-02,0.0664156
3.9952e-02,0.0655625
3.9984e-02,0.0644344
4.0016e-02,0.061775
4.0048e-02,0.0596719
4.0080e-02,0.057225
4.0112e-02,0.0550187
4.0144e-02,0.0530969
4.0176e-02,0.0517531
4.0208e-02,0.0504812
4.0240e-02,0.0500875
4.0272e-02,0.0484625
4.0304e-02,0.0467469
4.0336e-02,0.0457312
4.0368e-02,0.0444312
4.0400e-02,0.0428562
4.0432e-02,0.0416937
4.0464e-02,0.0402469
4.0496e-02,0.0398906
4.0528e-02,0.0381687
4.0560e-02,0.0374094
4.0592e-02,0.0377562
4.0624e-02,0.0373437
4.0656e-02,0.0366531
4.0688e-02,0.0357781
4.0720e-02,0.0357406
4.0752e-02,0.0345031
4.0784e-02,0.0328781
4.0816e-02,0.0324219
4.0848e-02,0.0323656
4.0880e-02,0.0324312
4.0912e-02,0.0330719
4.0944e-02,0.0320406
4.0976e-02,0.031075
4.1008e-02,0.0306719
4.1040e-02,0.0298312
4.1072e-02,0.0302375
4.1104e-02,0.0307094
4.1136e-02,0.0304281
4.1168e-02,0.0301187
4.1200e-02,0.029725
4.1232e-02,0.0290812
4.1264e-02,0.0287781
4.1296e-02,0.0290281
4.1328e-02,0.0289625
4.1360e-02,0.0286062
4.1392e-02,0.0284625
4.1424e-02,0.0285406
4.1456e-02,0.0281719
4.1488e-02,0.0288625
4.1520e-02,0.028625
4.1552e-02,0.0281125
4.1584e-02,0.0280469
4.1616e-02,0.0282906
4.1648e-02,0.0286344
4.1680e-02,0.0289906
4.1712e-02,0.0282625
4.1744e-02,0.0289156
4.1776e-02,0.0300687
4.1808e-02,0.0304625
4.1840e-02,0.0315344
4.1872e-02,0.0307781
4.1904e-02,0.030475
4.1936e-02,0.0306031
4.1968e-02,0.0309594
4.2000e-02,0.0309719
4.2032e-02,0.0308656
4.2064e-02,0.0306437
4.2096e-02,0.0304812
4.2128e-02,0.0304531
4.2160e-02,0.0293719
4.2192e-02,0.0288344
4.2224e-02,0.0286375
4.2256e-02,0.0276531
4.2288e-02,0.0289594
4.2320e-02,0.0295156
4.2352e-02,0.0300219
4.2384e-02,0.0298812
4.2416e-02,0.0298312
4.2448e-02,0.0293906
4.2480e-02,0.0290781
4.2512e-02,0.0307406
4.2544e-02,0.0316312
4.2576e-02,0.0314875
4.2608e-02,0.0313187
4.2640e-02,0.0304906
4.2672e-02,0.0305187
4.2704e-02,0.0300094
4.2736e-02,0.0303594
4.2768e-02,0.02975
4.2800e-02,0.029975
4.2832e-02,0.0301437
4.2864e-02,0.0299344
4.2896e-02,0.0294906
4.2928e-02,0.0298687
4.2960e-02,0.0298719
4.2992e-02,0.0306625
4.3024e-02,0.031325
4.3056e-02,0.0315656
4.3088e-02,0.0317156
4.3120e-02,0.0312312
4.3152e-02,0.0307531
4.3184e-02,0.0302906
4.3216e-02,0.0297594
4.3248e-02,0.0295562
4.3280e-02,0.0302719
4.3312e-02,0.0297719
4.3344e-02,0.02975
4.3376e-02,0.0296937
4.3408e-02,0.0305812
4.3440e-02,0.0305969
4.3472e-02,0.0298562
4.3504e-02,0.0298375
