432Lab1/Na_D_lines_run1.CSV

Model,MSO2024
Firmware Version,1.52

Point Format,Y,
Horizontal Units,S,
Horizontal Scale,4,
Sample Interval,0.00768049,
Filter Frequency,2e+08,
Record Length,5200,
Gating,0.0% to 100.0%,
Probe Attenuation,1,
Vertical Units,V,
Vertical Offset,0,
Vertical Scale,0.2,
Label,,
TIME,CH1,CH1 Peak Detect
-2.0000e+01,-0.02,-0.012
-1.9992e+01,-0.012,-0.028
-1.9985e+01,-0.02,-0.012
-1.9977e+01,-0.02,-0.028
-1.9969e+01,-0.02,-0.012
-1.9962e+01,-0.02,-0.028
-1.9954e+01,-0.02,-0.012
-1.9946e+01,-0.02,-0.028
-1.9939e+01,-0.02,-0.00399998
-1.9931e+01,-0.02,-0.028
-1.9923e+01,-0.02,-0.012
-1.9916e+01,-0.02,-0.028
-1.9908e+01,-0.02,-0.012
-1.9900e+01,-0.02,-0.028
-1.9892e+01,-0.02,-0.012
-1.9885e+01,-0.02,-0.028
-1.9877e+01,-0.02,-0.012
-1.9869e+01,-0.02,-0.028
-1.9862e+01,-0.02,-0.012
-1.9854e+01,-0.02,-0.028
-1.9846e+01,-0.02,-0.012
-1.9839e+01,-0.02,-0.028
-1.9831e+01,-0.02,-0.012
-1.9823e+01,-0.02,-0.028
-1.9816e+01,-0.02,-0.012
-1.9808e+01,-0.02,-0.028
-1.9800e+01,-0.02,-0.012
-1.9793e+01,-0.02,-0.028
-1.9785e+01,-0.02,-0.012
-1.9777e+01,-0.02,-0.028
-1.9770e+01,-0.02,-0.012
-1.9762e+01,-0.02,-0.028
-1.9754e+01,-0.02,-0.012
-1.9747e+01,-0.02,-0.028
-1.9739e+01,-0.02,-0.012
-1.9731e+01,-0.02,-0.028
-1.9724e+01,-0.02,-0.012
-1.9716e+01,-0.02,-0.028
-1.9708e+01,-0.02,-0.012
-1.9700e+01,-0.028,-0.036
-1.9693e+01,-0.02,-0.012
-1.9685e+01,-0.02,-0.036
-1.9677e+01,-0.028,-0.012
-1.9670e+01,-0.02,-0.036
-1.9662e+01,-0.02,-0.012
-1.9654e+01,-0.02,-0.036
-1.9647e+01,-0.02,-0.012
-1.9639e+01,-0.02,-0.036
-1.9631e+01,-0.02,-0.012
-1.9624e+01,-0.02,-0.036
-1.9616e+01,-0.028,-0.012
-1.9608e+01,-0.02,-0.036
-1.9601e+01,-0.02,-0.012
-1.9593e+01,-0.02,-0.036
-1.9585e+01,-0.02,-0.012
-1.9578e+01,-0.02,-0.036
-1.9570e+01,-0.02,-0.012
-1.9562e+01,-0.02,-0.036
-1.9555e+01,-0.028,-0.012
-1.9547e+01,-0.02,-0.036
-1.9539e+01,-0.02,-0.012
-1.9531e+01,-0.02,-0.036
-1.9524e+01,-0.02,-0.012
-1.9516e+01,-0.02,-0.036
-1.9508e+01,-0.02,-0.012
-1.9501e+01,-0.02,-0.036
-1.9493e+01,-0.02,-0.012
-1.9485e+01,-0.02,-0.036
-1.9478e+01,-0.02,-0.012
-1.9470e+01,-0.02,-0.036
-1.9462e+01,-0.02,-0.012
-1.9455e+01,-0.02,-0.036
-1.9447e+01,-0.028,-0.012
-1.9439e+01,-0.02,-0.036
-1.9432e+01,-0.02,-0.012
-1.9424e+01,-0.02,-0.036
-1.9416e+01,-0.028,-0.012
-1.9409e+01,-0.02,-0.036
-1.9401e+01,-0.02,-0.012
-1.9393e+01,-0.02,-0.036
-1.9386e+01,-0.02,-0.012
-1.9378e+01,-0.02,-0.036
-1.9370e+01,-0.02,-0.012
-1.9363e+01,-0.028,-0.036
-1.9355e+01,-0.02,-0.012
-1.9347e+01,-0.028,-0.036
-1.9339e+01,-0.028,-0.012
-1.9332e+01,-0.02,-0.036
-1.9324e+01,-0.028,-0.012
-1.9316e+01,-0.028,-0.036
-1.9309e+01,-0.02,-0.012
-1.9301e+01,-0.028,-0.036
-1.9293e+01,-0.02,-0.012
-1.9286e+01,-0.02,-0.036
-1.9278e+01,-0.028,-0.012
-1.9270e+01,-0.028,-0.036
-1.9263e+01,-0.02,-0.012
-1.9255e+01,-0.028,-0.036
-1.9247e+01,-0.02,-0.012
-1.9240e+01,-0.028,-0.036
-1.9232e+01,-0.028,-0.012
-1.9224e+01,-0.028,-0.036
-1.9217e+01,-0.028,-0.012
-1.9209e+01,-0.028,-0.036
-1.9201e+01,-0.02,-0.012
-1.9194e+01,-0.028,-0.036
-1.9186e+01,-0.028,-0.012
-1.9178e+01,-0.028,-0.036
-1.9171e+01,-0.028,-0.012
-1.9163e+01,-0.028,-0.036
-1.9155e+01,-0.028,-0.012
-1.9147e+01,-0.028,-0.036
-1.9140e+01,-0.028,-0.012
-1.9132e+01,-0.028,-0.036
-1.9124e+01,-0.028,-0.012
-1.9117e+01,-0.028,-0.036
-1.9109e+01,-0.028,-0.012
-1.9101e+01,-0.028,-0.036
-1.9094e+01,-0.028,-0.02
-1.9086e+01,-0.028,-0.036
-1.9078e+01,-0.028,-0.02
-1.9071e+01,-0.028,-0.036
-1.9063e+01,-0.028,-0.02
-1.9055e+01,-0.028,-0.036
-1.9048e+01,-0.028,-0.02
-1.9040e+01,-0.028,-0.036
-1.9032e+01,-0.028,-0.02
-1.9025e+01,-0.036,-0.036
-1.9017e+01,-0.028,-0.02
-1.9009e+01,-0.028,-0.036
-1.9002e+01,-0.028,-0.02
-1.8994e+01,-0.028,-0.036
-1.8986e+01,-0.028,-0.02
-1.8978e+01,-0.02,-0.044
-1.8971e+01,-0.028,-0.02
-1.8963e+01,-0.028,-0.036
-1.8955e+01,-0.028,-0.02
-1.8948e+01,-0.028,-0.044
-1.8940e+01,-0.028,-0.02
-1.8932e+01,-0.028,-0.036
-1.8925e+01,-0.028,-0.02
-1.8917e+01,-0.028,-0.044
-1.8909e+01,-0.028,-0.02
-1.8902e+01,-0.036,-0.044
-1.8894e+01,-0.028,-0.02
-1.8886e+01,-0.028,-0.044
-1.8879e+01,-0.028,-0.02
-1.8871e+01,-0.028,-0.044
-1.8863e+01,-0.028,-0.02
-1.8856e+01,-0.036,-0.044
-1.8848e+01,-0.028,-0.02
-1.8840e+01,-0.028,-0.044
-1.8833e+01,-0.028,-0.02
-1.8825e+01,-0.028,-0.044
-1.8817e+01,-0.028,-0.02
-1.8810e+01,-0.028,-0.044
-1.8802e+01,-0.028,-0.02
-1.8794e+01,-0.028,-0.044
-1.8786e+01,-0.036,-0.02
-1.8779e+01,-0.036,-0.044
-1.8771e+01,-0.028,-0.02
-1.8763e+01,-0.036,-0.044
-1.8756e+01,-0.036,-0.02
-1.8748e+01,-0.028,-0.044
-1.8740e+01,-0.028,-0.02
-1.8733e+01,-0.028,-0.044
-1.8725e+01,-0.028,-0.02
-1.8717e+01,-0.028,-0.044
-1.8710e+01,-0.036,-0.02
-1.8702e+01,-0.036,-0.044
-1.8694e+01,-0.036,-0.02
-1.8687e+01,-0.028,-0.044
-1.8679e+01,-0.036,-0.02
-1.8671e+01,-0.036,-0.044
-1.8664e+01,-0.036,-0.028
-1.8656e+01,-0.036,-0.044
-1.8648e+01,-0.036,-0.028
-1.8641e+01,-0.028,-0.044
-1.8633e+01,-0.036,-0.028
-1.8625e+01,-0.036,-0.044
-1.8618e+01,-0.036,-0.028
-1.8610e+01,-0.036,-0.044
-1.8602e+01,-0.036,-0.028
-1.8594e+01,-0.036,-0.044
-1.8587e+01,-0.044,-0.028
-1.8579e+01,-0.028,-0.044
-1.8571e+01,-0.036,-0.028
-1.8564e+01,-0.036,-0.044
-1.8556e+01,-0.036,-0.028
-1.8548e+01,-0.036,-0.044
-1.8541e+01,-0.036,-0.028
-1.8533e+01,-0.036,-0.052
-1.8525e+01,-0.036,-0.028
-1.8518e+01,-0.036,-0.052
-1.8510e+01,-0.036,-0.028
-1.8502e+01,-0.036,-0.052
-1.8495e+01,-0.036,-0.028
-1.8487e+01,-0.036,-0.052
-1.8479e+01,-0.036,-0.028
-1.8472e+01,-0.036,-0.052
-1.8464e+01,-0.044,-0.028
-1.8456e+01,-0.036,-0.052
-1.8449e+01,-0.036,-0.028
-1.8441e+01,-0.044,-0.052
-1.8433e+01,-0.044,-0.028
-1.8425e+01,-0.036,-0.052
-1.8418e+01,-0.044,-0.028
-1.8410e+01,-0.044,-0.052
-1.8402e+01,-0.036,-0.028
-1.8395e+01,-0.044,-0.052
-1.8387e+01,-0.044,-0.028
-1.8379e+01,-0.044,-0.052
-1.8372e+01,-0.044,-0.028
-1.8364e+01,-0.036,-0.052
-1.8356e+01,-0.044,-0.028
-1.8349e+01,-0.044,-0.052
-1.8341e+01,-0.044,-0.036
-1.8333e+01,-0.044,-0.052
-1.8326e+01,-0.044,-0.028
-1.8318e+01,-0.044,-0.052
-1.8310e+01,-0.036,-0.036
-1.8303e+01,-0.044,-0.052
-1.8295e+01,-0.044,-0.036
-1.8287e+01,-0.044,-0.052
-1.8280e+01,-0.044,-0.036
-1.8272e+01,-0.044,-0.052
-1.8264e+01,-0.044,-0.036
-1.8257e+01,-0.044,-0.06
-1.8249e+01,-0.052,-0.036
-1.8241e+01,-0.044,-0.06
-1.8233e+01,-0.044,-0.036
-1.8226e+01,-0.044,-0.06
-1.8218e+01,-0.044,-0.036
-1.8210e+01,-0.052,-0.06
-1.8203e+01,-0.044,-0.036
-1.8195e+01,-0.044,-0.06
-1.8187e+01,-0.044,-0.036
-1.8180e+01,-0.044,-0.06
-1.8172e+01,-0.044,-0.036
-1.8164e+01,-0.052,-0.06
-1.8157e+01,-0.052,-0.036
-1.8149e+01,-0.052,-0.06
-1.8141e+01,-0.052,-0.036
-1.8134e+01,-0.052,-0.06
-1.8126e+01,-0.052,-0.036
-1.8118e+01,-0.052,-0.06
-1.8111e+01,-0.052,-0.044
-1.8103e+01,-0.052,-0.06
-1.8095e+01,-0.052,-0.036
-1.8088e+01,-0.052,-0.06
-1.8080e+01,-0.052,-0.044
-1.8072e+01,-0.052,-0.06
-1.8065e+01,-0.052,-0.044
-1.8057e+01,-0.052,-0.06
-1.8049e+01,-0.052,-0.044
-1.8041e+01,-0.052,-0.06
-1.8034e+01,-0.052,-0.044
-1.8026e+01,-0.052,-0.068
-1.8018e+01,-0.052,-0.044
-1.8011e+01,-0.06,-0.068
-1.8003e+01,-0.052,-0.044
-1.7995e+01,-0.06,-0.068
-1.7988e+01,-0.052,-0.044
-1.7980e+01,-0.06,-0.068
-1.7972e+01,-0.06,-0.044
-1.7965e+01,-0.06,-0.068
-1.7957e+01,-0.06,-0.044
-1.7949e+01,-0.052,-0.068
-1.7942e+01,-0.06,-0.044
-1.7934e+01,-0.052,-0.068
-1.7926e+01,-0.052,-0.052
-1.7919e+01,-0.052,-0.068
-1.7911e+01,-0.06,-0.052
-1.7903e+01,-0.06,-0.068
-1.7896e+01,-0.06,-0.044
-1.7888e+01,-0.06,-0.068
-1.7880e+01,-0.06,-0.052
-1.7873e+01,-0.052,-0.068
-1.7865e+01,-0.06,-0.052
-1.7857e+01,-0.06,-0.076
-1.7849e+01,-0.06,-0.052
-1.7842e+01,-0.06,-0.076
-1.7834e+01,-0.06,-0.052
-1.7826e+01,-0.06,-0.076
-1.7819e+01,-0.068,-0.052
-1.7811e+01,-0.06,-0.076
-1.7803e+01,-0.068,-0.052
-1.7796e+01,-0.06,-0.076
-1.7788e+01,-0.068,-0.052
-1.7780e+01,-0.068,-0.076
-1.7773e+01,-0.068,-0.052
-1.7765e+01,-0.068,-0.076
-1.7757e+01,-0.068,-0.06
-1.7750e+01,-0.068,-0.076
-1.7742e+01,-0.068,-0.06
-1.7734e+01,-0.068,-0.076
-1.7727e+01,-0.068,-0.06
-1.7719e+01,-0.068,-0.076
-1.7711e+01,-0.068,-0.06
-1.7704e+01,-0.068,-0.084
-1.7696e+01,-0.068,-0.06
-1.7688e+01,-0.068,-0.084
-1.7680e+01,-0.076,-0.06
-1.7673e+01,-0.068,-0.084
-1.7665e+01,-0.068,-0.06
-1.7657e+01,-0.076,-0.084
-1.7650e+01,-0.068,-0.06
-1.7642e+01,-0.076,-0.084
-1.7634e+01,-0.076,-0.068
-1.7627e+01,-0.076,-0.084
-1.7619e+01,-0.076,-0.068
-1.7611e+01,-0.076,-0.084
-1.7604e+01,-0.076,-0.068
-1.7596e+01,-0.076,-0.084
-1.7588e+01,-0.076,-0.068
-1.7581e+01,-0.076,-0.092
-1.7573e+01,-0.076,-0.068
-1.7565e+01,-0.076,-0.092
-1.7558e+01,-0.076,-0.068
-1.7550e+01,-0.084,-0.092
-1.7542e+01,-0.084,-0.068
-1.7535e+01,-0.084,-0.092
-1.7527e+01,-0.084,-0.076
-1.7519e+01,-0.084,-0.092
-1.7512e+01,-0.084,-0.076
-1.7504e+01,-0.084,-0.092
-1.7496e+01,-0.084,-0.076
-1.7488e+01,-0.084,-0.1
-1.7481e+01,-0.084,-0.076
-1.7473e+01,-0.092,-0.1
-1.7465e+01,-0.092,-0.076
-1.7458e+01,-0.092,-0.1
-1.7450e+01,-0.092,-0.076
-1.7442e+01,-0.084,-0.1
-1.7435e+01,-0.092,-0.084
-1.7427e+01,-0.092,-0.1
-1.7419e+01,-0.092,-0.084
-1.7412e+01,-0.1,-0.108
-1.7404e+01,-0.092,-0.084
-1.7396e+01,-0.092,-0.108
-1.7389e+01,-0.1,-0.084
-1.7381e+01,-0.092,-0.108
-1.7373e+01,-0.1,-0.084
-1.7366e+01,-0.1,-0.108
-1.7358e+01,-0.1,-0.092
-1.7350e+01,-0.1,-0.116
-1.7343e+01,-0.1,-0.092
-1.7335e+01,-0.1,-0.116
-1.7327e+01,-0.1,-0.092
-1.7320e+01,-0.1,-0.116
-1.7312e+01,-0.108,-0.092
-1.7304e+01,-0.108,-0.116
-1.7296e+01,-0.108,-0.1
-1.7289e+01,-0.108,-0.116
-1.7281e+01,-0.108,-0.1
-1.7273e+01,-0.108,-0.124
-1.7266e+01,-0.108,-0.1
-1.7258e+01,-0.116,-0.124
-1.7250e+01,-0.116,-0.1
-1.7243e+01,-0.116,-0.124
-1.7235e+01,-0.116,-0.108
-1.7227e+01,-0.116,-0.124
-1.7220e+01,-0.116,-0.108
-1.7212e+01,-0.124,-0.132
-1.7204e+01,-0.124,-0.108
-1.7197e+01,-0.116,-0.132
-1.7189e+01,-0.116,-0.116
-1.7181e+01,-0.124,-0.14
-1.7174e+01,-0.124,-0.116
-1.7166e+01,-0.124,-0.14
-1.7158e+01,-0.124,-0.116
-1.7151e+01,-0.132,-0.14
-1.7143e+01,-0.132,-0.116
-1.7135e+01,-0.132,-0.148
-1.7127e+01,-0.132,-0.124
-1.7120e+01,-0.132,-0.148
-1.7112e+01,-0.132,-0.124
-1.7104e+01,-0.14,-0.148
-1.7097e+01,-0.14,-0.132
-1.7089e+01,-0.14,-0.156
-1.7081e+01,-0.14,-0.132
-1.7074e+01,-0.148,-0.156
-1.7066e+01,-0.14,-0.132
-1.7058e+01,-0.148,-0.164
-1.7051e+01,-0.148,-0.14
-1.7043e+01,-0.156,-0.164
-1.7035e+01,-0.156,-0.14
-1.7028e+01,-0.148,-0.164
-1.7020e+01,-0.156,-0.148
-1.7012e+01,-0.156,-0.172
-1.7005e+01,-0.164,-0.148
-1.6997e+01,-0.164,-0.172
-1.6989e+01,-0.164,-0.156
-1.6982e+01,-0.164,-0.18
-1.6974e+01,-0.164,-0.156
-1.6966e+01,-0.164,-0.188
-1.6959e+01,-0.172,-0.164
-1.6951e+01,-0.172,-0.188
-1.6943e+01,-0.18,-0.164
-1.6935e+01,-0.18,-0.188
-1.6928e+01,-0.18,-0.172
-1.6920e+01,-0.188,-0.196
-1.6912e+01,-0.188,-0.18
-1.6905e+01,-0.188,-0.204
-1.6897e+01,-0.188,-0.18
-1.6889e+01,-0.188,-0.204
-1.6882e+01,-0.188,-0.18
-1.6874e+01,-0.196,-0.212
-1.6866e+01,-0.196,-0.188
-1.6859e+01,-0.204,-0.212
-1.6851e+01,-0.204,-0.196
-1.6843e+01,-0.196,-0.22
-1.6836e+01,-0.212,-0.196
-1.6828e+01,-0.212,-0.228
-1.6820e+01,-0.212,-0.204
-1.6813e+01,-0.22,-0.228
-1.6805e+01,-0.22,-0.212
-1.6797e+01,-0.22,-0.236
-1.6790e+01,-0.22,-0.212
-1.6782e+01,-0.22,-0.244
-1.6774e+01,-0.228,-0.22
-1.6767e+01,-0.228,-0.244
-1.6759e+01,-0.236,-0.22
-1.6751e+01,-0.236,-0.252
-1.6743e+01,-0.236,-0.228
-1.6736e+01,-0.252,-0.26
-1.6728e+01,-0.252,-0.236
-1.6720e+01,-0.252,-0.26
-1.6713e+01,-0.252,-0.244
-1.6705e+01,-0.26,-0.268
-1.6697e+01,-0.252,-0.252
-1.6690e+01,-0.26,-0.276
-1.6682e+01,-0.26,-0.252
-1.6674e+01,-0.268,-0.284
-1.6667e+01,-0.268,-0.26
-1.6659e+01,-0.276,-0.292
-1.6651e+01,-0.284,-0.268
-1.6644e+01,-0.284,-0.3
-1.6636e+01,-0.292,-0.276
-1.6628e+01,-0.292,-0.308
-1.6621e+01,-0.292,-0.284
-1.6613e+01,-0.3,-0.316
-1.6605e+01,-0.3,-0.292
-1.6598e+01,-0.3,-0.316
-1.6590e+01,-0.308,-0.3
-1.6582e+01,-0.308,-0.324
-1.6575e+01,-0.316,-0.3
-1.6567e+01,-0.316,-0.332
-1.6559e+01,-0.316,-0.308
-1.6551e+01,-0.324,-0.34
-1.6544e+01,-0.332,-0.316
-1.6536e+01,-0.34,-0.348
-1.6528e+01,-0.34,-0.324
-1.6521e+01,-0.34,-0.356
-1.6513e+01,-0.348,-0.332
-1.6505e+01,-0.348,-0.372
-1.6498e+01,-0.348,-0.34
-1.6490e+01,-0.356,-0.372
-1.6482e+01,-0.356,-0.348
-1.6475e+01,-0.356,-0.388
-1.6467e+01,-0.372,-0.356
-1.6459e+01,-0.372,-0.396
-1.6452e+01,-0.38,-0.364
-1.6444e+01,-0.388,-0.404
-1.6436e+01,-0.396,-0.372
-1.6429e+01,-0.396,-0.404
-1.6421e+01,-0.396,-0.388
-1.6413e+01,-0.396,-0.412
-1.6406e+01,-0.396,-0.388
-1.6398e+01,-0.404,-0.42
-1.6390e+01,-0.404,-0.396
-1.6382e+01,-0.412,-0.428
-1.6375e+01,-0.412,-0.404
-1.6367e+01,-0.428,-0.444
-1.6359e+01,-0.428,-0.412
-1.6352e+01,-0.436,-0.452
-1.6344e+01,-0.444,-0.42
-1.6336e+01,-0.444,-0.46
-1.6329e+01,-0.444,-0.436
-1.6321e+01,-0.452,-0.468
-1.6313e+01,-0.452,-0.444
-1.6306e+01,-0.452,-0.476
-1.6298e+01,-0.46,-0.452
-1.6290e+01,-0.46,-0.492
-1.6283e+01,-0.468,-0.46
-1.6275e+01,-0.468,-0.5
-1.6267e+01,-0.484,-0.468
-1.6260e+01,-0.484,-0.508
-1.6252e+01,-0.5,-0.484
-1.6244e+01,-0.492,-0.516
-1.6237e+01,-0.508,-0.492
-1.6229e+01,-0.5,-0.516
-1.6221e+01,-0.508,-0.5
-1.6214e+01,-0.508,-0.532
-1.6206e+01,-0.516,-0.508
-1.6198e+01,-0.516,-0.54
-1.6190e+01,-0.516,-0.508
-1.6183e+01,-0.532,-0.548
-1.6175e+01,-0.532,-0.524
-1.6167e+01,-0.54,-0.564
-1.6160e+01,-0.548,-0.532
-1.6152e+01,-0.556,-0.572
-1.6144e+01,-0.556,-0.54
-1.6137e+01,-0.564,-0.58
-1.6129e+01,-0.564,-0.548
-1.6121e+01,-0.572,-0.588
-1.6114e+01,-0.564,-0.556
-1.6106e+01,-0.572,-0.596
-1.6098e+01,-0.58,-0.572
-1.6091e+01,-0.58,-0.612
-1.6083e+01,-0.588,-0.58
-1.6075e+01,-0.588,-0.62
-1.6068e+01,-0.604,-0.588
-1.6060e+01,-0.604,-0.628
-1.6052e+01,-0.62,-0.596
-1.6045e+01,-0.62,-0.628
-1.6037e+01,-0.62,-0.604
-1.6029e+01,-0.62,-0.636
-1.6022e+01,-0.62,-0.612
-1.6014e+01,-0.628,-0.644
-1.6006e+01,-0.628,-0.62
-1.5998e+01,-0.636,-0.66
-1.5991e+01,-0.636,-0.628
-1.5983e+01,-0.644,-0.668
-1.5975e+01,-0.644,-0.628
-1.5968e+01,-0.66,-0.676
-1.5960e+01,-0.66,-0.636
-1.5952e+01,-0.676,-0.684
-1.5945e+01,-0.668,-0.644
-1.5937e+01,-0.676,-0.692
-1.5929e+01,-0.668,-0.652
-1.5922e+01,-0.668,-0.7
-1.5914e+01,-0.676,-0.66
-1.5906e+01,-0.676,-0.708
-1.5899e+01,-0.684,-0.668
-1.5891e+01,-0.676,-0.716
-1.5883e+01,-0.692,-0.676
-1.5876e+01,-0.692,-0.724
-1.5868e+01,-0.708,-0.684
-1.5860e+01,-0.7,-0.724
-1.5853e+01,-0.716,-0.692
-1.5845e+01,-0.716,-0.732
-1.5837e+01,-0.716,-0.692
-1.5829e+01,-0.708,-0.732
-1.5822e+01,-0.708,-0.7
-1.5814e+01,-0.716,-0.74
-1.5806e+01,-0.708,-0.7
-1.5799e+01,-0.716,-0.748
-1.5791e+01,-0.716,-0.708
-1.5783e+01,-0.732,-0.748
-1.5776e+01,-0.724,-0.708
-1.5768e+01,-0.732,-0.756
-1.5760e+01,-0.74,-0.716
-1.5753e+01,-0.748,-0.764
-1.5745e+01,-0.74,-0.716
-1.5737e+01,-0.74,-0.764
-1.5730e+01,-0.74,-0.724
-1.5722e+01,-0.74,-0.772
-1.5714e+01,-0.74,-0.724
-1.5707e+01,-0.732,-0.772
-1.5699e+01,-0.748,-0.732
-1.5691e+01,-0.74,-0.772
-1.5684e+01,-0.756,-0.732
-1.5676e+01,-0.748,-0.78
-1.5668e+01,-0.764,-0.732
-1.5661e+01,-0.756,-0.772
-1.5653e+01,-0.764,-0.732
-1.5645e+01,-0.756,-0.78
-1.5637e+01,-0.764,-0.74
-1.5630e+01,-0.748,-0.78
-1.5622e+01,-0.756,-0.74
-1.5614e+01,-0.756,-0.78
-1.5607e+01,-0.748,-0.74
-1.5599e+01,-0.756,-0.78
-1.5591e+01,-0.756,-0.74
-1.5584e+01,-0.764,-0.788
-1.5576e+01,-0.756,-0.74
-1.5568e+01,-0.772,-0.788
-1.5561e+01,-0.764,-0.74
-1.5553e+01,-0.772,-0.788
-1.5545e+01,-0.764,-0.74
-1.5538e+01,-0.764,-0.788
-1.5530e+01,-0.756,-0.74
-1.5522e+01,-0.748,-0.788
-1.5515e+01,-0.756,-0.74
-1.5507e+01,-0.748,-0.78
-1.5499e+01,-0.764,-0.74
-1.5492e+01,-0.756,-0.78
-1.5484e+01,-0.764,-0.74
-1.5476e+01,-0.764,-0.78
-1.5469e+01,-0.772,-0.732
-1.5461e+01,-0.764,-0.78
-1.5453e+01,-0.764,-0.732
-1.5445e+01,-0.756,-0.78
-1.5438e+01,-0.748,-0.732
-1.5430e+01,-0.748,-0.78
-1.5422e+01,-0.74,-0.732
-1.5415e+01,-0.748,-0.772
-1.5407e+01,-0.74,-0.724
-1.5399e+01,-0.748,-0.772
-1.5392e+01,-0.74,-0.724
-1.5384e+01,-0.756,-0.772
-1.5376e+01,-0.748,-0.724
-1.5369e+01,-0.756,-0.764
-1.5361e+01,-0.748,-0.716
-1.5353e+01,-0.748,-0.764
-1.5346e+01,-0.74,-0.716
-1.5338e+01,-0.732,-0.756
-1.5330e+01,-0.732,-0.708
-1.5323e+01,-0.724,-0.756
-1.5315e+01,-0.724,-0.708
-1.5307e+01,-0.716,-0.748
-1.5300e+01,-0.724,-0.7
-1.5292e+01,-0.716,-0.748
-1.5284e+01,-0.724,-0.7
-1.5276e+01,-0.724,-0.74
-1.5269e+01,-0.724,-0.692
-1.5261e+01,-0.716,-0.74
-1.5253e+01,-0.716,-0.684
-1.5246e+01,-0.7,-0.732
-1.5238e+01,-0.7,-0.684
-1.5230e+01,-0.692,-0.724
-1.5223e+01,-0.692,-0.676
-1.5215e+01,-0.692,-0.716
-1.5207e+01,-0.684,-0.676
-1.5200e+01,-0.692,-0.716
-1.5192e+01,-0.684,-0.668
-1.5184e+01,-0.692,-0.708
-1.5177e+01,-0.684,-0.66
-1.5169e+01,-0.684,-0.7
-1.5161e+01,-0.676,-0.652
-1.5154e+01,-0.676,-0.692
-1.5146e+01,-0.668,-0.644
-1.5138e+01,-0.66,-0.684
-1.5131e+01,-0.66,-0.644
-1.5123e+01,-0.652,-0.676
-1.5115e+01,-0.652,-0.628
-1.5108e+01,-0.644,-0.668
-1.5100e+01,-0.644,-0.628
-1.5092e+01,-0.644,-0.66
-1.5084e+01,-0.644,-0.62
-1.5077e+01,-0.636,-0.66
-1.5069e+01,-0.636,-0.612
-1.5061e+01,-0.628,-0.644
-1.5054e+01,-0.628,-0.604
-1.5046e+01,-0.62,-0.636
-1.5038e+01,-0.612,-0.596
-1.5031e+01,-0.604,-0.636
-1.5023e+01,-0.604,-0.588
-1.5015e+01,-0.604,-0.62
-1.5008e+01,-0.596,-0.58
-1.5000e+01,-0.604,-0.62
-1.4992e+01,-0.596,-0.572
-1.4985e+01,-0.596,-0.604
-1.4977e+01,-0.588,-0.564
-1.4969e+01,-0.58,-0.596
-1.4962e+01,-0.572,-0.556
-1.4954e+01,-0.572,-0.588
-1.4946e+01,-0.564,-0.548
-1.4939e+01,-0.556,-0.58
-1.4931e+01,-0.556,-0.54
-1.4923e+01,-0.548,-0.572
-1.4916e+01,-0.54,-0.532
-1.4908e+01,-0.54,-0.564
-1.4900e+01,-0.54,-0.524
-1.4892e+01,-0.54,-0.556
-1.4885e+01,-0.532,-0.508
-1.4877e+01,-0.532,-0.548
-1.4869e+01,-0.532,-0.5
-1.4862e+01,-0.516,-0.54
-1.4854e+01,-0.516,-0.492
-1.4846e+01,-0.508,-0.532
-1.4839e+01,-0.5,-0.484
-1.4831e+01,-0.5,-0.524
-1.4823e+01,-0.492,-0.476
-1.4816e+01,-0.492,-0.508
-1.4808e+01,-0.484,-0.468
-1.4800e+01,-0.484,-0.5
-1.4793e+01,-0.476,-0.46
-1.4785e+01,-0.484,-0.492
-1.4777e+01,-0.476,-0.452
-1.4770e+01,-0.468,-0.484
-1.4762e+01,-0.46,-0.444
-1.4754e+01,-0.46,-0.476
-1.4747e+01,-0.452,-0.436
-1.4739e+01,-0.452,-0.468
-1.4731e+01,-0.444,-0.428
-1.4724e+01,-0.436,-0.46
-1.4716e+01,-0.436,-0.42
-1.4708e+01,-0.436,-0.444
-1.4700e+01,-0.428,-0.412
-1.4693e+01,-0.42,-0.444
-1.4685e+01,-0.42,-0.396
-1.4677e+01,-0.42,-0.436
-1.4670e+01,-0.412,-0.388
-1.4662e+01,-0.412,-0.428
-1.4654e+01,-0.396,-0.38
-1.4647e+01,-0.404,-0.42
-1.4639e+01,-0.396,-0.38
-1.4631e+01,-0.388,-0.404
-1.4624e+01,-0.38,-0.372
-1.4616e+01,-0.38,-0.396
-1.4608e+01,-0.38,-0.364
-1.4601e+01,-0.38,-0.388
-1.4593e+01,-0.372,-0.356
-1.4585e+01,-0.372,-0.38
-1.4578e+01,-0.364,-0.34
-1.4570e+01,-0.356,-0.372
-1.4562e+01,-0.356,-0.332
-1.4555e+01,-0.348,-0.364
-1.4547e+01,-0.34,-0.324
-1.4539e+01,-0.34,-0.356
-1.4531e+01,-0.34,-0.324
-1.4524e+01,-0.332,-0.348
-1.4516e+01,-0.332,-0.316
-1.4508e+01,-0.324,-0.34
-1.4501e+01,-0.324,-0.308
-1.4493e+01,-0.324,-0.34
-1.4485e+01,-0.316,-0.3
-1.4478e+01,-0.308,-0.332
-1.4470e+01,-0.308,-0.292
-1.4462e+01,-0.308,-0.316
-1.4455e+01,-0.3,-0.284
-1.4447e+01,-0.292,-0.316
-1.4439e+01,-0.292,-0.276
-1.4432e+01,-0.292,-0.308
-1.4424e+01,-0.284,-0.268
-1.4416e+01,-0.284,-0.292
-1.4409e+01,-0.276,-0.26
-1.4401e+01,-0.276,-0.292
-1.4393e+01,-0.276,-0.26
-1.4386e+01,-0.268,-0.284
-1.4378e+01,-0.26,-0.252
-1.4370e+01,-0.26,-0.276
-1.4363e+01,-0.26,-0.244
-1.4355e+01,-0.252,-0.268
-1.4347e+01,-0.252,-0.236
-1.4339e+01,-0.244,-0.26
-1.4332e+01,-0.244,-0.228
-1.4324e+01,-0.244,-0.252
-1.4316e+01,-0.236,-0.228
-1.4309e+01,-0.236,-0.252
-1.4301e+01,-0.236,-0.22
-1.4293e+01,-0.236,-0.244
-1.4286e+01,-0.228,-0.212
-1.4278e+01,-0.228,-0.244
-1.4270e+01,-0.22,-0.204
-1.4263e+01,-0.22,-0.236
-1.4255e+01,-0.22,-0.204
-1.4247e+01,-0.212,-0.228
-1.4240e+01,-0.212,-0.196
-1.4232e+01,-0.212,-0.22
-1.4224e+01,-0.204,-0.196
-1.4217e+01,-0.204,-0.22
-1.4209e+01,-0.204,-0.188
-1.4201e+01,-0.204,-0.212
-1.4194e+01,-0.196,-0.188
-1.4186e+01,-0.196,-0.212
-1.4178e+01,-0.196,-0.18
-1.4171e+01,-0.188,-0.204
-1.4163e+01,-0.188,-0.172
-1.4155e+01,-0.18,-0.204
-1.4147e+01,-0.18,-0.172
-1.4140e+01,-0.18,-0.196
-1.4132e+01,-0.18,-0.164
-1.4124e+01,-0.18,-0.188
-1.4117e+01,-0.18,-0.164
-1.4109e+01,-0.172,-0.188
-1.4101e+01,-0.172,-0.156
-1.4094e+01,-0.172,-0.18
-1.4086e+01,-0.172,-0.156
-1.4078e+01,-0.164,-0.18
-1.4071e+01,-0.164,-0.148
